solid OpenSCAD_Model
  facet normal -1 0 0
    outer loop
      vertex 0 24.6 0
      vertex 0 23.7 0.9
      vertex 0 24.6 9
    endloop
  endfacet
  facet normal -1 0 0
    outer loop
      vertex 0 24.6 0
      vertex 0 0.9 0.9
      vertex 0 23.7 0.9
    endloop
  endfacet
  facet normal -1 -0 0
    outer loop
      vertex 0 0.9 0.9
      vertex 0 0 0
      vertex 0 0.9 8.1
    endloop
  endfacet
  facet normal -1 0 0
    outer loop
      vertex 0 0 0
      vertex 0 0.9 0.9
      vertex 0 24.6 0
    endloop
  endfacet
  facet normal -1 0 0
    outer loop
      vertex 0 23.7 8.1
      vertex 0 24.6 9
      vertex 0 23.7 0.9
    endloop
  endfacet
  facet normal -1 0 0
    outer loop
      vertex 0 0.9 8.1
      vertex 0 24.6 9
      vertex 0 23.7 8.1
    endloop
  endfacet
  facet normal -1 0 0
    outer loop
      vertex 0 0.9 8.1
      vertex 0 0 9
      vertex 0 24.6 9
    endloop
  endfacet
  facet normal -1 0 0
    outer loop
      vertex 0 0 9
      vertex 0 0.9 8.1
      vertex 0 0 0
    endloop
  endfacet
  facet normal -0 0 1
    outer loop
      vertex 0 24.6 9
      vertex 10 0 9
      vertex 10 24.6 9
    endloop
  endfacet
  facet normal 0 0 1
    outer loop
      vertex 10 0 9
      vertex 0 24.6 9
      vertex 0 0 9
    endloop
  endfacet
  facet normal 1 0 0
    outer loop
      vertex 10 24.6 9
      vertex 10 23.7 8.1
      vertex 10 24.6 0
    endloop
  endfacet
  facet normal 1 0 0
    outer loop
      vertex 10 24.6 9
      vertex 10 0.9 8.1
      vertex 10 23.7 8.1
    endloop
  endfacet
  facet normal 1 0 0
    outer loop
      vertex 10 0.9 8.1
      vertex 10 0 9
      vertex 10 0.9 0.9
    endloop
  endfacet
  facet normal 1 -0 0
    outer loop
      vertex 10 0 9
      vertex 10 0.9 8.1
      vertex 10 24.6 9
    endloop
  endfacet
  facet normal 1 -0 0
    outer loop
      vertex 10 23.7 0.9
      vertex 10 24.6 0
      vertex 10 23.7 8.1
    endloop
  endfacet
  facet normal 1 -0 0
    outer loop
      vertex 10 0.9 0.9
      vertex 10 24.6 0
      vertex 10 23.7 0.9
    endloop
  endfacet
  facet normal 1 0 0
    outer loop
      vertex 10 0.9 0.9
      vertex 10 0 0
      vertex 10 24.6 0
    endloop
  endfacet
  facet normal 1 0 0
    outer loop
      vertex 10 0 0
      vertex 10 0.9 0.9
      vertex 10 0 9
    endloop
  endfacet
  facet normal 0 0 -1
    outer loop
      vertex 0 0 0
      vertex 10 24.6 0
      vertex 10 0 0
    endloop
  endfacet
  facet normal -0 0 -1
    outer loop
      vertex 10 24.6 0
      vertex 0 0 0
      vertex 0 24.6 0
    endloop
  endfacet
  facet normal 0 -1 0
    outer loop
      vertex 0 0 0
      vertex 10 0 9
      vertex 0 0 9
    endloop
  endfacet
  facet normal 0 -1 -0
    outer loop
      vertex 10 0 9
      vertex 0 0 0
      vertex 10 0 0
    endloop
  endfacet
  facet normal 0 1 -0
    outer loop
      vertex 10 24.6 0
      vertex 0 24.6 9
      vertex 10 24.6 9
    endloop
  endfacet
  facet normal 0 1 0
    outer loop
      vertex 0 24.6 9
      vertex 10 24.6 0
      vertex 0 24.6 0
    endloop
  endfacet
  facet normal 0 0 -1
    outer loop
      vertex 0 0.9 8.1
      vertex 10 23.7 8.1
      vertex 10 0.9 8.1
    endloop
  endfacet
  facet normal -0 0 -1
    outer loop
      vertex 10 23.7 8.1
      vertex 0 0.9 8.1
      vertex 0 23.7 8.1
    endloop
  endfacet
  facet normal 0 -1 0
    outer loop
      vertex 0 23.7 0.9
      vertex 10 23.7 8.1
      vertex 0 23.7 8.1
    endloop
  endfacet
  facet normal 0 -1 -0
    outer loop
      vertex 10 23.7 8.1
      vertex 0 23.7 0.9
      vertex 10 23.7 0.9
    endloop
  endfacet
  facet normal -0 0 1
    outer loop
      vertex 0 23.7 0.9
      vertex 10 0.9 0.9
      vertex 10 23.7 0.9
    endloop
  endfacet
  facet normal 0 0 1
    outer loop
      vertex 10 0.9 0.9
      vertex 0 23.7 0.9
      vertex 0 0.9 0.9
    endloop
  endfacet
  facet normal 0 1 -0
    outer loop
      vertex 10 0.9 0.9
      vertex 0 0.9 8.1
      vertex 10 0.9 8.1
    endloop
  endfacet
  facet normal 0 1 0
    outer loop
      vertex 0 0.9 8.1
      vertex 10 0.9 0.9
      vertex 0 0.9 0.9
    endloop
  endfacet
endsolid OpenSCAD_Model
