solid OpenSCAD_Model
  facet normal -1 0 0
    outer loop
      vertex 0 0 0
      vertex 0 32.8 27.1167
      vertex 0 32.8 0
    endloop
  endfacet
  facet normal -1 -0 0
    outer loop
      vertex 0 32.8 27.1167
      vertex 0 0 0
      vertex 0 0 27.1167
    endloop
  endfacet
  facet normal 1 -0 0
    outer loop
      vertex 2.96667 0 27.1167
      vertex 2.96667 32.8 9.6
      vertex 2.96667 32.8 27.1167
    endloop
  endfacet
  facet normal 1 0 0
    outer loop
      vertex 2.96667 32.8 9.6
      vertex 2.96667 0 27.1167
      vertex 2.96667 0 9.6
    endloop
  endfacet
  facet normal 0 1 0
    outer loop
      vertex 17.8 32.8 9.6
      vertex 17.8 32.8 0
      vertex 2.96667 32.8 9.6
    endloop
  endfacet
  facet normal 0 1 0
    outer loop
      vertex 1.57647 32.8 28.5971
      vertex 1.39019 32.8 28.5971
      vertex 1.48333 32.8 28.6
    endloop
  endfacet
  facet normal 0 1 0
    outer loop
      vertex 1.66924 32.8 28.5883
      vertex 1.39019 32.8 28.5971
      vertex 1.57647 32.8 28.5971
    endloop
  endfacet
  facet normal 0 1 0
    outer loop
      vertex 1.66924 32.8 28.5883
      vertex 1.29742 32.8 28.5883
      vertex 1.39019 32.8 28.5971
    endloop
  endfacet
  facet normal 0 1 0
    outer loop
      vertex 1.76128 32.8 28.5737
      vertex 1.29742 32.8 28.5883
      vertex 1.66924 32.8 28.5883
    endloop
  endfacet
  facet normal 0 1 0
    outer loop
      vertex 1.76128 32.8 28.5737
      vertex 1.20538 32.8 28.5737
      vertex 1.29742 32.8 28.5883
    endloop
  endfacet
  facet normal 0 1 0
    outer loop
      vertex 1.85222 32.8 28.5534
      vertex 1.20538 32.8 28.5737
      vertex 1.76128 32.8 28.5737
    endloop
  endfacet
  facet normal 0 1 0
    outer loop
      vertex 1.85222 32.8 28.5534
      vertex 1.11444 32.8 28.5534
      vertex 1.20538 32.8 28.5737
    endloop
  endfacet
  facet normal 0 1 0
    outer loop
      vertex 1.94171 32.8 28.5274
      vertex 1.11444 32.8 28.5534
      vertex 1.85222 32.8 28.5534
    endloop
  endfacet
  facet normal 0 1 0
    outer loop
      vertex 1.94171 32.8 28.5274
      vertex 1.02496 32.8 28.5274
      vertex 1.11444 32.8 28.5534
    endloop
  endfacet
  facet normal 0 1 0
    outer loop
      vertex 2.02938 32.8 28.4958
      vertex 1.02496 32.8 28.5274
      vertex 1.94171 32.8 28.5274
    endloop
  endfacet
  facet normal 0 1 0
    outer loop
      vertex 2.02938 32.8 28.4958
      vertex 0.937282 32.8 28.4958
      vertex 1.02496 32.8 28.5274
    endloop
  endfacet
  facet normal 0 1 0
    outer loop
      vertex 2.11491 32.8 28.4588
      vertex 0.937282 32.8 28.4958
      vertex 2.02938 32.8 28.4958
    endloop
  endfacet
  facet normal 0 1 0
    outer loop
      vertex 2.11491 32.8 28.4588
      vertex 0.85176 32.8 28.4588
      vertex 0.937282 32.8 28.4958
    endloop
  endfacet
  facet normal 0 1 0
    outer loop
      vertex 2.19793 32.8 28.4165
      vertex 0.85176 32.8 28.4588
      vertex 2.11491 32.8 28.4588
    endloop
  endfacet
  facet normal 0 1 0
    outer loop
      vertex 2.19793 32.8 28.4165
      vertex 0.768731 32.8 28.4165
      vertex 0.85176 32.8 28.4588
    endloop
  endfacet
  facet normal 0 1 0
    outer loop
      vertex 2.27814 32.8 28.3691
      vertex 0.768731 32.8 28.4165
      vertex 2.19793 32.8 28.4165
    endloop
  endfacet
  facet normal 0 1 0
    outer loop
      vertex 2.27814 32.8 28.3691
      vertex 0.688523 32.8 28.3691
      vertex 0.768731 32.8 28.4165
    endloop
  endfacet
  facet normal 0 1 0
    outer loop
      vertex 2.35521 32.8 28.3167
      vertex 0.688523 32.8 28.3691
      vertex 2.27814 32.8 28.3691
    endloop
  endfacet
  facet normal 0 1 0
    outer loop
      vertex 2.35521 32.8 28.3167
      vertex 0.611451 32.8 28.3167
      vertex 0.688523 32.8 28.3691
    endloop
  endfacet
  facet normal 0 1 0
    outer loop
      vertex 2.42885 32.8 28.2596
      vertex 0.611451 32.8 28.3167
      vertex 2.35521 32.8 28.3167
    endloop
  endfacet
  facet normal 0 1 0
    outer loop
      vertex 2.42885 32.8 28.2596
      vertex 0.537821 32.8 28.2596
      vertex 0.611451 32.8 28.3167
    endloop
  endfacet
  facet normal 0 1 0
    outer loop
      vertex 2.49874 32.8 28.198
      vertex 0.537821 32.8 28.2596
      vertex 2.42885 32.8 28.2596
    endloop
  endfacet
  facet normal 0 1 0
    outer loop
      vertex 2.49874 32.8 28.198
      vertex 0.467921 32.8 28.198
      vertex 0.537821 32.8 28.2596
    endloop
  endfacet
  facet normal 0 1 0
    outer loop
      vertex 2.56464 32.8 28.1321
      vertex 0.467921 32.8 28.198
      vertex 2.49874 32.8 28.198
    endloop
  endfacet
  facet normal 0 1 0
    outer loop
      vertex 2.56464 32.8 28.1321
      vertex 0.402029 32.8 28.1321
      vertex 0.467921 32.8 28.198
    endloop
  endfacet
  facet normal 0 1 0
    outer loop
      vertex 2.62626 32.8 28.0622
      vertex 0.402029 32.8 28.1321
      vertex 2.56464 32.8 28.1321
    endloop
  endfacet
  facet normal 0 1 0
    outer loop
      vertex 2.62626 32.8 28.0622
      vertex 0.340405 32.8 28.0622
      vertex 0.402029 32.8 28.1321
    endloop
  endfacet
  facet normal 0 1 0
    outer loop
      vertex 2.68337 32.8 27.9885
      vertex 0.340405 32.8 28.0622
      vertex 2.62626 32.8 28.0622
    endloop
  endfacet
  facet normal 0 1 0
    outer loop
      vertex 2.68337 32.8 27.9885
      vertex 0.283291 32.8 27.9885
      vertex 0.340405 32.8 28.0622
    endloop
  endfacet
  facet normal 0 1 0
    outer loop
      vertex 2.73575 32.8 27.9115
      vertex 0.283291 32.8 27.9885
      vertex 2.68337 32.8 27.9885
    endloop
  endfacet
  facet normal 0 1 0
    outer loop
      vertex 2.73575 32.8 27.9115
      vertex 0.230913 32.8 27.9115
      vertex 0.283291 32.8 27.9885
    endloop
  endfacet
  facet normal 0 1 0
    outer loop
      vertex 2.78319 32.8 27.8313
      vertex 0.230913 32.8 27.9115
      vertex 2.73575 32.8 27.9115
    endloop
  endfacet
  facet normal 0 1 0
    outer loop
      vertex 2.78319 32.8 27.8313
      vertex 0.183478 32.8 27.8313
      vertex 0.230913 32.8 27.9115
    endloop
  endfacet
  facet normal 0 1 0
    outer loop
      vertex 2.82549 32.8 27.7482
      vertex 0.183478 32.8 27.8313
      vertex 2.78319 32.8 27.8313
    endloop
  endfacet
  facet normal 0 1 0
    outer loop
      vertex 2.82549 32.8 27.7482
      vertex 0.141172 32.8 27.7482
      vertex 0.183478 32.8 27.8313
    endloop
  endfacet
  facet normal 0 1 0
    outer loop
      vertex 2.8625 32.8 27.6627
      vertex 0.141172 32.8 27.7482
      vertex 2.82549 32.8 27.7482
    endloop
  endfacet
  facet normal 0 1 0
    outer loop
      vertex 2.8625 32.8 27.6627
      vertex 0.104164 32.8 27.6627
      vertex 0.141172 32.8 27.7482
    endloop
  endfacet
  facet normal 0 1 0
    outer loop
      vertex 2.89407 32.8 27.575
      vertex 0.104164 32.8 27.6627
      vertex 2.8625 32.8 27.6627
    endloop
  endfacet
  facet normal 0 1 0
    outer loop
      vertex 2.89407 32.8 27.575
      vertex 0.0725994 32.8 27.575
      vertex 0.104164 32.8 27.6627
    endloop
  endfacet
  facet normal 0 1 0
    outer loop
      vertex 2.92006 32.8 27.4856
      vertex 0.0725994 32.8 27.575
      vertex 2.89407 32.8 27.575
    endloop
  endfacet
  facet normal 0 1 0
    outer loop
      vertex 2.92006 32.8 27.4856
      vertex 0.0466013 32.8 27.4856
      vertex 0.0725994 32.8 27.575
    endloop
  endfacet
  facet normal 0 1 0
    outer loop
      vertex 2.94039 32.8 27.3946
      vertex 0.0466013 32.8 27.4856
      vertex 2.92006 32.8 27.4856
    endloop
  endfacet
  facet normal 0 1 0
    outer loop
      vertex 2.94039 32.8 27.3946
      vertex 0.0262737 32.8 27.3946
      vertex 0.0466013 32.8 27.4856
    endloop
  endfacet
  facet normal 0 1 0
    outer loop
      vertex 2.95497 32.8 27.3026
      vertex 0.0262737 32.8 27.3946
      vertex 2.94039 32.8 27.3946
    endloop
  endfacet
  facet normal 0 1 0
    outer loop
      vertex 2.95497 32.8 27.3026
      vertex 0.0116959 32.8 27.3026
      vertex 0.0262737 32.8 27.3946
    endloop
  endfacet
  facet normal 0 1 0
    outer loop
      vertex 2.96374 32.8 27.2098
      vertex 0.0116959 32.8 27.3026
      vertex 2.95497 32.8 27.3026
    endloop
  endfacet
  facet normal 0 1 0
    outer loop
      vertex 2.96374 32.8 27.2098
      vertex 0.00292683 32.8 27.2098
      vertex 0.0116959 32.8 27.3026
    endloop
  endfacet
  facet normal 0 1 0
    outer loop
      vertex 2.96667 32.8 27.1167
      vertex 0.00292683 32.8 27.2098
      vertex 2.96374 32.8 27.2098
    endloop
  endfacet
  facet normal 0 1 0
    outer loop
      vertex 2.96667 32.8 27.1167
      vertex 0 32.8 27.1167
      vertex 0.00292683 32.8 27.2098
    endloop
  endfacet
  facet normal 0 1 -0
    outer loop
      vertex 2.96667 32.8 9.6
      vertex 0 32.8 27.1167
      vertex 2.96667 32.8 27.1167
    endloop
  endfacet
  facet normal 0 1 0
    outer loop
      vertex 2.96667 32.8 9.6
      vertex 0 32.8 0
      vertex 0 32.8 27.1167
    endloop
  endfacet
  facet normal 0 1 0
    outer loop
      vertex 0 32.8 0
      vertex 2.96667 32.8 9.6
      vertex 17.8 32.8 0
    endloop
  endfacet
  facet normal -0 0 1
    outer loop
      vertex 2.96667 32.8 9.6
      vertex 17.8 0 9.6
      vertex 17.8 32.8 9.6
    endloop
  endfacet
  facet normal 0 0 1
    outer loop
      vertex 17.8 0 9.6
      vertex 2.96667 32.8 9.6
      vertex 2.96667 0 9.6
    endloop
  endfacet
  facet normal 0 -1 0
    outer loop
      vertex 1.39019 0 28.5971
      vertex 1.57647 0 28.5971
      vertex 1.48333 0 28.6
    endloop
  endfacet
  facet normal 0 -1 0
    outer loop
      vertex 1.29742 0 28.5883
      vertex 1.57647 0 28.5971
      vertex 1.39019 0 28.5971
    endloop
  endfacet
  facet normal 0 -1 0
    outer loop
      vertex 1.29742 0 28.5883
      vertex 1.66924 0 28.5883
      vertex 1.57647 0 28.5971
    endloop
  endfacet
  facet normal 0 -1 0
    outer loop
      vertex 1.20538 0 28.5737
      vertex 1.66924 0 28.5883
      vertex 1.29742 0 28.5883
    endloop
  endfacet
  facet normal 0 -1 0
    outer loop
      vertex 1.20538 0 28.5737
      vertex 1.76128 0 28.5737
      vertex 1.66924 0 28.5883
    endloop
  endfacet
  facet normal 0 -1 0
    outer loop
      vertex 1.11444 0 28.5534
      vertex 1.76128 0 28.5737
      vertex 1.20538 0 28.5737
    endloop
  endfacet
  facet normal 0 -1 0
    outer loop
      vertex 1.11444 0 28.5534
      vertex 1.85222 0 28.5534
      vertex 1.76128 0 28.5737
    endloop
  endfacet
  facet normal 0 -1 0
    outer loop
      vertex 1.02496 0 28.5274
      vertex 1.85222 0 28.5534
      vertex 1.11444 0 28.5534
    endloop
  endfacet
  facet normal 0 -1 0
    outer loop
      vertex 1.02496 0 28.5274
      vertex 1.94171 0 28.5274
      vertex 1.85222 0 28.5534
    endloop
  endfacet
  facet normal 0 -1 0
    outer loop
      vertex 0.937282 0 28.4958
      vertex 1.94171 0 28.5274
      vertex 1.02496 0 28.5274
    endloop
  endfacet
  facet normal 0 -1 0
    outer loop
      vertex 0.937282 0 28.4958
      vertex 2.02938 0 28.4958
      vertex 1.94171 0 28.5274
    endloop
  endfacet
  facet normal 0 -1 0
    outer loop
      vertex 0.85176 0 28.4588
      vertex 2.02938 0 28.4958
      vertex 0.937282 0 28.4958
    endloop
  endfacet
  facet normal 0 -1 0
    outer loop
      vertex 0.85176 0 28.4588
      vertex 2.11491 0 28.4588
      vertex 2.02938 0 28.4958
    endloop
  endfacet
  facet normal 0 -1 0
    outer loop
      vertex 0.768731 0 28.4165
      vertex 2.11491 0 28.4588
      vertex 0.85176 0 28.4588
    endloop
  endfacet
  facet normal 0 -1 0
    outer loop
      vertex 0.768731 0 28.4165
      vertex 2.19793 0 28.4165
      vertex 2.11491 0 28.4588
    endloop
  endfacet
  facet normal 0 -1 0
    outer loop
      vertex 0.688523 0 28.3691
      vertex 2.19793 0 28.4165
      vertex 0.768731 0 28.4165
    endloop
  endfacet
  facet normal 0 -1 0
    outer loop
      vertex 0.688523 0 28.3691
      vertex 2.27814 0 28.3691
      vertex 2.19793 0 28.4165
    endloop
  endfacet
  facet normal 0 -1 0
    outer loop
      vertex 0.611451 0 28.3167
      vertex 2.27814 0 28.3691
      vertex 0.688523 0 28.3691
    endloop
  endfacet
  facet normal 0 -1 0
    outer loop
      vertex 0.611451 0 28.3167
      vertex 2.35521 0 28.3167
      vertex 2.27814 0 28.3691
    endloop
  endfacet
  facet normal 0 -1 0
    outer loop
      vertex 0.537821 0 28.2596
      vertex 2.35521 0 28.3167
      vertex 0.611451 0 28.3167
    endloop
  endfacet
  facet normal 0 -1 0
    outer loop
      vertex 0.537821 0 28.2596
      vertex 2.42885 0 28.2596
      vertex 2.35521 0 28.3167
    endloop
  endfacet
  facet normal 0 -1 0
    outer loop
      vertex 0.467921 0 28.198
      vertex 2.42885 0 28.2596
      vertex 0.537821 0 28.2596
    endloop
  endfacet
  facet normal 0 -1 0
    outer loop
      vertex 0.467921 0 28.198
      vertex 2.49874 0 28.198
      vertex 2.42885 0 28.2596
    endloop
  endfacet
  facet normal 0 -1 0
    outer loop
      vertex 0.402029 0 28.1321
      vertex 2.49874 0 28.198
      vertex 0.467921 0 28.198
    endloop
  endfacet
  facet normal 0 -1 0
    outer loop
      vertex 0.402029 0 28.1321
      vertex 2.56464 0 28.1321
      vertex 2.49874 0 28.198
    endloop
  endfacet
  facet normal 0 -1 0
    outer loop
      vertex 0.340405 0 28.0622
      vertex 2.56464 0 28.1321
      vertex 0.402029 0 28.1321
    endloop
  endfacet
  facet normal 0 -1 0
    outer loop
      vertex 0.340405 0 28.0622
      vertex 2.62626 0 28.0622
      vertex 2.56464 0 28.1321
    endloop
  endfacet
  facet normal 0 -1 0
    outer loop
      vertex 0.283291 0 27.9885
      vertex 2.62626 0 28.0622
      vertex 0.340405 0 28.0622
    endloop
  endfacet
  facet normal 0 -1 0
    outer loop
      vertex 0.283291 0 27.9885
      vertex 2.68337 0 27.9885
      vertex 2.62626 0 28.0622
    endloop
  endfacet
  facet normal 0 -1 0
    outer loop
      vertex 0.230913 0 27.9115
      vertex 2.68337 0 27.9885
      vertex 0.283291 0 27.9885
    endloop
  endfacet
  facet normal 0 -1 0
    outer loop
      vertex 0.230913 0 27.9115
      vertex 2.73575 0 27.9115
      vertex 2.68337 0 27.9885
    endloop
  endfacet
  facet normal 0 -1 0
    outer loop
      vertex 0.183478 0 27.8313
      vertex 2.73575 0 27.9115
      vertex 0.230913 0 27.9115
    endloop
  endfacet
  facet normal 0 -1 0
    outer loop
      vertex 0.183478 0 27.8313
      vertex 2.78319 0 27.8313
      vertex 2.73575 0 27.9115
    endloop
  endfacet
  facet normal 0 -1 0
    outer loop
      vertex 0.141172 0 27.7482
      vertex 2.78319 0 27.8313
      vertex 0.183478 0 27.8313
    endloop
  endfacet
  facet normal 0 -1 0
    outer loop
      vertex 0.141172 0 27.7482
      vertex 2.82549 0 27.7482
      vertex 2.78319 0 27.8313
    endloop
  endfacet
  facet normal 0 -1 0
    outer loop
      vertex 0.104164 0 27.6627
      vertex 2.82549 0 27.7482
      vertex 0.141172 0 27.7482
    endloop
  endfacet
  facet normal 0 -1 0
    outer loop
      vertex 0.104164 0 27.6627
      vertex 2.8625 0 27.6627
      vertex 2.82549 0 27.7482
    endloop
  endfacet
  facet normal 0 -1 0
    outer loop
      vertex 0.0725994 0 27.575
      vertex 2.8625 0 27.6627
      vertex 0.104164 0 27.6627
    endloop
  endfacet
  facet normal 0 -1 0
    outer loop
      vertex 0.0725994 0 27.575
      vertex 2.89407 0 27.575
      vertex 2.8625 0 27.6627
    endloop
  endfacet
  facet normal 0 -1 0
    outer loop
      vertex 0.0466013 0 27.4856
      vertex 2.89407 0 27.575
      vertex 0.0725994 0 27.575
    endloop
  endfacet
  facet normal 0 -1 0
    outer loop
      vertex 0.0466013 0 27.4856
      vertex 2.92006 0 27.4856
      vertex 2.89407 0 27.575
    endloop
  endfacet
  facet normal 0 -1 0
    outer loop
      vertex 0.0262737 0 27.3946
      vertex 2.92006 0 27.4856
      vertex 0.0466013 0 27.4856
    endloop
  endfacet
  facet normal 0 -1 0
    outer loop
      vertex 0.0262737 0 27.3946
      vertex 2.94039 0 27.3946
      vertex 2.92006 0 27.4856
    endloop
  endfacet
  facet normal 0 -1 0
    outer loop
      vertex 0.0116959 0 27.3026
      vertex 2.94039 0 27.3946
      vertex 0.0262737 0 27.3946
    endloop
  endfacet
  facet normal 0 -1 0
    outer loop
      vertex 0.0116959 0 27.3026
      vertex 2.95497 0 27.3026
      vertex 2.94039 0 27.3946
    endloop
  endfacet
  facet normal 0 -1 0
    outer loop
      vertex 0.00292683 0 27.2098
      vertex 2.95497 0 27.3026
      vertex 0.0116959 0 27.3026
    endloop
  endfacet
  facet normal 0 -1 0
    outer loop
      vertex 0.00292683 0 27.2098
      vertex 2.96374 0 27.2098
      vertex 2.95497 0 27.3026
    endloop
  endfacet
  facet normal 0 -1 0
    outer loop
      vertex 0 0 27.1167
      vertex 2.96374 0 27.2098
      vertex 0.00292683 0 27.2098
    endloop
  endfacet
  facet normal 0 -1 0
    outer loop
      vertex 0 0 27.1167
      vertex 2.96667 0 27.1167
      vertex 2.96374 0 27.2098
    endloop
  endfacet
  facet normal 0 -1 0
    outer loop
      vertex 0 0 27.1167
      vertex 2.96667 0 9.6
      vertex 2.96667 0 27.1167
    endloop
  endfacet
  facet normal 0 -1 0
    outer loop
      vertex 0 0 0
      vertex 2.96667 0 9.6
      vertex 0 0 27.1167
    endloop
  endfacet
  facet normal 0 -1 0
    outer loop
      vertex 17.8 0 0
      vertex 2.96667 0 9.6
      vertex 0 0 0
    endloop
  endfacet
  facet normal 0 -1 0
    outer loop
      vertex 2.96667 0 9.6
      vertex 17.8 0 0
      vertex 17.8 0 9.6
    endloop
  endfacet
  facet normal 0.707102 0 0.707112
    outer loop
      vertex 2.49874 32.8 28.198
      vertex 2.56464 0 28.1321
      vertex 2.56464 32.8 28.1321
    endloop
  endfacet
  facet normal 0.707102 0 0.707112
    outer loop
      vertex 2.56464 0 28.1321
      vertex 2.49874 32.8 28.198
      vertex 2.49874 0 28.198
    endloop
  endfacet
  facet normal -0.21815 0 0.975915
    outer loop
      vertex 1.11444 32.8 28.5534
      vertex 1.20538 0 28.5737
      vertex 1.20538 32.8 28.5737
    endloop
  endfacet
  facet normal -0.21815 0 0.975915
    outer loop
      vertex 1.20538 0 28.5737
      vertex 1.11444 32.8 28.5534
      vertex 1.11444 0 28.5534
    endloop
  endfacet
  facet normal -0.562094 0 0.827073
    outer loop
      vertex 0.611451 32.8 28.3167
      vertex 0.688523 0 28.3691
      vertex 0.688523 32.8 28.3691
    endloop
  endfacet
  facet normal -0.562094 0 0.827073
    outer loop
      vertex 0.688523 0 28.3691
      vertex 0.611451 32.8 28.3167
      vertex 0.611451 0 28.3167
    endloop
  endfacet
  facet normal -0.33875 0 0.940876
    outer loop
      vertex 0.937282 32.8 28.4958
      vertex 1.02496 0 28.5274
      vertex 1.02496 32.8 28.5274
    endloop
  endfacet
  facet normal -0.33875 0 0.940876
    outer loop
      vertex 1.02496 0 28.5274
      vertex 0.937282 32.8 28.4958
      vertex 0.937282 0 28.4958
    endloop
  endfacet
  facet normal -0.453988 0 0.891008
    outer loop
      vertex 0.768731 32.8 28.4165
      vertex 0.85176 0 28.4588
      vertex 0.85176 32.8 28.4588
    endloop
  endfacet
  facet normal -0.453988 0 0.891008
    outer loop
      vertex 0.85176 0 28.4588
      vertex 0.768731 32.8 28.4165
      vertex 0.768731 0 28.4165
    endloop
  endfacet
  facet normal -0.278984 0 0.960296
    outer loop
      vertex 1.02496 32.8 28.5274
      vertex 1.11444 0 28.5534
      vertex 1.11444 32.8 28.5534
    endloop
  endfacet
  facet normal -0.278984 0 0.960296
    outer loop
      vertex 1.11444 0 28.5534
      vertex 1.02496 32.8 28.5274
      vertex 1.02496 0 28.5274
    endloop
  endfacet
  facet normal -0.0941126 0 0.995562
    outer loop
      vertex 1.29742 32.8 28.5883
      vertex 1.39019 0 28.5971
      vertex 1.39019 32.8 28.5971
    endloop
  endfacet
  facet normal -0.0941126 0 0.995562
    outer loop
      vertex 1.39019 0 28.5971
      vertex 1.29742 32.8 28.5883
      vertex 1.29742 0 28.5883
    endloop
  endfacet
  facet normal -0.995563 0 0.0941015
    outer loop
      vertex 0.00292683 0 27.2098
      vertex 0.0116959 32.8 27.3026
      vertex 0.00292683 32.8 27.2098
    endloop
  endfacet
  facet normal -0.995563 0 0.0941015
    outer loop
      vertex 0.0116959 32.8 27.3026
      vertex 0.00292683 0 27.2098
      vertex 0.0116959 0 27.3026
    endloop
  endfacet
  facet normal 0.975918 -0 0.218139
    outer loop
      vertex 2.92006 0 27.4856
      vertex 2.94039 32.8 27.3946
      vertex 2.92006 32.8 27.4856
    endloop
  endfacet
  facet normal 0.975918 0 0.218139
    outer loop
      vertex 2.94039 32.8 27.3946
      vertex 2.92006 0 27.4856
      vertex 2.94039 0 27.3946
    endloop
  endfacet
  facet normal 0.790158 -0 0.612903
    outer loop
      vertex 2.62626 0 28.0622
      vertex 2.68337 32.8 27.9885
      vertex 2.62626 32.8 28.0622
    endloop
  endfacet
  facet normal 0.790158 0 0.612903
    outer loop
      vertex 2.68337 32.8 27.9885
      vertex 2.62626 0 28.0622
      vertex 2.68337 0 27.9885
    endloop
  endfacet
  facet normal 0.750108 -0 0.661316
    outer loop
      vertex 2.56464 0 28.1321
      vertex 2.62626 32.8 28.0622
      vertex 2.56464 32.8 28.1321
    endloop
  endfacet
  facet normal 0.750108 0 0.661316
    outer loop
      vertex 2.62626 32.8 28.0622
      vertex 2.56464 0 28.1321
      vertex 2.62626 0 28.0622
    endloop
  endfacet
  facet normal 0.960293 -0 0.278994
    outer loop
      vertex 2.89407 0 27.575
      vertex 2.92006 32.8 27.4856
      vertex 2.89407 32.8 27.575
    endloop
  endfacet
  facet normal 0.960293 0 0.278994
    outer loop
      vertex 2.92006 32.8 27.4856
      vertex 2.89407 0 27.575
      vertex 2.92006 0 27.4856
    endloop
  endfacet
  facet normal 0.995562 -0 0.0941117
    outer loop
      vertex 2.95497 0 27.3026
      vertex 2.96374 32.8 27.2098
      vertex 2.95497 32.8 27.3026
    endloop
  endfacet
  facet normal 0.995562 0 0.0941117
    outer loop
      vertex 2.96374 32.8 27.2098
      vertex 2.95497 0 27.3026
      vertex 2.96374 0 27.2098
    endloop
  endfacet
  facet normal 0.562099 0 0.82707
    outer loop
      vertex 2.27814 32.8 28.3691
      vertex 2.35521 0 28.3167
      vertex 2.35521 32.8 28.3167
    endloop
  endfacet
  facet normal 0.562099 0 0.82707
    outer loop
      vertex 2.35521 0 28.3167
      vertex 2.27814 32.8 28.3691
      vertex 2.27814 0 28.3691
    endloop
  endfacet
  facet normal 0.612903 0 0.790158
    outer loop
      vertex 2.35521 32.8 28.3167
      vertex 2.42885 0 28.2596
      vertex 2.42885 32.8 28.2596
    endloop
  endfacet
  facet normal 0.612903 0 0.790158
    outer loop
      vertex 2.42885 0 28.2596
      vertex 2.35521 32.8 28.3167
      vertex 2.35521 0 28.3167
    endloop
  endfacet
  facet normal 0.397149 0 0.917754
    outer loop
      vertex 2.02938 32.8 28.4958
      vertex 2.11491 0 28.4588
      vertex 2.11491 32.8 28.4588
    endloop
  endfacet
  facet normal 0.397149 0 0.917754
    outer loop
      vertex 2.11491 0 28.4588
      vertex 2.02938 32.8 28.4958
      vertex 2.02938 0 28.4958
    endloop
  endfacet
  facet normal -0.661311 0 0.750112
    outer loop
      vertex 0.467921 32.8 28.198
      vertex 0.537821 0 28.2596
      vertex 0.537821 32.8 28.2596
    endloop
  endfacet
  facet normal -0.661311 0 0.750112
    outer loop
      vertex 0.537821 0 28.2596
      vertex 0.467921 32.8 28.198
      vertex 0.467921 0 28.198
    endloop
  endfacet
  facet normal -0.612908 0 0.790154
    outer loop
      vertex 0.537821 32.8 28.2596
      vertex 0.611451 0 28.3167
      vertex 0.611451 32.8 28.3167
    endloop
  endfacet
  facet normal -0.612908 0 0.790154
    outer loop
      vertex 0.611451 0 28.3167
      vertex 0.537821 32.8 28.2596
      vertex 0.537821 0 28.2596
    endloop
  endfacet
  facet normal -0.397146 0 0.917756
    outer loop
      vertex 0.85176 32.8 28.4588
      vertex 0.937282 0 28.4958
      vertex 0.937282 32.8 28.4958
    endloop
  endfacet
  facet normal -0.397146 0 0.917756
    outer loop
      vertex 0.937282 0 28.4958
      vertex 0.85176 32.8 28.4588
      vertex 0.85176 0 28.4588
    endloop
  endfacet
  facet normal -0.0313987 0 0.999507
    outer loop
      vertex 1.39019 32.8 28.5971
      vertex 1.48333 0 28.6
      vertex 1.48333 32.8 28.6
    endloop
  endfacet
  facet normal -0.0313987 0 0.999507
    outer loop
      vertex 1.48333 0 28.6
      vertex 1.39019 32.8 28.5971
      vertex 1.39019 0 28.5971
    endloop
  endfacet
  facet normal -0.827083 0 0.56208
    outer loop
      vertex 0.230913 0 27.9115
      vertex 0.283291 32.8 27.9885
      vertex 0.230913 32.8 27.9115
    endloop
  endfacet
  facet normal -0.827083 0 0.56208
    outer loop
      vertex 0.283291 32.8 27.9885
      vertex 0.230913 0 27.9115
      vertex 0.283291 0 27.9885
    endloop
  endfacet
  facet normal -0.891008 0 0.453988
    outer loop
      vertex 0.141172 0 27.7482
      vertex 0.183478 32.8 27.8313
      vertex 0.141172 32.8 27.7482
    endloop
  endfacet
  facet normal -0.891008 0 0.453988
    outer loop
      vertex 0.183478 32.8 27.8313
      vertex 0.141172 0 27.7482
      vertex 0.183478 0 27.8313
    endloop
  endfacet
  facet normal -0.860742 0 0.509042
    outer loop
      vertex 0.183478 0 27.8313
      vertex 0.230913 32.8 27.9115
      vertex 0.183478 32.8 27.8313
    endloop
  endfacet
  facet normal -0.860742 0 0.509042
    outer loop
      vertex 0.230913 32.8 27.9115
      vertex 0.183478 0 27.8313
      vertex 0.230913 0 27.9115
    endloop
  endfacet
  facet normal -0.707102 0 0.707112
    outer loop
      vertex 0.402029 32.8 28.1321
      vertex 0.467921 0 28.198
      vertex 0.467921 32.8 28.198
    endloop
  endfacet
  facet normal -0.707102 0 0.707112
    outer loop
      vertex 0.467921 0 28.198
      vertex 0.402029 32.8 28.1321
      vertex 0.402029 0 28.1321
    endloop
  endfacet
  facet normal -0.790158 0 0.612903
    outer loop
      vertex 0.283291 0 27.9885
      vertex 0.340405 32.8 28.0622
      vertex 0.283291 32.8 27.9885
    endloop
  endfacet
  facet normal -0.790158 0 0.612903
    outer loop
      vertex 0.340405 32.8 28.0622
      vertex 0.283291 0 27.9885
      vertex 0.340405 0 28.0622
    endloop
  endfacet
  facet normal -0.750108 0 0.661316
    outer loop
      vertex 0.340405 0 28.0622
      vertex 0.402029 32.8 28.1321
      vertex 0.340405 32.8 28.0622
    endloop
  endfacet
  facet normal -0.750108 0 0.661316
    outer loop
      vertex 0.402029 32.8 28.1321
      vertex 0.340405 0 28.0622
      vertex 0.402029 0 28.1321
    endloop
  endfacet
  facet normal -0.917752 0 0.397153
    outer loop
      vertex 0.104164 0 27.6627
      vertex 0.141172 32.8 27.7482
      vertex 0.104164 32.8 27.6627
    endloop
  endfacet
  facet normal -0.917752 0 0.397153
    outer loop
      vertex 0.141172 32.8 27.7482
      vertex 0.104164 0 27.6627
      vertex 0.141172 0 27.7482
    endloop
  endfacet
  facet normal -0.960293 0 0.278994
    outer loop
      vertex 0.0466013 0 27.4856
      vertex 0.0725994 32.8 27.575
      vertex 0.0466013 32.8 27.4856
    endloop
  endfacet
  facet normal -0.960293 0 0.278994
    outer loop
      vertex 0.0725994 32.8 27.575
      vertex 0.0466013 0 27.4856
      vertex 0.0725994 0 27.575
    endloop
  endfacet
  facet normal -0.940882 0 0.338735
    outer loop
      vertex 0.0725994 0 27.575
      vertex 0.104164 32.8 27.6627
      vertex 0.0725994 32.8 27.575
    endloop
  endfacet
  facet normal -0.940882 0 0.338735
    outer loop
      vertex 0.104164 32.8 27.6627
      vertex 0.0725994 0 27.575
      vertex 0.104164 0 27.6627
    endloop
  endfacet
  facet normal -0.987687 0 0.156441
    outer loop
      vertex 0.0116959 0 27.3026
      vertex 0.0262737 32.8 27.3946
      vertex 0.0116959 32.8 27.3026
    endloop
  endfacet
  facet normal -0.987687 0 0.156441
    outer loop
      vertex 0.0262737 32.8 27.3946
      vertex 0.0116959 0 27.3026
      vertex 0.0262737 0 27.3946
    endloop
  endfacet
  facet normal -0.975918 0 0.218139
    outer loop
      vertex 0.0262737 0 27.3946
      vertex 0.0466013 32.8 27.4856
      vertex 0.0262737 32.8 27.3946
    endloop
  endfacet
  facet normal -0.975918 0 0.218139
    outer loop
      vertex 0.0466013 32.8 27.4856
      vertex 0.0262737 0 27.3946
      vertex 0.0466013 0 27.4856
    endloop
  endfacet
  facet normal 0.860742 -0 0.509042
    outer loop
      vertex 2.73575 0 27.9115
      vertex 2.78319 32.8 27.8313
      vertex 2.73575 32.8 27.9115
    endloop
  endfacet
  facet normal 0.860742 0 0.509042
    outer loop
      vertex 2.78319 32.8 27.8313
      vertex 2.73575 0 27.9115
      vertex 2.78319 0 27.8313
    endloop
  endfacet
  facet normal 0.917752 -0 0.397153
    outer loop
      vertex 2.82549 0 27.7482
      vertex 2.8625 32.8 27.6627
      vertex 2.82549 32.8 27.7482
    endloop
  endfacet
  facet normal 0.917752 0 0.397153
    outer loop
      vertex 2.8625 32.8 27.6627
      vertex 2.82549 0 27.7482
      vertex 2.8625 0 27.6627
    endloop
  endfacet
  facet normal 0.999507 -0 0.0314086
    outer loop
      vertex 2.96374 0 27.2098
      vertex 2.96667 32.8 27.1167
      vertex 2.96374 32.8 27.2098
    endloop
  endfacet
  facet normal 0.999507 0 0.0314086
    outer loop
      vertex 2.96667 32.8 27.1167
      vertex 2.96374 0 27.2098
      vertex 2.96667 0 27.1167
    endloop
  endfacet
  facet normal 0.453988 0 0.891008
    outer loop
      vertex 2.11491 32.8 28.4588
      vertex 2.19793 0 28.4165
      vertex 2.19793 32.8 28.4165
    endloop
  endfacet
  facet normal 0.453988 0 0.891008
    outer loop
      vertex 2.19793 0 28.4165
      vertex 2.11491 32.8 28.4588
      vertex 2.11491 0 28.4588
    endloop
  endfacet
  facet normal 0.661316 0 0.750108
    outer loop
      vertex 2.42885 32.8 28.2596
      vertex 2.49874 0 28.198
      vertex 2.49874 32.8 28.198
    endloop
  endfacet
  facet normal 0.661316 0 0.750108
    outer loop
      vertex 2.49874 0 28.198
      vertex 2.42885 32.8 28.2596
      vertex 2.42885 0 28.2596
    endloop
  endfacet
  facet normal 0.50903 0 0.860749
    outer loop
      vertex 2.19793 32.8 28.4165
      vertex 2.27814 0 28.3691
      vertex 2.27814 32.8 28.3691
    endloop
  endfacet
  facet normal 0.50903 0 0.860749
    outer loop
      vertex 2.27814 0 28.3691
      vertex 2.19793 32.8 28.4165
      vertex 2.19793 0 28.4165
    endloop
  endfacet
  facet normal 0.278984 0 0.960296
    outer loop
      vertex 1.85222 32.8 28.5534
      vertex 1.94171 0 28.5274
      vertex 1.94171 32.8 28.5274
    endloop
  endfacet
  facet normal 0.278984 0 0.960296
    outer loop
      vertex 1.94171 0 28.5274
      vertex 1.85222 32.8 28.5534
      vertex 1.85222 0 28.5534
    endloop
  endfacet
  facet normal 0.338747 0 0.940877
    outer loop
      vertex 1.94171 32.8 28.5274
      vertex 2.02938 0 28.4958
      vertex 2.02938 32.8 28.4958
    endloop
  endfacet
  facet normal 0.338747 0 0.940877
    outer loop
      vertex 2.02938 0 28.4958
      vertex 1.94171 32.8 28.5274
      vertex 1.94171 0 28.5274
    endloop
  endfacet
  facet normal 0.218153 0 0.975915
    outer loop
      vertex 1.76128 32.8 28.5737
      vertex 1.85222 0 28.5534
      vertex 1.85222 32.8 28.5534
    endloop
  endfacet
  facet normal 0.218153 0 0.975915
    outer loop
      vertex 1.85222 0 28.5534
      vertex 1.76128 32.8 28.5737
      vertex 1.76128 0 28.5737
    endloop
  endfacet
  facet normal 0.0941136 0 0.995561
    outer loop
      vertex 1.57647 32.8 28.5971
      vertex 1.66924 0 28.5883
      vertex 1.66924 32.8 28.5883
    endloop
  endfacet
  facet normal 0.0941136 0 0.995561
    outer loop
      vertex 1.66924 0 28.5883
      vertex 1.57647 32.8 28.5971
      vertex 1.57647 0 28.5971
    endloop
  endfacet
  facet normal -0.999507 0 0.0314086
    outer loop
      vertex 0 0 27.1167
      vertex 0.00292683 32.8 27.2098
      vertex 0 32.8 27.1167
    endloop
  endfacet
  facet normal -0.999507 0 0.0314086
    outer loop
      vertex 0.00292683 32.8 27.2098
      vertex 0 0 27.1167
      vertex 0.00292683 0 27.2098
    endloop
  endfacet
  facet normal -0.509034 0 0.860746
    outer loop
      vertex 0.688523 32.8 28.3691
      vertex 0.768731 0 28.4165
      vertex 0.768731 32.8 28.4165
    endloop
  endfacet
  facet normal -0.509034 0 0.860746
    outer loop
      vertex 0.768731 0 28.4165
      vertex 0.688523 32.8 28.3691
      vertex 0.688523 0 28.3691
    endloop
  endfacet
  facet normal -0.156421 0 0.98769
    outer loop
      vertex 1.20538 32.8 28.5737
      vertex 1.29742 0 28.5883
      vertex 1.29742 32.8 28.5883
    endloop
  endfacet
  facet normal -0.156421 0 0.98769
    outer loop
      vertex 1.29742 0 28.5883
      vertex 1.20538 32.8 28.5737
      vertex 1.20538 0 28.5737
    endloop
  endfacet
  facet normal 0.0313983 0 0.999507
    outer loop
      vertex 1.48333 32.8 28.6
      vertex 1.57647 0 28.5971
      vertex 1.57647 32.8 28.5971
    endloop
  endfacet
  facet normal 0.0313983 0 0.999507
    outer loop
      vertex 1.57647 0 28.5971
      vertex 1.48333 32.8 28.6
      vertex 1.48333 0 28.6
    endloop
  endfacet
  facet normal 0.827078 -0 0.562087
    outer loop
      vertex 2.68337 0 27.9885
      vertex 2.73575 32.8 27.9115
      vertex 2.68337 32.8 27.9885
    endloop
  endfacet
  facet normal 0.827078 0 0.562087
    outer loop
      vertex 2.73575 32.8 27.9115
      vertex 2.68337 0 27.9885
      vertex 2.73575 0 27.9115
    endloop
  endfacet
  facet normal 0.940878 -0 0.338744
    outer loop
      vertex 2.8625 0 27.6627
      vertex 2.89407 32.8 27.575
      vertex 2.8625 32.8 27.6627
    endloop
  endfacet
  facet normal 0.940878 0 0.338744
    outer loop
      vertex 2.89407 32.8 27.575
      vertex 2.8625 0 27.6627
      vertex 2.89407 0 27.575
    endloop
  endfacet
  facet normal 0.891012 -0 0.45398
    outer loop
      vertex 2.78319 0 27.8313
      vertex 2.82549 32.8 27.7482
      vertex 2.78319 32.8 27.8313
    endloop
  endfacet
  facet normal 0.891012 0 0.45398
    outer loop
      vertex 2.82549 32.8 27.7482
      vertex 2.78319 0 27.8313
      vertex 2.82549 0 27.7482
    endloop
  endfacet
  facet normal 0.987689 -0 0.156431
    outer loop
      vertex 2.94039 0 27.3946
      vertex 2.95497 32.8 27.3026
      vertex 2.94039 32.8 27.3946
    endloop
  endfacet
  facet normal 0.987689 0 0.156431
    outer loop
      vertex 2.95497 32.8 27.3026
      vertex 2.94039 0 27.3946
      vertex 2.95497 0 27.3026
    endloop
  endfacet
  facet normal 0.156419 0 0.987691
    outer loop
      vertex 1.66924 32.8 28.5883
      vertex 1.76128 0 28.5737
      vertex 1.76128 32.8 28.5737
    endloop
  endfacet
  facet normal 0.156419 0 0.987691
    outer loop
      vertex 1.76128 0 28.5737
      vertex 1.66924 32.8 28.5883
      vertex 1.66924 0 28.5883
    endloop
  endfacet
  facet normal 1 -0 0
    outer loop
      vertex 17.8 0 9.6
      vertex 17.8 32.8 0
      vertex 17.8 32.8 9.6
    endloop
  endfacet
  facet normal 1 0 0
    outer loop
      vertex 17.8 32.8 0
      vertex 17.8 0 9.6
      vertex 17.8 0 0
    endloop
  endfacet
  facet normal 0 0 -1
    outer loop
      vertex 0 0 0
      vertex 17.8 32.8 0
      vertex 17.8 0 0
    endloop
  endfacet
  facet normal -0 0 -1
    outer loop
      vertex 17.8 32.8 0
      vertex 0 0 0
      vertex 0 32.8 0
    endloop
  endfacet
endsolid OpenSCAD_Model
