  0
SECTION
  2
BLOCKS
  0
ENDSEC
  0
SECTION
  2
ENTITIES
  0
LINE
  8
0
 10
-21.3333
 20
13
 11
0
 21
13
  0
LINE
  8
0
 10
0
 20
13
 11
0
 21
10
  0
LINE
  8
0
 10
0
 20
10
 11
21.3333
 21
10
  0
LINE
  8
0
 10
21.3333
 20
10
 11
21.3333
 21
13
  0
LINE
  8
0
 10
21.3333
 20
13
 11
42.6667
 21
13
  0
LINE
  8
0
 10
42.6667
 20
13
 11
42.6667
 21
10
  0
LINE
  8
0
 10
42.6667
 20
10
 11
64
 21
10
  0
LINE
  8
0
 10
64
 20
10
 11
64
 21
46
  0
LINE
  8
0
 10
64
 20
46
 11
67
 21
46
  0
LINE
  8
0
 10
67
 20
46
 11
67
 21
79
  0
LINE
  8
0
 10
67
 20
79
 11
64
 21
79
  0
LINE
  8
0
 10
64
 20
79
 11
64
 21
112
  0
LINE
  8
0
 10
64
 20
112
 11
67
 21
112
  0
LINE
  8
0
 10
67
 20
112
 11
67
 21
145
  0
LINE
  8
0
 10
67
 20
145
 11
64
 21
145
  0
LINE
  8
0
 10
64
 20
145
 11
64
 21
178
  0
LINE
  8
0
 10
64
 20
178
 11
67
 21
178
  0
LINE
  8
0
 10
67
 20
178
 11
67
 21
211
  0
LINE
  8
0
 10
67
 20
211
 11
-64
 21
211
  0
LINE
  8
0
 10
-64
 20
211
 11
-64
 21
178
  0
LINE
  8
0
 10
-64
 20
178
 11
-67
 21
178
  0
LINE
  8
0
 10
-67
 20
178
 11
-67
 21
145
  0
LINE
  8
0
 10
-67
 20
145
 11
-64
 21
145
  0
LINE
  8
0
 10
-64
 20
145
 11
-64
 21
112
  0
LINE
  8
0
 10
-64
 20
112
 11
-67
 21
112
  0
LINE
  8
0
 10
-67
 20
112
 11
-67
 21
79
  0
LINE
  8
0
 10
-67
 20
79
 11
-64
 21
79
  0
LINE
  8
0
 10
-64
 20
79
 11
-64
 21
46
  0
LINE
  8
0
 10
-64
 20
46
 11
-67
 21
46
  0
LINE
  8
0
 10
-67
 20
46
 11
-67
 21
13
  0
LINE
  8
0
 10
-67
 20
13
 11
-42.6667
 21
13
  0
LINE
  8
0
 10
-42.6667
 20
13
 11
-42.6667
 21
10
  0
LINE
  8
0
 10
-42.6667
 20
10
 11
-21.3333
 21
10
  0
LINE
  8
0
 10
-21.3333
 20
10
 11
-21.3333
 21
13
  0
LINE
  8
0
 10
-55
 20
22
 11
-55
 21
202
  0
LINE
  8
0
 10
-55
 20
202
 11
55
 21
202
  0
LINE
  8
0
 10
55
 20
202
 11
55
 21
22
  0
LINE
  8
0
 10
55
 20
22
 11
-55
 21
22
  0
LINE
  8
0
 10
114.167
 20
13
 11
134
 21
13
  0
LINE
  8
0
 10
134
 20
13
 11
134
 21
46
  0
LINE
  8
0
 10
134
 20
46
 11
137
 21
46
  0
LINE
  8
0
 10
137
 20
46
 11
137
 21
13
  0
LINE
  8
0
 10
137
 20
13
 11
135.5
 21
13
  0
LINE
  8
0
 10
135.5
 20
13
 11
135.5
 21
10
  0
LINE
  8
0
 10
135.5
 20
10
 11
156.833
 21
10
  0
LINE
  8
0
 10
156.833
 20
10
 11
156.833
 21
13
  0
LINE
  8
0
 10
156.833
 20
13
 11
178.167
 21
13
  0
LINE
  8
0
 10
178.167
 20
13
 11
178.167
 21
10
  0
LINE
  8
0
 10
178.167
 20
10
 11
199.5
 21
10
  0
LINE
  8
0
 10
199.5
 20
10
 11
199.5
 21
46
  0
LINE
  8
0
 10
199.5
 20
46
 11
202.5
 21
46
  0
LINE
  8
0
 10
202.5
 20
46
 11
202.5
 21
79
  0
LINE
  8
0
 10
202.5
 20
79
 11
199.5
 21
79
  0
LINE
  8
0
 10
199.5
 20
79
 11
199.5
 21
112
  0
LINE
  8
0
 10
199.5
 20
112
 11
202.5
 21
112
  0
LINE
  8
0
 10
202.5
 20
112
 11
202.5
 21
145
  0
LINE
  8
0
 10
202.5
 20
145
 11
199.5
 21
145
  0
LINE
  8
0
 10
199.5
 20
145
 11
199.5
 21
178
  0
LINE
  8
0
 10
199.5
 20
178
 11
202.5
 21
178
  0
LINE
  8
0
 10
202.5
 20
178
 11
202.5
 21
211
  0
LINE
  8
0
 10
202.5
 20
211
 11
71.5
 21
211
  0
LINE
  8
0
 10
71.5
 20
211
 11
71.5
 21
178
  0
LINE
  8
0
 10
71.5
 20
178
 11
68.5
 21
178
  0
LINE
  8
0
 10
68.5
 20
178
 11
68.5
 21
145
  0
LINE
  8
0
 10
68.5
 20
145
 11
71.5
 21
145
  0
LINE
  8
0
 10
71.5
 20
145
 11
71.5
 21
112
  0
LINE
  8
0
 10
71.5
 20
112
 11
68.5
 21
112
  0
LINE
  8
0
 10
68.5
 20
112
 11
68.5
 21
79
  0
LINE
  8
0
 10
68.5
 20
79
 11
71.5
 21
79
  0
LINE
  8
0
 10
71.5
 20
79
 11
71.5
 21
46
  0
LINE
  8
0
 10
71.5
 20
46
 11
68.5
 21
46
  0
LINE
  8
0
 10
68.5
 20
46
 11
68.5
 21
13
  0
LINE
  8
0
 10
68.5
 20
13
 11
92.8333
 21
13
  0
LINE
  8
0
 10
92.8333
 20
13
 11
92.8333
 21
10
  0
LINE
  8
0
 10
92.8333
 20
10
 11
114.167
 21
10
  0
LINE
  8
0
 10
114.167
 20
10
 11
114.167
 21
13
  0
LINE
  8
0
 10
134
 20
145
 11
134
 21
178
  0
LINE
  8
0
 10
134
 20
178
 11
137
 21
178
  0
LINE
  8
0
 10
137
 20
178
 11
137
 21
145
  0
LINE
  8
0
 10
137
 20
145
 11
134
 21
145
  0
LINE
  8
0
 10
134
 20
79
 11
134
 21
112
  0
LINE
  8
0
 10
134
 20
112
 11
137
 21
112
  0
LINE
  8
0
 10
137
 20
112
 11
137
 21
79
  0
LINE
  8
0
 10
137
 20
79
 11
134
 21
79
  0
LINE
  8
0
 10
271
 20
190
 11
263.197
 21
166.072
  0
LINE
  8
0
 10
263.197
 20
166.072
 11
260.39
 21
166.989
  0
LINE
  8
0
 10
260.39
 20
166.989
 11
250.151
 21
135.617
  0
LINE
  8
0
 10
250.151
 20
135.617
 11
252.967
 21
134.698
  0
LINE
  8
0
 10
252.967
 20
134.698
 11
242.736
 21
103.324
  0
LINE
  8
0
 10
242.736
 20
103.324
 11
239.912
 21
104.246
  0
LINE
  8
0
 10
239.912
 20
104.246
 11
229.673
 21
72.8744
  0
LINE
  8
0
 10
229.673
 20
72.8744
 11
232.505
 21
71.9501
  0
LINE
  8
0
 10
232.505
 20
71.9501
 11
222.275
 21
40.576
  0
LINE
  8
0
 10
222.275
 20
40.576
 11
219.434
 21
41.503
  0
LINE
  8
0
 10
219.434
 20
41.503
 11
209.195
 21
10.1317
  0
LINE
  8
0
 10
209.195
 20
10.1317
 11
212.044
 21
9.20189
  0
LINE
  8
0
 10
212.044
 20
9.20189
 11
211
 21
6
  0
LINE
  8
0
 10
211
 20
6
 11
271
 21
6
  0
LINE
  8
0
 10
271
 20
6
 11
271
 21
190
  0
LINE
  8
0
 10
-21.3333
 20
-5.5
 11
0
 21
-5.5
  0
LINE
  8
0
 10
0
 20
-5.5
 11
0
 21
-8.5
  0
LINE
  8
0
 10
0
 20
-8.5
 11
21.3333
 21
-8.5
  0
LINE
  8
0
 10
21.3333
 20
-8.5
 11
21.3333
 21
-5.5
  0
LINE
  8
0
 10
21.3333
 20
-5.5
 11
42.6667
 21
-5.5
  0
LINE
  8
0
 10
42.6667
 20
-5.5
 11
42.6667
 21
-8.5
  0
LINE
  8
0
 10
42.6667
 20
-8.5
 11
64
 21
-8.5
  0
LINE
  8
0
 10
64
 20
-8.5
 11
64
 21
-3.66666
  0
LINE
  8
0
 10
64
 20
-3.66666
 11
67
 21
-3.66666
  0
LINE
  8
0
 10
67
 20
-3.66666
 11
67
 21
-1.83333
  0
LINE
  8
0
 10
67
 20
-1.83333
 11
64
 21
-1.83333
  0
LINE
  8
0
 10
64
 20
-1.83333
 11
64
 21
0
  0
LINE
  8
0
 10
64
 20
0
 11
67
 21
0
  0
LINE
  8
0
 10
67
 20
0
 11
67
 21
1.83333
  0
LINE
  8
0
 10
67
 20
1.83333
 11
64
 21
1.83333
  0
LINE
  8
0
 10
64
 20
1.83333
 11
64
 21
3.66666
  0
LINE
  8
0
 10
64
 20
3.66666
 11
67
 21
3.66666
  0
LINE
  8
0
 10
67
 20
3.66666
 11
67
 21
5.49998
  0
LINE
  8
0
 10
67
 20
5.49998
 11
42.6667
 21
5.5
  0
LINE
  8
0
 10
42.6667
 20
5.5
 11
42.6667
 21
8.5
  0
LINE
  8
0
 10
42.6667
 20
8.5
 11
21.3333
 21
8.5
  0
LINE
  8
0
 10
21.3333
 20
8.5
 11
21.3333
 21
5.5
  0
LINE
  8
0
 10
21.3333
 20
5.5
 11
0
 21
5.5
  0
LINE
  8
0
 10
0
 20
5.5
 11
0
 21
8.5
  0
LINE
  8
0
 10
0
 20
8.5
 11
-21.3333
 21
8.5
  0
LINE
  8
0
 10
-21.3333
 20
8.5
 11
-21.3333
 21
5.5
  0
LINE
  8
0
 10
-21.3333
 20
5.5
 11
-42.6667
 21
5.5
  0
LINE
  8
0
 10
-42.6667
 20
5.5
 11
-42.6667
 21
8.5
  0
LINE
  8
0
 10
-42.6667
 20
8.5
 11
-64
 21
8.5
  0
LINE
  8
0
 10
-64
 20
8.5
 11
-64
 21
3.66666
  0
LINE
  8
0
 10
-64
 20
3.66666
 11
-67
 21
3.66666
  0
LINE
  8
0
 10
-67
 20
3.66666
 11
-67
 21
1.83333
  0
LINE
  8
0
 10
-67
 20
1.83333
 11
-64
 21
1.83333
  0
LINE
  8
0
 10
-64
 20
1.83333
 11
-64
 21
0
  0
LINE
  8
0
 10
-64
 20
0
 11
-67
 21
0
  0
LINE
  8
0
 10
-67
 20
0
 11
-67
 21
-1.83334
  0
LINE
  8
0
 10
-67
 20
-1.83334
 11
-64
 21
-1.83334
  0
LINE
  8
0
 10
-64
 20
-1.83334
 11
-64
 21
-3.66667
  0
LINE
  8
0
 10
-64
 20
-3.66667
 11
-67
 21
-3.66667
  0
LINE
  8
0
 10
-67
 20
-3.66667
 11
-67
 21
-5.5
  0
LINE
  8
0
 10
-67
 20
-5.5
 11
-42.6667
 21
-5.5
  0
LINE
  8
0
 10
-42.6667
 20
-5.5
 11
-42.6667
 21
-8.5
  0
LINE
  8
0
 10
-42.6667
 20
-8.5
 11
-21.3333
 21
-8.5
  0
LINE
  8
0
 10
-21.3333
 20
-8.5
 11
-21.3333
 21
-5.5
  0
LINE
  8
0
 10
-33
 20
-24
 11
0
 21
-24
  0
LINE
  8
0
 10
0
 20
-24
 11
0
 21
-27
  0
LINE
  8
0
 10
0
 20
-27
 11
33
 21
-27
  0
LINE
  8
0
 10
33
 20
-27
 11
33
 21
-24
  0
LINE
  8
0
 10
33
 20
-24
 11
66
 21
-24
  0
LINE
  8
0
 10
66
 20
-24
 11
66
 21
-27
  0
LINE
  8
0
 10
66
 20
-27
 11
99
 21
-27
  0
LINE
  8
0
 10
99
 20
-27
 11
99
 21
-22.1667
  0
LINE
  8
0
 10
99
 20
-22.1667
 11
102
 21
-22.1667
  0
LINE
  8
0
 10
102
 20
-22.1667
 11
102
 21
-20.3333
  0
LINE
  8
0
 10
102
 20
-20.3333
 11
99
 21
-20.3333
  0
LINE
  8
0
 10
99
 20
-20.3333
 11
99
 21
-18.5
  0
LINE
  8
0
 10
99
 20
-18.5
 11
102
 21
-18.5
  0
LINE
  8
0
 10
102
 20
-18.5
 11
102
 21
-16.6667
  0
LINE
  8
0
 10
102
 20
-16.6667
 11
99
 21
-16.6667
  0
LINE
  8
0
 10
99
 20
-16.6667
 11
99
 21
-14.8333
  0
LINE
  8
0
 10
99
 20
-14.8333
 11
102
 21
-14.8333
  0
LINE
  8
0
 10
102
 20
-14.8333
 11
102
 21
-13
  0
LINE
  8
0
 10
102
 20
-13
 11
66
 21
-13
  0
LINE
  8
0
 10
66
 20
-13
 11
66
 21
-10
  0
LINE
  8
0
 10
66
 20
-10
 11
33
 21
-10
  0
LINE
  8
0
 10
33
 20
-10
 11
33
 21
-13
  0
LINE
  8
0
 10
33
 20
-13
 11
0
 21
-13
  0
LINE
  8
0
 10
0
 20
-13
 11
0
 21
-10
  0
LINE
  8
0
 10
0
 20
-10
 11
-33
 21
-10
  0
LINE
  8
0
 10
-33
 20
-10
 11
-33
 21
-13
  0
LINE
  8
0
 10
-33
 20
-13
 11
-66
 21
-13
  0
LINE
  8
0
 10
-66
 20
-13
 11
-66
 21
-10
  0
LINE
  8
0
 10
-66
 20
-10
 11
-99
 21
-10
  0
LINE
  8
0
 10
-99
 20
-10
 11
-99
 21
-24
  0
LINE
  8
0
 10
-99
 20
-24
 11
-66
 21
-24
  0
LINE
  8
0
 10
-66
 20
-24
 11
-66
 21
-27
  0
LINE
  8
0
 10
-66
 20
-27
 11
-33
 21
-27
  0
LINE
  8
0
 10
-33
 20
-27
 11
-33
 21
-24
  0
LINE
  8
0
 10
172.5
 20
-24
 11
205.5
 21
-24
  0
LINE
  8
0
 10
205.5
 20
-24
 11
205.5
 21
-27
  0
LINE
  8
0
 10
205.5
 20
-27
 11
238.5
 21
-27
  0
LINE
  8
0
 10
238.5
 20
-27
 11
238.5
 21
-24
  0
LINE
  8
0
 10
238.5
 20
-24
 11
271.5
 21
-24
  0
LINE
  8
0
 10
271.5
 20
-24
 11
271.5
 21
-27
  0
LINE
  8
0
 10
271.5
 20
-27
 11
304.5
 21
-27
  0
LINE
  8
0
 10
304.5
 20
-27
 11
304.5
 21
-22.1667
  0
LINE
  8
0
 10
304.5
 20
-22.1667
 11
307.5
 21
-22.1667
  0
LINE
  8
0
 10
307.5
 20
-22.1667
 11
307.5
 21
-20.3333
  0
LINE
  8
0
 10
307.5
 20
-20.3333
 11
304.5
 21
-20.3333
  0
LINE
  8
0
 10
304.5
 20
-20.3333
 11
304.5
 21
-18.5
  0
LINE
  8
0
 10
304.5
 20
-18.5
 11
307.5
 21
-18.5
  0
LINE
  8
0
 10
307.5
 20
-18.5
 11
307.5
 21
-16.6667
  0
LINE
  8
0
 10
307.5
 20
-16.6667
 11
304.5
 21
-16.6667
  0
LINE
  8
0
 10
304.5
 20
-16.6667
 11
304.5
 21
-14.8333
  0
LINE
  8
0
 10
304.5
 20
-14.8333
 11
307.5
 21
-14.8333
  0
LINE
  8
0
 10
307.5
 20
-14.8333
 11
307.5
 21
-13
  0
LINE
  8
0
 10
307.5
 20
-13
 11
271.5
 21
-13
  0
LINE
  8
0
 10
271.5
 20
-13
 11
271.5
 21
-10
  0
LINE
  8
0
 10
271.5
 20
-10
 11
238.5
 21
-10
  0
LINE
  8
0
 10
238.5
 20
-10
 11
238.5
 21
-13
  0
LINE
  8
0
 10
238.5
 20
-13
 11
205.5
 21
-13
  0
LINE
  8
0
 10
205.5
 20
-13
 11
205.5
 21
-10
  0
LINE
  8
0
 10
205.5
 20
-10
 11
172.5
 21
-10
  0
LINE
  8
0
 10
172.5
 20
-10
 11
172.5
 21
-13
  0
LINE
  8
0
 10
172.5
 20
-13
 11
139.5
 21
-13
  0
LINE
  8
0
 10
139.5
 20
-13
 11
139.5
 21
-10
  0
LINE
  8
0
 10
139.5
 20
-10
 11
106.5
 21
-10
  0
LINE
  8
0
 10
106.5
 20
-10
 11
106.5
 21
-24
  0
LINE
  8
0
 10
106.5
 20
-24
 11
139.5
 21
-24
  0
LINE
  8
0
 10
139.5
 20
-24
 11
139.5
 21
-27
  0
LINE
  8
0
 10
139.5
 20
-27
 11
172.5
 21
-27
  0
LINE
  8
0
 10
172.5
 20
-27
 11
172.5
 21
-24
  0
ENDSEC
  0
SECTION
  2
OBJECTS
  0
DICTIONARY
  0
ENDSEC
  0
EOF
