solid OpenSCAD_Model
  facet normal 0 0 -1
    outer loop
      vertex 2.83275 2.84791 0
      vertex 2.8269 2.66678 0
      vertex 2.76842 2.69599 0
    endloop
  endfacet
  facet normal 0 0 -1
    outer loop
      vertex 2.52865 6.34207 0
      vertex 2.14854 6.59332 0
      vertex 2.41754 6.50568 0
    endloop
  endfacet
  facet normal 0 0 -1
    outer loop
      vertex 2.36491 2.99399 0
      vertex 1.6807 3.53155 0
      vertex 2.70994 4.79366 0
    endloop
  endfacet
  facet normal -0 -0 -1
    outer loop
      vertex 2.48772 6.45309 0
      vertex 2.52865 6.34207 0
      vertex 2.41754 6.50568 0
    endloop
  endfacet
  facet normal -0 -0 -1
    outer loop
      vertex 2.52865 6.34207 0
      vertex 2.58713 6.0207 0
      vertex 2.14854 6.59332 0
    endloop
  endfacet
  facet normal -0 0 -1
    outer loop
      vertex 3.42924 5.99733 0
      vertex 3.37661 5.89215 0
      vertex 3.4 5.99733 0
    endloop
  endfacet
  facet normal -0 -0 -1
    outer loop
      vertex 2.14854 6.59332 0
      vertex 2.58713 6.0207 0
      vertex 1.58129 6.7394 0
    endloop
  endfacet
  facet normal 0 -0 -1
    outer loop
      vertex 3.48187 5.9798 0
      vertex 3.75088 5.82204 0
      vertex 3.37661 5.69349 0
    endloop
  endfacet
  facet normal 0 0 -1
    outer loop
      vertex 1.58129 6.7394 0
      vertex 2.58713 6.0207 0
      vertex 2.65146 5.45392 0
    endloop
  endfacet
  facet normal -0 -0 -1
    outer loop
      vertex 4.49942 5.2611 0
      vertex 4.80351 4.99232 0
      vertex 3.37661 5.69349 0
    endloop
  endfacet
  facet normal 0 0 -1
    outer loop
      vertex 0.926316 6.8621 0
      vertex 1.58129 6.7394 0
      vertex 2.65146 5.45392 0
    endloop
  endfacet
  facet normal 0 0 -1
    outer loop
      vertex 1.6807 3.53155 0
      vertex 0.926316 6.8621 0
      vertex 2.65146 5.45392 0
    endloop
  endfacet
  facet normal 0 0 -1
    outer loop
      vertex 1.6807 3.53155 0
      vertex 0.493567 6.92638 0
      vertex 0.926316 6.8621 0
    endloop
  endfacet
  facet normal 0 0 -1
    outer loop
      vertex 1.6807 3.53155 0
      vertex 0.0900585 6.94391 0
      vertex 0.493567 6.92638 0
    endloop
  endfacet
  facet normal 0 0 -1
    outer loop
      vertex -1.6117 6.21937 0
      vertex -0.775439 6.91469 0
      vertex 0.0900585 6.94391 0
    endloop
  endfacet
  facet normal 0 0 -1
    outer loop
      vertex 1.6807 3.53155 0
      vertex -1.6117 6.21937 0
      vertex 0.0900585 6.94391 0
    endloop
  endfacet
  facet normal 0 0 -1
    outer loop
      vertex -0.775439 6.91469 0
      vertex -1.6117 6.21937 0
      vertex -1.21404 6.85626 0
    endloop
  endfacet
  facet normal 0 0 -1
    outer loop
      vertex -1.6117 6.21937 0
      vertex -1.93918 6.69265 0
      vertex -1.62924 6.77446 0
    endloop
  endfacet
  facet normal 0 0 -1
    outer loop
      vertex -2.06199 6.61669 0
      vertex -2.06199 6.64591 0
      vertex -1.93918 6.69265 0
    endloop
  endfacet
  facet normal 0 0 -1
    outer loop
      vertex -1.6117 6.21937 0
      vertex -2.06199 6.61669 0
      vertex -1.93918 6.69265 0
    endloop
  endfacet
  facet normal 0 0 -1
    outer loop
      vertex -1.21404 6.85626 0
      vertex -1.6117 6.21937 0
      vertex -1.62924 6.77446 0
    endloop
  endfacet
  facet normal 0 -0 -1
    outer loop
      vertex -2.93333 6.30117 0
      vertex -2.44795 5.92137 0
      vertex -3.29591 6.17262 0
    endloop
  endfacet
  facet normal -0 0 -1
    outer loop
      vertex 2.70994 4.79366 0
      vertex 1.6807 3.53155 0
      vertex 2.65146 5.45392 0
    endloop
  endfacet
  facet normal 0 0 -1
    outer loop
      vertex 2.83275 2.84791 0
      vertex 2.36491 2.99399 0
      vertex 2.70994 4.79366 0
    endloop
  endfacet
  facet normal 0 -0 -1
    outer loop
      vertex -2.96257 6.31285 0
      vertex -2.93333 6.30117 0
      vertex -3.02105 6.30117 0
    endloop
  endfacet
  facet normal -0 0 -1
    outer loop
      vertex 2.83275 2.84791 0
      vertex 2.76842 2.69599 0
      vertex 2.36491 2.99399 0
    endloop
  endfacet
  facet normal -0 0 -1
    outer loop
      vertex -2.93333 6.30117 0
      vertex -3.29591 6.17262 0
      vertex -3.02105 6.30117 0
    endloop
  endfacet
  facet normal 0 0 -1
    outer loop
      vertex -6.90994 1.46311 0
      vertex -6.68772 2.35125 0
      vertex -3.93918 1.30534 0
    endloop
  endfacet
  facet normal 0 0 -1
    outer loop
      vertex -7.0386 -0.65793 0
      vertex -7.06199 -0.167112 0
      vertex -3.93918 1.30534 0
    endloop
  endfacet
  facet normal -0 0 -1
    outer loop
      vertex -0.991813 3.73606 0
      vertex -3.11462 3.50234 0
      vertex -1.43041 5.08581 0
    endloop
  endfacet
  facet normal 0 0 -1
    outer loop
      vertex -0.0269006 3.85292 0
      vertex -0.126316 3.97563 0
      vertex -0.0152047 3.86461 0
    endloop
  endfacet
  facet normal -0 0 -1
    outer loop
      vertex -0.0269006 3.85292 0
      vertex -0.991813 3.73606 0
      vertex -0.126316 3.97563 0
    endloop
  endfacet
  facet normal 0 0 -1
    outer loop
      vertex -0.991813 3.73606 0
      vertex -1.43041 5.08581 0
      vertex -0.126316 3.97563 0
    endloop
  endfacet
  facet normal 0 0 -1
    outer loop
      vertex -3.11462 3.50234 0
      vertex -2.44795 5.92137 0
      vertex -1.43041 5.08581 0
    endloop
  endfacet
  facet normal 0 -0 -1
    outer loop
      vertex -3.29591 6.17262 0
      vertex -2.44795 5.92137 0
      vertex -3.64094 5.9798 0
    endloop
  endfacet
  facet normal 0 0 -1
    outer loop
      vertex -3.64094 5.9798 0
      vertex -2.44795 5.92137 0
      vertex -3.11462 3.50234 0
    endloop
  endfacet
  facet normal 0 0 -1
    outer loop
      vertex -4.44211 5.41302 0
      vertex -3.64094 5.9798 0
      vertex -3.11462 3.50234 0
    endloop
  endfacet
  facet normal 0 0 -1
    outer loop
      vertex -5.13801 4.79366 0
      vertex -4.44211 5.41302 0
      vertex -3.11462 3.50234 0
    endloop
  endfacet
  facet normal 0 0 -1
    outer loop
      vertex -5.34269 4.56578 0
      vertex -5.13801 4.79366 0
      vertex -3.11462 3.50234 0
    endloop
  endfacet
  facet normal 0 0 -1
    outer loop
      vertex -5.60585 4.23272 0
      vertex -5.34269 4.56578 0
      vertex -3.11462 3.50234 0
    endloop
  endfacet
  facet normal 0 0 -1
    outer loop
      vertex -5.94503 3.75943 0
      vertex -5.60585 4.23272 0
      vertex -3.11462 3.50234 0
    endloop
  endfacet
  facet normal 0 0 -1
    outer loop
      vertex -6.21404 3.19265 0
      vertex -5.94503 3.75943 0
      vertex -3.11462 3.50234 0
    endloop
  endfacet
  facet normal 0 0 -1
    outer loop
      vertex -6.21404 3.19265 0
      vertex -6.1848 3.36795 0
      vertex -5.94503 3.75943 0
    endloop
  endfacet
  facet normal 0 0 -1
    outer loop
      vertex -6.21404 3.19265 0
      vertex -6.23743 3.1985 0
      vertex -6.1848 3.36795 0
    endloop
  endfacet
  facet normal 0 0 -1
    outer loop
      vertex 3.37661 5.69349 0
      vertex 4.80351 4.99232 0
      vertex 4.2538 0.218531 0
    endloop
  endfacet
  facet normal 0 0 -1
    outer loop
      vertex 3.37661 5.69349 0
      vertex 4.2538 0.218531 0
      vertex 3.86784 -0.20217 0
    endloop
  endfacet
  facet normal 0 0 -1
    outer loop
      vertex 2.58713 -2.90167 0
      vertex 4.16608 -1.03189 0
      vertex 4.51696 -2.76728 0
    endloop
  endfacet
  facet normal 0 -0 -1
    outer loop
      vertex 6.02573 3.42638 0
      vertex 6.42339 2.70768 0
      vertex 4.2538 0.218531 0
    endloop
  endfacet
  facet normal 0 -0 -1
    outer loop
      vertex 2.58713 -2.90167 0
      vertex 4.51696 -2.76728 0
      vertex 2.56374 -2.96594 0
    endloop
  endfacet
  facet normal 0 -0 -1
    outer loop
      vertex 5.44678 4.26778 0
      vertex 6.02573 3.42638 0
      vertex 4.2538 0.218531 0
    endloop
  endfacet
  facet normal 0 -0 -1
    outer loop
      vertex 4.80351 4.99232 0
      vertex 5.44678 4.26778 0
      vertex 4.2538 0.218531 0
    endloop
  endfacet
  facet normal 0 0 -1
    outer loop
      vertex 4.49942 5.2611 0
      vertex 3.37661 5.69349 0
      vertex 4.11345 5.56494 0
    endloop
  endfacet
  facet normal 0 0 -1
    outer loop
      vertex 4.11345 5.56494 0
      vertex 3.37661 5.69349 0
      vertex 3.75088 5.82204 0
    endloop
  endfacet
  facet normal 0 -0 -1
    outer loop
      vertex 3.42924 5.99733 0
      vertex 3.48187 5.9798 0
      vertex 3.37661 5.89215 0
    endloop
  endfacet
  facet normal 0 0 -1
    outer loop
      vertex 3.37661 5.89215 0
      vertex 3.48187 5.9798 0
      vertex 3.37661 5.69349 0
    endloop
  endfacet
  facet normal 0 0 -1
    outer loop
      vertex -7.06199 0.136728 0
      vertex -6.90994 1.46311 0
      vertex -3.93918 1.30534 0
    endloop
  endfacet
  facet normal 0 0 -1
    outer loop
      vertex -5.24912 -4.79482 0
      vertex -3.60585 -4.21052 0
      vertex -4.19649 -5.74725 0
    endloop
  endfacet
  facet normal 0 0 -1
    outer loop
      vertex -6.10877 -3.64374 0
      vertex -6.53567 -2.84908 0
      vertex -5.27836 -1.38831 0
    endloop
  endfacet
  facet normal 0 0 -1
    outer loop
      vertex -3.93918 1.30534 0
      vertex -3.29006 2.72521 0
      vertex -3.06784 2.32788 0
    endloop
  endfacet
  facet normal 0 0 -1
    outer loop
      vertex -3.06784 2.32788 0
      vertex -3.29006 2.72521 0
      vertex -2.71111 2.76027 0
    endloop
  endfacet
  facet normal 0 0 -1
    outer loop
      vertex -7.06199 -0.167112 0
      vertex -7.06199 0.136728 0
      vertex -3.93918 1.30534 0
    endloop
  endfacet
  facet normal 0 0 -1
    outer loop
      vertex -3.93918 1.30534 0
      vertex -6.68772 2.35125 0
      vertex -3.29006 2.72521 0
    endloop
  endfacet
  facet normal 0 0 -1
    outer loop
      vertex -6.97427 -1.30651 0
      vertex -7.0386 -0.65793 0
      vertex -3.93918 1.30534 0
    endloop
  endfacet
  facet normal 0 0 -1
    outer loop
      vertex -6.78713 -1.95509 0
      vertex -6.97427 -1.30651 0
      vertex -3.93918 1.30534 0
    endloop
  endfacet
  facet normal 0 0 -1
    outer loop
      vertex -6.78713 -1.95509 0
      vertex -6.88655 -1.78564 0
      vertex -6.97427 -1.30651 0
    endloop
  endfacet
  facet normal -0 0 -1
    outer loop
      vertex -6.78713 -1.95509 0
      vertex -6.80468 -1.96093 0
      vertex -6.88655 -1.78564 0
    endloop
  endfacet
  facet normal -0 0 -1
    outer loop
      vertex 6.49357 -2.52771 0
      vertex 4.51696 -2.76728 0
      vertex 6.64561 -2.20634 0
    endloop
  endfacet
  facet normal 0 0 -1
    outer loop
      vertex -3.60585 -4.21052 0
      vertex -6.10877 -3.64374 0
      vertex -5.27836 -1.38831 0
    endloop
  endfacet
  facet normal 0 0 -1
    outer loop
      vertex 6.64561 -2.20634 0
      vertex 4.16608 -1.03189 0
      vertex 6.78596 -1.57529 0
    endloop
  endfacet
  facet normal 0 0 -1
    outer loop
      vertex 6.64561 -2.20634 0
      vertex 6.55205 -2.48681 0
      vertex 6.49357 -2.52771 0
    endloop
  endfacet
  facet normal 0 0 -1
    outer loop
      vertex 0.569591 -7.02104 0
      vertex 1.85029 -6.61202 0
      vertex 1.24795 -6.94508 0
    endloop
  endfacet
  facet normal -0 0 -1
    outer loop
      vertex 6.64561 -2.20634 0
      vertex 4.51696 -2.76728 0
      vertex 4.16608 -1.03189 0
    endloop
  endfacet
  facet normal 0 -0 -1
    outer loop
      vertex 1.85029 -6.61202 0
      vertex 2.01404 -6.7172 0
      vertex 1.79181 -6.84574 0
    endloop
  endfacet
  facet normal 0 0 -1
    outer loop
      vertex -1.52982 -3.80735 0
      vertex 1.85029 -6.61202 0
      vertex 0.569591 -7.02104 0
    endloop
  endfacet
  facet normal 0 0 -1
    outer loop
      vertex 6.03743 1.11252 0
      vertex 6.93801 0.0490818 0
      vertex 6.93801 -0.283973 0
    endloop
  endfacet
  facet normal 0 0 -1
    outer loop
      vertex 6.03743 1.11252 0
      vertex 6.91462 0.510684 0
      vertex 6.93801 0.0490818 0
    endloop
  endfacet
  facet normal 0 0 -1
    outer loop
      vertex 6.03743 1.11252 0
      vertex 6.85029 1.11252 0
      vertex 6.91462 0.510684 0
    endloop
  endfacet
  facet normal 0 -0 -1
    outer loop
      vertex 6.62807 1.74942 0
      vertex 6.76842 1.57997 0
      vertex 6.03743 1.11252 0
    endloop
  endfacet
  facet normal 0 -0 -1
    outer loop
      vertex 6.6807 1.79032 0
      vertex 6.70409 1.77863 0
      vertex 6.62807 1.74942 0
    endloop
  endfacet
  facet normal 0 0 -1
    outer loop
      vertex 6.62807 1.74942 0
      vertex 6.70409 1.77863 0
      vertex 6.76842 1.57997 0
    endloop
  endfacet
  facet normal 0 0 -1
    outer loop
      vertex 6.03743 1.11252 0
      vertex 6.76842 1.57997 0
      vertex 6.85029 1.11252 0
    endloop
  endfacet
  facet normal 0 0 -1
    outer loop
      vertex 6.78596 -1.57529 0
      vertex 4.16608 -1.03189 0
      vertex 6.89123 -0.804007 0
    endloop
  endfacet
  facet normal 0 0 -1
    outer loop
      vertex 2.56374 -2.96594 0
      vertex 2.55205 -2.95426 0
      vertex 2.58713 -2.90167 0
    endloop
  endfacet
  facet normal -0 0 -1
    outer loop
      vertex 6.93801 -0.283973 0
      vertex 4.16608 -1.03189 0
      vertex 6.03743 1.11252 0
    endloop
  endfacet
  facet normal -0 0 -1
    outer loop
      vertex 6.89123 -0.804007 0
      vertex 4.16608 -1.03189 0
      vertex 6.93801 -0.283973 0
    endloop
  endfacet
  facet normal 0 0 -1
    outer loop
      vertex -1.51228 -6.9217 0
      vertex -2.14971 -6.78731 0
      vertex -2.67602 -6.17379 0
    endloop
  endfacet
  facet normal 0 -0 -1
    outer loop
      vertex -3.86316 -0.96177 0
      vertex -3.60585 -4.21052 0
      vertex -5.27836 -1.38831 0
    endloop
  endfacet
  facet normal -0 0 -1
    outer loop
      vertex -3.95673 0.0081803 0
      vertex -4.08538 -0.0736227 0
      vertex -3.96842 0.0257095 0
    endloop
  endfacet
  facet normal 0 -0 -1
    outer loop
      vertex -3.95673 0.0081803 0
      vertex -3.86316 -0.96177 0
      vertex -4.08538 -0.0736227 0
    endloop
  endfacet
  facet normal 0 -0 -1
    outer loop
      vertex -4.08538 -0.0736227 0
      vertex -3.86316 -0.96177 0
      vertex -4.37193 -0.365776 0
    endloop
  endfacet
  facet normal 0 -0 -1
    outer loop
      vertex -4.37193 -0.365776 0
      vertex -3.86316 -0.96177 0
      vertex -5.27836 -1.38831 0
    endloop
  endfacet
  facet normal -0 0 -1
    outer loop
      vertex -3.60585 -4.21052 0
      vertex -5.24912 -4.79482 0
      vertex -6.10877 -3.64374 0
    endloop
  endfacet
  facet normal 0 0 -1
    outer loop
      vertex -3.64094 -6.10367 0
      vertex -4.19649 -5.74725 0
      vertex -3.60585 -4.21052 0
    endloop
  endfacet
  facet normal 0 0 -1
    outer loop
      vertex -3.48304 -6.1621 0
      vertex -3.64094 -6.10367 0
      vertex -3.60585 -4.21052 0
    endloop
  endfacet
  facet normal -0 0 -1
    outer loop
      vertex -3.48304 -6.1621 0
      vertex -3.49474 -6.17963 0
      vertex -3.64094 -6.10367 0
    endloop
  endfacet
  facet normal 0 0 -1
    outer loop
      vertex -2.47135 -6.68798 0
      vertex -2.57661 -6.62371 0
      vertex -2.61754 -6.50684 0
    endloop
  endfacet
  facet normal 0 0 -1
    outer loop
      vertex 0.17193 -4.02938 0
      vertex 0.552047 -3.96511 0
      vertex 0.464327 -4.45593 0
    endloop
  endfacet
  facet normal 0 0 -1
    outer loop
      vertex 1.79181 -6.84574 0
      vertex 2.01404 -6.7172 0
      vertex 2.01404 -6.78147 0
    endloop
  endfacet
  facet normal 0 0 -1
    outer loop
      vertex 1.24795 -6.94508 0
      vertex 1.85029 -6.61202 0
      vertex 1.79181 -6.84574 0
    endloop
  endfacet
  facet normal 0 0 -1
    outer loop
      vertex 0.0842105 -7.05609 0
      vertex -1.52982 -3.80735 0
      vertex 0.569591 -7.02104 0
    endloop
  endfacet
  facet normal 0 0 -1
    outer loop
      vertex -2.97427 -2.74391 0
      vertex -2.94503 -2.73222 0
      vertex -2.85731 -2.76728 0
    endloop
  endfacet
  facet normal 0 0 -1
    outer loop
      vertex -2.7345 -2.84324 0
      vertex -2.97427 -2.74391 0
      vertex -2.85731 -2.76728 0
    endloop
  endfacet
  facet normal 0 0 -1
    outer loop
      vertex -2.67602 -6.17379 0
      vertex -2.7462 -5.58948 0
      vertex -1.51228 -6.9217 0
    endloop
  endfacet
  facet normal -0 0 -1
    outer loop
      vertex -2.7345 -2.84324 0
      vertex -2.7462 -5.58948 0
      vertex -2.97427 -2.74391 0
    endloop
  endfacet
  facet normal -0 0 -1
    outer loop
      vertex -1.52982 -3.80735 0
      vertex -2.7462 -5.58948 0
      vertex -2.7345 -2.84324 0
    endloop
  endfacet
  facet normal 0 0 -1
    outer loop
      vertex -2.14971 -6.78731 0
      vertex -2.47135 -6.68798 0
      vertex -2.61754 -6.50684 0
    endloop
  endfacet
  facet normal 0 0 -1
    outer loop
      vertex -2.67602 -6.17379 0
      vertex -2.14971 -6.78731 0
      vertex -2.61754 -6.50684 0
    endloop
  endfacet
  facet normal 0 -0 -1
    outer loop
      vertex -1.52982 -3.80735 0
      vertex -1.51228 -6.9217 0
      vertex -2.7462 -5.58948 0
    endloop
  endfacet
  facet normal 0 0 -1
    outer loop
      vertex -1.52982 -3.80735 0
      vertex -0.775439 -7.01519 0
      vertex -1.51228 -6.9217 0
    endloop
  endfacet
  facet normal 0 0 -1
    outer loop
      vertex -1.52982 -3.80735 0
      vertex -0.249123 -7.05609 0
      vertex -0.775439 -7.01519 0
    endloop
  endfacet
  facet normal 0 0 -1
    outer loop
      vertex -1.52982 -3.80735 0
      vertex 0.0842105 -7.05609 0
      vertex -0.249123 -7.05609 0
    endloop
  endfacet
  facet normal 0 -0 -1
    outer loop
      vertex 0.552047 -3.96511 0
      vertex 1.65146 -3.83072 0
      vertex 0.464327 -4.45593 0
    endloop
  endfacet
  facet normal 0 0 -1
    outer loop
      vertex 6.00234 -3.60868 0
      vertex 5.66901 -3.40417 0
      vertex 5.97895 -3.40417 0
    endloop
  endfacet
  facet normal -0 0 -1
    outer loop
      vertex 6.09006 -3.43923 0
      vertex 6.00234 -3.60868 0
      vertex 5.97895 -3.40417 0
    endloop
  endfacet
  facet normal -0 0 -1
    outer loop
      vertex 6.00234 -3.60868 0
      vertex 5.63392 -4.16962 0
      vertex 5.66901 -3.40417 0
    endloop
  endfacet
  facet normal 0 0 -1
    outer loop
      vertex 0.464327 -4.45593 0
      vertex 1.65146 -3.83072 0
      vertex 2.87953 -6.45426 0
    endloop
  endfacet
  facet normal 0 0 -1
    outer loop
      vertex 1.65146 -3.83072 0
      vertex 3.58713 -6.06277 0
      vertex 2.87953 -6.45426 0
    endloop
  endfacet
  facet normal -0 0 -1
    outer loop
      vertex 5.63392 -4.16962 0
      vertex 4.70409 -5.20968 0
      vertex 5.66901 -3.40417 0
    endloop
  endfacet
  facet normal 0 0 -1
    outer loop
      vertex 4.70409 -5.20968 0
      vertex 1.65146 -3.83072 0
      vertex 5.66901 -3.40417 0
    endloop
  endfacet
  facet normal 0 0 -1
    outer loop
      vertex 3.58713 -6.06277 0
      vertex 1.65146 -3.83072 0
      vertex 4.70409 -5.20968 0
    endloop
  endfacet
  facet normal 0 0 -1
    outer loop
      vertex 0.0374269 -4.07028 0
      vertex 0.17193 -4.02938 0
      vertex 0.464327 -4.45593 0
    endloop
  endfacet
  facet normal -0 0 1
    outer loop
      vertex 2.76842 2.69599 1
      vertex 2.8269 2.66678 1
      vertex 2.83275 2.84791 1
    endloop
  endfacet
  facet normal 0 0 1
    outer loop
      vertex 2.41754 6.50568 1
      vertex 2.14854 6.59332 1
      vertex 2.52865 6.34207 1
    endloop
  endfacet
  facet normal 0 0 1
    outer loop
      vertex 2.70994 4.79366 1
      vertex 1.6807 3.53155 1
      vertex 2.36491 2.99399 1
    endloop
  endfacet
  facet normal 0 0 1
    outer loop
      vertex 2.41754 6.50568 1
      vertex 2.52865 6.34207 1
      vertex 2.48772 6.45309 1
    endloop
  endfacet
  facet normal 0 0 1
    outer loop
      vertex 2.14854 6.59332 1
      vertex 2.58713 6.0207 1
      vertex 2.52865 6.34207 1
    endloop
  endfacet
  facet normal -0 0 1
    outer loop
      vertex 3.4 5.99733 1
      vertex 3.37661 5.89215 1
      vertex 3.42924 5.99733 1
    endloop
  endfacet
  facet normal 0 0 1
    outer loop
      vertex 1.58129 6.7394 1
      vertex 2.58713 6.0207 1
      vertex 2.14854 6.59332 1
    endloop
  endfacet
  facet normal 0 0 1
    outer loop
      vertex 3.37661 5.69349 1
      vertex 3.75088 5.82204 1
      vertex 3.48187 5.9798 1
    endloop
  endfacet
  facet normal 0 0 1
    outer loop
      vertex 2.65146 5.45392 1
      vertex 2.58713 6.0207 1
      vertex 1.58129 6.7394 1
    endloop
  endfacet
  facet normal 0 0 1
    outer loop
      vertex 3.37661 5.69349 1
      vertex 4.80351 4.99232 1
      vertex 4.49942 5.2611 1
    endloop
  endfacet
  facet normal 0 0 1
    outer loop
      vertex 2.65146 5.45392 1
      vertex 1.58129 6.7394 1
      vertex 0.926316 6.8621 1
    endloop
  endfacet
  facet normal 0 0 1
    outer loop
      vertex 2.65146 5.45392 1
      vertex 0.926316 6.8621 1
      vertex 1.6807 3.53155 1
    endloop
  endfacet
  facet normal 0 0 1
    outer loop
      vertex 0.926316 6.8621 1
      vertex 0.493567 6.92638 1
      vertex 1.6807 3.53155 1
    endloop
  endfacet
  facet normal 0 0 1
    outer loop
      vertex 0.493567 6.92638 1
      vertex 0.0900585 6.94391 1
      vertex 1.6807 3.53155 1
    endloop
  endfacet
  facet normal 0 0 1
    outer loop
      vertex 0.0900585 6.94391 1
      vertex -0.775439 6.91469 1
      vertex -1.6117 6.21937 1
    endloop
  endfacet
  facet normal 0 0 1
    outer loop
      vertex 0.0900585 6.94391 1
      vertex -1.6117 6.21937 1
      vertex 1.6807 3.53155 1
    endloop
  endfacet
  facet normal -0 0 1
    outer loop
      vertex -1.21404 6.85626 1
      vertex -1.6117 6.21937 1
      vertex -0.775439 6.91469 1
    endloop
  endfacet
  facet normal 0 0 1
    outer loop
      vertex -1.62924 6.77446 1
      vertex -1.93918 6.69265 1
      vertex -1.6117 6.21937 1
    endloop
  endfacet
  facet normal 0 0 1
    outer loop
      vertex -1.93918 6.69265 1
      vertex -2.06199 6.64591 1
      vertex -2.06199 6.61669 1
    endloop
  endfacet
  facet normal 0 0 1
    outer loop
      vertex -1.93918 6.69265 1
      vertex -2.06199 6.61669 1
      vertex -1.6117 6.21937 1
    endloop
  endfacet
  facet normal -0 0 1
    outer loop
      vertex -1.62924 6.77446 1
      vertex -1.6117 6.21937 1
      vertex -1.21404 6.85626 1
    endloop
  endfacet
  facet normal -0 0 1
    outer loop
      vertex -3.29591 6.17262 1
      vertex -2.44795 5.92137 1
      vertex -2.93333 6.30117 1
    endloop
  endfacet
  facet normal 0 0 1
    outer loop
      vertex 2.65146 5.45392 1
      vertex 1.6807 3.53155 1
      vertex 2.70994 4.79366 1
    endloop
  endfacet
  facet normal 0 0 1
    outer loop
      vertex 2.70994 4.79366 1
      vertex 2.36491 2.99399 1
      vertex 2.83275 2.84791 1
    endloop
  endfacet
  facet normal 0 0 1
    outer loop
      vertex -3.02105 6.30117 1
      vertex -2.93333 6.30117 1
      vertex -2.96257 6.31285 1
    endloop
  endfacet
  facet normal 0 0 1
    outer loop
      vertex 2.36491 2.99399 1
      vertex 2.76842 2.69599 1
      vertex 2.83275 2.84791 1
    endloop
  endfacet
  facet normal -0 0 1
    outer loop
      vertex -3.02105 6.30117 1
      vertex -3.29591 6.17262 1
      vertex -2.93333 6.30117 1
    endloop
  endfacet
  facet normal 0 0 1
    outer loop
      vertex -3.93918 1.30534 1
      vertex -6.68772 2.35125 1
      vertex -6.90994 1.46311 1
    endloop
  endfacet
  facet normal 0 0 1
    outer loop
      vertex -3.93918 1.30534 1
      vertex -7.06199 -0.167112 1
      vertex -7.0386 -0.65793 1
    endloop
  endfacet
  facet normal 0 0 1
    outer loop
      vertex -1.43041 5.08581 1
      vertex -3.11462 3.50234 1
      vertex -0.991813 3.73606 1
    endloop
  endfacet
  facet normal 0 0 1
    outer loop
      vertex -0.0152047 3.86461 1
      vertex -0.126316 3.97563 1
      vertex -0.0269006 3.85292 1
    endloop
  endfacet
  facet normal 0 0 1
    outer loop
      vertex -0.126316 3.97563 1
      vertex -0.991813 3.73606 1
      vertex -0.0269006 3.85292 1
    endloop
  endfacet
  facet normal 0 0 1
    outer loop
      vertex -0.126316 3.97563 1
      vertex -1.43041 5.08581 1
      vertex -0.991813 3.73606 1
    endloop
  endfacet
  facet normal 0 0 1
    outer loop
      vertex -1.43041 5.08581 1
      vertex -2.44795 5.92137 1
      vertex -3.11462 3.50234 1
    endloop
  endfacet
  facet normal -0 0 1
    outer loop
      vertex -3.64094 5.9798 1
      vertex -2.44795 5.92137 1
      vertex -3.29591 6.17262 1
    endloop
  endfacet
  facet normal 0 -0 1
    outer loop
      vertex -3.11462 3.50234 1
      vertex -2.44795 5.92137 1
      vertex -3.64094 5.9798 1
    endloop
  endfacet
  facet normal 0 0 1
    outer loop
      vertex -3.11462 3.50234 1
      vertex -3.64094 5.9798 1
      vertex -4.44211 5.41302 1
    endloop
  endfacet
  facet normal 0 0 1
    outer loop
      vertex -3.11462 3.50234 1
      vertex -4.44211 5.41302 1
      vertex -5.13801 4.79366 1
    endloop
  endfacet
  facet normal 0 0 1
    outer loop
      vertex -3.11462 3.50234 1
      vertex -5.13801 4.79366 1
      vertex -5.34269 4.56578 1
    endloop
  endfacet
  facet normal 0 0 1
    outer loop
      vertex -3.11462 3.50234 1
      vertex -5.34269 4.56578 1
      vertex -5.60585 4.23272 1
    endloop
  endfacet
  facet normal 0 0 1
    outer loop
      vertex -3.11462 3.50234 1
      vertex -5.60585 4.23272 1
      vertex -5.94503 3.75943 1
    endloop
  endfacet
  facet normal 0 0 1
    outer loop
      vertex -3.11462 3.50234 1
      vertex -5.94503 3.75943 1
      vertex -6.21404 3.19265 1
    endloop
  endfacet
  facet normal 0 0 1
    outer loop
      vertex -5.94503 3.75943 1
      vertex -6.1848 3.36795 1
      vertex -6.21404 3.19265 1
    endloop
  endfacet
  facet normal 0 0 1
    outer loop
      vertex -6.1848 3.36795 1
      vertex -6.23743 3.1985 1
      vertex -6.21404 3.19265 1
    endloop
  endfacet
  facet normal 0 -0 1
    outer loop
      vertex 4.2538 0.218531 1
      vertex 4.80351 4.99232 1
      vertex 3.37661 5.69349 1
    endloop
  endfacet
  facet normal 0 -0 1
    outer loop
      vertex 3.86784 -0.20217 1
      vertex 4.2538 0.218531 1
      vertex 3.37661 5.69349 1
    endloop
  endfacet
  facet normal 0 0 1
    outer loop
      vertex 4.51696 -2.76728 1
      vertex 4.16608 -1.03189 1
      vertex 2.58713 -2.90167 1
    endloop
  endfacet
  facet normal 0 0 1
    outer loop
      vertex 4.2538 0.218531 1
      vertex 6.42339 2.70768 1
      vertex 6.02573 3.42638 1
    endloop
  endfacet
  facet normal 0 0 1
    outer loop
      vertex 2.56374 -2.96594 1
      vertex 4.51696 -2.76728 1
      vertex 2.58713 -2.90167 1
    endloop
  endfacet
  facet normal 0 0 1
    outer loop
      vertex 4.2538 0.218531 1
      vertex 6.02573 3.42638 1
      vertex 5.44678 4.26778 1
    endloop
  endfacet
  facet normal 0 0 1
    outer loop
      vertex 4.2538 0.218531 1
      vertex 5.44678 4.26778 1
      vertex 4.80351 4.99232 1
    endloop
  endfacet
  facet normal 0 0 1
    outer loop
      vertex 4.11345 5.56494 1
      vertex 3.37661 5.69349 1
      vertex 4.49942 5.2611 1
    endloop
  endfacet
  facet normal 0 0 1
    outer loop
      vertex 3.75088 5.82204 1
      vertex 3.37661 5.69349 1
      vertex 4.11345 5.56494 1
    endloop
  endfacet
  facet normal 0 0 1
    outer loop
      vertex 3.37661 5.89215 1
      vertex 3.48187 5.9798 1
      vertex 3.42924 5.99733 1
    endloop
  endfacet
  facet normal 0 0 1
    outer loop
      vertex 3.37661 5.69349 1
      vertex 3.48187 5.9798 1
      vertex 3.37661 5.89215 1
    endloop
  endfacet
  facet normal 0 0 1
    outer loop
      vertex -3.93918 1.30534 1
      vertex -6.90994 1.46311 1
      vertex -7.06199 0.136728 1
    endloop
  endfacet
  facet normal 0 -0 1
    outer loop
      vertex -4.19649 -5.74725 1
      vertex -3.60585 -4.21052 1
      vertex -5.24912 -4.79482 1
    endloop
  endfacet
  facet normal 0 0 1
    outer loop
      vertex -5.27836 -1.38831 1
      vertex -6.53567 -2.84908 1
      vertex -6.10877 -3.64374 1
    endloop
  endfacet
  facet normal 0 0 1
    outer loop
      vertex -3.06784 2.32788 1
      vertex -3.29006 2.72521 1
      vertex -3.93918 1.30534 1
    endloop
  endfacet
  facet normal 0 0 1
    outer loop
      vertex -2.71111 2.76027 1
      vertex -3.29006 2.72521 1
      vertex -3.06784 2.32788 1
    endloop
  endfacet
  facet normal 0 0 1
    outer loop
      vertex -3.93918 1.30534 1
      vertex -7.06199 0.136728 1
      vertex -7.06199 -0.167112 1
    endloop
  endfacet
  facet normal 0 0 1
    outer loop
      vertex -3.29006 2.72521 1
      vertex -6.68772 2.35125 1
      vertex -3.93918 1.30534 1
    endloop
  endfacet
  facet normal 0 0 1
    outer loop
      vertex -3.93918 1.30534 1
      vertex -7.0386 -0.65793 1
      vertex -6.97427 -1.30651 1
    endloop
  endfacet
  facet normal 0 0 1
    outer loop
      vertex -3.93918 1.30534 1
      vertex -6.97427 -1.30651 1
      vertex -6.78713 -1.95509 1
    endloop
  endfacet
  facet normal 0 0 1
    outer loop
      vertex -6.97427 -1.30651 1
      vertex -6.88655 -1.78564 1
      vertex -6.78713 -1.95509 1
    endloop
  endfacet
  facet normal 0 0 1
    outer loop
      vertex -6.88655 -1.78564 1
      vertex -6.80468 -1.96093 1
      vertex -6.78713 -1.95509 1
    endloop
  endfacet
  facet normal 0 0 1
    outer loop
      vertex 6.64561 -2.20634 1
      vertex 4.51696 -2.76728 1
      vertex 6.49357 -2.52771 1
    endloop
  endfacet
  facet normal 0 0 1
    outer loop
      vertex -5.27836 -1.38831 1
      vertex -6.10877 -3.64374 1
      vertex -3.60585 -4.21052 1
    endloop
  endfacet
  facet normal 0 0 1
    outer loop
      vertex 6.78596 -1.57529 1
      vertex 4.16608 -1.03189 1
      vertex 6.64561 -2.20634 1
    endloop
  endfacet
  facet normal 0 0 1
    outer loop
      vertex 6.49357 -2.52771 1
      vertex 6.55205 -2.48681 1
      vertex 6.64561 -2.20634 1
    endloop
  endfacet
  facet normal 0 -0 1
    outer loop
      vertex 1.24795 -6.94508 1
      vertex 1.85029 -6.61202 1
      vertex 0.569591 -7.02104 1
    endloop
  endfacet
  facet normal 0 0 1
    outer loop
      vertex 4.16608 -1.03189 1
      vertex 4.51696 -2.76728 1
      vertex 6.64561 -2.20634 1
    endloop
  endfacet
  facet normal 0 0 1
    outer loop
      vertex 1.79181 -6.84574 1
      vertex 2.01404 -6.7172 1
      vertex 1.85029 -6.61202 1
    endloop
  endfacet
  facet normal 0 -0 1
    outer loop
      vertex 0.569591 -7.02104 1
      vertex 1.85029 -6.61202 1
      vertex -1.52982 -3.80735 1
    endloop
  endfacet
  facet normal 0 -0 1
    outer loop
      vertex 6.93801 -0.283973 1
      vertex 6.93801 0.0490818 1
      vertex 6.03743 1.11252 1
    endloop
  endfacet
  facet normal 0 0 1
    outer loop
      vertex 6.93801 0.0490818 1
      vertex 6.91462 0.510684 1
      vertex 6.03743 1.11252 1
    endloop
  endfacet
  facet normal 0 0 1
    outer loop
      vertex 6.91462 0.510684 1
      vertex 6.85029 1.11252 1
      vertex 6.03743 1.11252 1
    endloop
  endfacet
  facet normal 0 0 1
    outer loop
      vertex 6.03743 1.11252 1
      vertex 6.76842 1.57997 1
      vertex 6.62807 1.74942 1
    endloop
  endfacet
  facet normal 0 0 1
    outer loop
      vertex 6.62807 1.74942 1
      vertex 6.70409 1.77863 1
      vertex 6.6807 1.79032 1
    endloop
  endfacet
  facet normal 0 0 1
    outer loop
      vertex 6.76842 1.57997 1
      vertex 6.70409 1.77863 1
      vertex 6.62807 1.74942 1
    endloop
  endfacet
  facet normal 0 0 1
    outer loop
      vertex 6.85029 1.11252 1
      vertex 6.76842 1.57997 1
      vertex 6.03743 1.11252 1
    endloop
  endfacet
  facet normal 0 0 1
    outer loop
      vertex 6.89123 -0.804007 1
      vertex 4.16608 -1.03189 1
      vertex 6.78596 -1.57529 1
    endloop
  endfacet
  facet normal 0 0 1
    outer loop
      vertex 2.58713 -2.90167 1
      vertex 2.55205 -2.95426 1
      vertex 2.56374 -2.96594 1
    endloop
  endfacet
  facet normal 0 0 1
    outer loop
      vertex 6.03743 1.11252 1
      vertex 4.16608 -1.03189 1
      vertex 6.93801 -0.283973 1
    endloop
  endfacet
  facet normal 0 0 1
    outer loop
      vertex 6.93801 -0.283973 1
      vertex 4.16608 -1.03189 1
      vertex 6.89123 -0.804007 1
    endloop
  endfacet
  facet normal 0 0 1
    outer loop
      vertex -2.67602 -6.17379 1
      vertex -2.14971 -6.78731 1
      vertex -1.51228 -6.9217 1
    endloop
  endfacet
  facet normal -0 0 1
    outer loop
      vertex -5.27836 -1.38831 1
      vertex -3.60585 -4.21052 1
      vertex -3.86316 -0.96177 1
    endloop
  endfacet
  facet normal 0 0 1
    outer loop
      vertex -3.96842 0.0257095 1
      vertex -4.08538 -0.0736227 1
      vertex -3.95673 0.0081803 1
    endloop
  endfacet
  facet normal -0 0 1
    outer loop
      vertex -4.08538 -0.0736227 1
      vertex -3.86316 -0.96177 1
      vertex -3.95673 0.0081803 1
    endloop
  endfacet
  facet normal -0 0 1
    outer loop
      vertex -4.37193 -0.365776 1
      vertex -3.86316 -0.96177 1
      vertex -4.08538 -0.0736227 1
    endloop
  endfacet
  facet normal 0 0 1
    outer loop
      vertex -5.27836 -1.38831 1
      vertex -3.86316 -0.96177 1
      vertex -4.37193 -0.365776 1
    endloop
  endfacet
  facet normal 0 0 1
    outer loop
      vertex -6.10877 -3.64374 1
      vertex -5.24912 -4.79482 1
      vertex -3.60585 -4.21052 1
    endloop
  endfacet
  facet normal 0 0 1
    outer loop
      vertex -3.60585 -4.21052 1
      vertex -4.19649 -5.74725 1
      vertex -3.64094 -6.10367 1
    endloop
  endfacet
  facet normal 0 0 1
    outer loop
      vertex -3.60585 -4.21052 1
      vertex -3.64094 -6.10367 1
      vertex -3.48304 -6.1621 1
    endloop
  endfacet
  facet normal 0 0 1
    outer loop
      vertex -3.64094 -6.10367 1
      vertex -3.49474 -6.17963 1
      vertex -3.48304 -6.1621 1
    endloop
  endfacet
  facet normal 0 0 1
    outer loop
      vertex -2.61754 -6.50684 1
      vertex -2.57661 -6.62371 1
      vertex -2.47135 -6.68798 1
    endloop
  endfacet
  facet normal 0 -0 1
    outer loop
      vertex 0.464327 -4.45593 1
      vertex 0.552047 -3.96511 1
      vertex 0.17193 -4.02938 1
    endloop
  endfacet
  facet normal 0 -0 1
    outer loop
      vertex 2.01404 -6.78147 1
      vertex 2.01404 -6.7172 1
      vertex 1.79181 -6.84574 1
    endloop
  endfacet
  facet normal 0 -0 1
    outer loop
      vertex 1.79181 -6.84574 1
      vertex 1.85029 -6.61202 1
      vertex 1.24795 -6.94508 1
    endloop
  endfacet
  facet normal 0 0 1
    outer loop
      vertex 0.569591 -7.02104 1
      vertex -1.52982 -3.80735 1
      vertex 0.0842105 -7.05609 1
    endloop
  endfacet
  facet normal 0 0 1
    outer loop
      vertex -2.85731 -2.76728 1
      vertex -2.94503 -2.73222 1
      vertex -2.97427 -2.74391 1
    endloop
  endfacet
  facet normal 0 0 1
    outer loop
      vertex -2.85731 -2.76728 1
      vertex -2.97427 -2.74391 1
      vertex -2.7345 -2.84324 1
    endloop
  endfacet
  facet normal 0 0 1
    outer loop
      vertex -1.51228 -6.9217 1
      vertex -2.7462 -5.58948 1
      vertex -2.67602 -6.17379 1
    endloop
  endfacet
  facet normal 0 0 1
    outer loop
      vertex -2.97427 -2.74391 1
      vertex -2.7462 -5.58948 1
      vertex -2.7345 -2.84324 1
    endloop
  endfacet
  facet normal 0 0 1
    outer loop
      vertex -2.7345 -2.84324 1
      vertex -2.7462 -5.58948 1
      vertex -1.52982 -3.80735 1
    endloop
  endfacet
  facet normal 0 0 1
    outer loop
      vertex -2.61754 -6.50684 1
      vertex -2.47135 -6.68798 1
      vertex -2.14971 -6.78731 1
    endloop
  endfacet
  facet normal -0 -0 1
    outer loop
      vertex -2.61754 -6.50684 1
      vertex -2.14971 -6.78731 1
      vertex -2.67602 -6.17379 1
    endloop
  endfacet
  facet normal -0 0 1
    outer loop
      vertex -2.7462 -5.58948 1
      vertex -1.51228 -6.9217 1
      vertex -1.52982 -3.80735 1
    endloop
  endfacet
  facet normal -0 -0 1
    outer loop
      vertex -1.51228 -6.9217 1
      vertex -0.775439 -7.01519 1
      vertex -1.52982 -3.80735 1
    endloop
  endfacet
  facet normal -0 -0 1
    outer loop
      vertex -0.775439 -7.01519 1
      vertex -0.249123 -7.05609 1
      vertex -1.52982 -3.80735 1
    endloop
  endfacet
  facet normal 0 -0 1
    outer loop
      vertex -0.249123 -7.05609 1
      vertex 0.0842105 -7.05609 1
      vertex -1.52982 -3.80735 1
    endloop
  endfacet
  facet normal 0 0 1
    outer loop
      vertex 0.464327 -4.45593 1
      vertex 1.65146 -3.83072 1
      vertex 0.552047 -3.96511 1
    endloop
  endfacet
  facet normal 0 0 1
    outer loop
      vertex 5.97895 -3.40417 1
      vertex 5.66901 -3.40417 1
      vertex 6.00234 -3.60868 1
    endloop
  endfacet
  facet normal 0 0 1
    outer loop
      vertex 5.97895 -3.40417 1
      vertex 6.00234 -3.60868 1
      vertex 6.09006 -3.43923 1
    endloop
  endfacet
  facet normal 0 0 1
    outer loop
      vertex 5.66901 -3.40417 1
      vertex 5.63392 -4.16962 1
      vertex 6.00234 -3.60868 1
    endloop
  endfacet
  facet normal 0 0 1
    outer loop
      vertex 2.87953 -6.45426 1
      vertex 1.65146 -3.83072 1
      vertex 0.464327 -4.45593 1
    endloop
  endfacet
  facet normal 0 -0 1
    outer loop
      vertex 2.87953 -6.45426 1
      vertex 3.58713 -6.06277 1
      vertex 1.65146 -3.83072 1
    endloop
  endfacet
  facet normal 0 0 1
    outer loop
      vertex 5.66901 -3.40417 1
      vertex 4.70409 -5.20968 1
      vertex 5.63392 -4.16962 1
    endloop
  endfacet
  facet normal 0 0 1
    outer loop
      vertex 5.66901 -3.40417 1
      vertex 1.65146 -3.83072 1
      vertex 4.70409 -5.20968 1
    endloop
  endfacet
  facet normal 0 0 1
    outer loop
      vertex 4.70409 -5.20968 1
      vertex 1.65146 -3.83072 1
      vertex 3.58713 -6.06277 1
    endloop
  endfacet
  facet normal 0 0 1
    outer loop
      vertex 0.464327 -4.45593 1
      vertex 0.17193 -4.02938 1
      vertex 0.0374269 -4.07028 1
    endloop
  endfacet
  facet normal 0.999479 -0.0322682 0
    outer loop
      vertex 2.83275 2.84791 0
      vertex 2.8269 2.66678 1
      vertex 2.8269 2.66678 0
    endloop
  endfacet
  facet normal 0.999479 -0.0322682 0
    outer loop
      vertex 2.83275 2.84791 0
      vertex 2.83275 2.84791 1
      vertex 2.8269 2.66678 1
    endloop
  endfacet
  facet normal 0.998014 0.0629904 0
    outer loop
      vertex 2.70994 4.79366 0
      vertex 2.83275 2.84791 1
      vertex 2.83275 2.84791 0
    endloop
  endfacet
  facet normal 0.998014 0.0629904 -0
    outer loop
      vertex 2.70994 4.79366 0
      vertex 2.70994 4.79366 1
      vertex 2.83275 2.84791 1
    endloop
  endfacet
  facet normal 0.996101 0.0882241 0
    outer loop
      vertex 2.65146 5.45392 0
      vertex 2.70994 4.79366 1
      vertex 2.70994 4.79366 0
    endloop
  endfacet
  facet normal 0.996101 0.0882241 -0
    outer loop
      vertex 2.65146 5.45392 0
      vertex 2.65146 5.45392 1
      vertex 2.70994 4.79366 1
    endloop
  endfacet
  facet normal 0.993621 0.112773 0
    outer loop
      vertex 2.58713 6.0207 0
      vertex 2.65146 5.45392 1
      vertex 2.65146 5.45392 0
    endloop
  endfacet
  facet normal 0.993621 0.112773 -0
    outer loop
      vertex 2.58713 6.0207 0
      vertex 2.58713 6.0207 1
      vertex 2.65146 5.45392 1
    endloop
  endfacet
  facet normal 0.983844 0.17903 0
    outer loop
      vertex 2.52865 6.34207 0
      vertex 2.58713 6.0207 1
      vertex 2.58713 6.0207 0
    endloop
  endfacet
  facet normal 0.983844 0.17903 -0
    outer loop
      vertex 2.52865 6.34207 0
      vertex 2.52865 6.34207 1
      vertex 2.58713 6.0207 1
    endloop
  endfacet
  facet normal 0.938249 0.34596 0
    outer loop
      vertex 2.48772 6.45309 0
      vertex 2.52865 6.34207 1
      vertex 2.52865 6.34207 0
    endloop
  endfacet
  facet normal 0.938249 0.34596 -0
    outer loop
      vertex 2.48772 6.45309 0
      vertex 2.48772 6.45309 1
      vertex 2.52865 6.34207 1
    endloop
  endfacet
  facet normal 0.599679 0.80024 0
    outer loop
      vertex 2.41754 6.50568 0
      vertex 2.48772 6.45309 1
      vertex 2.48772 6.45309 0
    endloop
  endfacet
  facet normal 0.599679 0.80024 -0
    outer loop
      vertex 2.41754 6.50568 0
      vertex 2.41754 6.50568 1
      vertex 2.48772 6.45309 1
    endloop
  endfacet
  facet normal 0.309787 0.950806 0
    outer loop
      vertex 2.14854 6.59332 0
      vertex 2.41754 6.50568 1
      vertex 2.41754 6.50568 0
    endloop
  endfacet
  facet normal 0.309787 0.950806 -0
    outer loop
      vertex 2.14854 6.59332 0
      vertex 2.14854 6.59332 1
      vertex 2.41754 6.50568 1
    endloop
  endfacet
  facet normal 0.249381 0.968406 0
    outer loop
      vertex 1.58129 6.7394 0
      vertex 2.14854 6.59332 1
      vertex 2.14854 6.59332 0
    endloop
  endfacet
  facet normal 0.249381 0.968406 -0
    outer loop
      vertex 1.58129 6.7394 0
      vertex 1.58129 6.7394 1
      vertex 2.14854 6.59332 1
    endloop
  endfacet
  facet normal 0.18414 0.9829 0
    outer loop
      vertex 0.926316 6.8621 0
      vertex 1.58129 6.7394 1
      vertex 1.58129 6.7394 0
    endloop
  endfacet
  facet normal 0.18414 0.9829 -0
    outer loop
      vertex 0.926316 6.8621 0
      vertex 0.926316 6.8621 1
      vertex 1.58129 6.7394 1
    endloop
  endfacet
  facet normal 0.146913 0.989149 0
    outer loop
      vertex 0.493567 6.92638 0
      vertex 0.926316 6.8621 1
      vertex 0.926316 6.8621 0
    endloop
  endfacet
  facet normal 0.146913 0.989149 -0
    outer loop
      vertex 0.493567 6.92638 0
      vertex 0.493567 6.92638 1
      vertex 0.926316 6.8621 1
    endloop
  endfacet
  facet normal 0.043401 0.999058 0
    outer loop
      vertex 0.0900585 6.94391 0
      vertex 0.493567 6.92638 1
      vertex 0.493567 6.92638 0
    endloop
  endfacet
  facet normal 0.043401 0.999058 -0
    outer loop
      vertex 0.0900585 6.94391 0
      vertex 0.0900585 6.94391 1
      vertex 0.493567 6.92638 1
    endloop
  endfacet
  facet normal -0.0337364 0.999431 0
    outer loop
      vertex -0.775439 6.91469 0
      vertex 0.0900585 6.94391 1
      vertex 0.0900585 6.94391 0
    endloop
  endfacet
  facet normal -0.0337364 0.999431 0
    outer loop
      vertex -0.775439 6.91469 0
      vertex -0.775439 6.91469 1
      vertex 0.0900585 6.94391 1
    endloop
  endfacet
  facet normal -0.132055 0.991242 0
    outer loop
      vertex -1.21404 6.85626 0
      vertex -0.775439 6.91469 1
      vertex -0.775439 6.91469 0
    endloop
  endfacet
  facet normal -0.132055 0.991242 0
    outer loop
      vertex -1.21404 6.85626 0
      vertex -1.21404 6.85626 1
      vertex -0.775439 6.91469 1
    endloop
  endfacet
  facet normal -0.193303 0.981139 0
    outer loop
      vertex -1.62924 6.77446 0
      vertex -1.21404 6.85626 1
      vertex -1.21404 6.85626 0
    endloop
  endfacet
  facet normal -0.193303 0.981139 0
    outer loop
      vertex -1.62924 6.77446 0
      vertex -1.62924 6.77446 1
      vertex -1.21404 6.85626 1
    endloop
  endfacet
  facet normal -0.255192 0.96689 0
    outer loop
      vertex -1.93918 6.69265 0
      vertex -1.62924 6.77446 1
      vertex -1.62924 6.77446 0
    endloop
  endfacet
  facet normal -0.255192 0.96689 0
    outer loop
      vertex -1.93918 6.69265 0
      vertex -1.93918 6.69265 1
      vertex -1.62924 6.77446 1
    endloop
  endfacet
  facet normal -0.355736 0.934587 0
    outer loop
      vertex -2.06199 6.64591 0
      vertex -1.93918 6.69265 1
      vertex -1.93918 6.69265 0
    endloop
  endfacet
  facet normal -0.355736 0.934587 0
    outer loop
      vertex -2.06199 6.64591 0
      vertex -2.06199 6.64591 1
      vertex -1.93918 6.69265 1
    endloop
  endfacet
  facet normal -1 0 0
    outer loop
      vertex -2.06199 6.61669 0
      vertex -2.06199 6.64591 1
      vertex -2.06199 6.64591 0
    endloop
  endfacet
  facet normal -1 0 0
    outer loop
      vertex -2.06199 6.61669 0
      vertex -2.06199 6.61669 1
      vertex -2.06199 6.64591 1
    endloop
  endfacet
  facet normal -0.661633 -0.749828 0
    outer loop
      vertex -1.6117 6.21937 0
      vertex -2.06199 6.61669 1
      vertex -2.06199 6.61669 0
    endloop
  endfacet
  facet normal -0.661633 -0.749828 0
    outer loop
      vertex -1.6117 6.21937 0
      vertex -1.6117 6.21937 1
      vertex -2.06199 6.61669 1
    endloop
  endfacet
  facet normal -0.632396 -0.774645 0
    outer loop
      vertex 1.6807 3.53155 0
      vertex -1.6117 6.21937 1
      vertex -1.6117 6.21937 0
    endloop
  endfacet
  facet normal -0.632396 -0.774645 0
    outer loop
      vertex 1.6807 3.53155 0
      vertex 1.6807 3.53155 1
      vertex -1.6117 6.21937 1
    endloop
  endfacet
  facet normal -0.617799 -0.786336 0
    outer loop
      vertex 2.36491 2.99399 0
      vertex 1.6807 3.53155 1
      vertex 1.6807 3.53155 0
    endloop
  endfacet
  facet normal -0.617799 -0.786336 0
    outer loop
      vertex 2.36491 2.99399 0
      vertex 2.36491 2.99399 1
      vertex 1.6807 3.53155 1
    endloop
  endfacet
  facet normal -0.59407 -0.804413 0
    outer loop
      vertex 2.76842 2.69599 0
      vertex 2.36491 2.99399 1
      vertex 2.36491 2.99399 0
    endloop
  endfacet
  facet normal -0.59407 -0.804413 0
    outer loop
      vertex 2.76842 2.69599 0
      vertex 2.76842 2.69599 1
      vertex 2.36491 2.99399 1
    endloop
  endfacet
  facet normal -0.446915 -0.894576 0
    outer loop
      vertex 2.8269 2.66678 0
      vertex 2.76842 2.69599 1
      vertex 2.76842 2.69599 0
    endloop
  endfacet
  facet normal -0.446915 -0.894576 0
    outer loop
      vertex 2.8269 2.66678 0
      vertex 2.8269 2.66678 1
      vertex 2.76842 2.69599 1
    endloop
  endfacet
  facet normal 0.0994215 -0.995045 0
    outer loop
      vertex -3.11462 3.50234 0
      vertex -6.21404 3.19265 1
      vertex -6.21404 3.19265 0
    endloop
  endfacet
  facet normal 0.0994215 -0.995045 0
    outer loop
      vertex -3.11462 3.50234 0
      vertex -3.11462 3.50234 1
      vertex -6.21404 3.19265 1
    endloop
  endfacet
  facet normal 0.10944 -0.993993 0
    outer loop
      vertex -0.991813 3.73606 0
      vertex -3.11462 3.50234 1
      vertex -3.11462 3.50234 0
    endloop
  endfacet
  facet normal 0.10944 -0.993993 0
    outer loop
      vertex -0.991813 3.73606 0
      vertex -0.991813 3.73606 1
      vertex -3.11462 3.50234 1
    endloop
  endfacet
  facet normal 0.120232 -0.992746 0
    outer loop
      vertex -0.0269006 3.85292 0
      vertex -0.991813 3.73606 1
      vertex -0.991813 3.73606 0
    endloop
  endfacet
  facet normal 0.120232 -0.992746 0
    outer loop
      vertex -0.0269006 3.85292 0
      vertex -0.0269006 3.85292 1
      vertex -0.991813 3.73606 1
    endloop
  endfacet
  facet normal 0.706811 -0.707402 0
    outer loop
      vertex -0.0152047 3.86461 0
      vertex -0.0269006 3.85292 1
      vertex -0.0269006 3.85292 0
    endloop
  endfacet
  facet normal 0.706811 -0.707402 0
    outer loop
      vertex -0.0152047 3.86461 0
      vertex -0.0152047 3.86461 1
      vertex -0.0269006 3.85292 1
    endloop
  endfacet
  facet normal 0.706811 0.707402 0
    outer loop
      vertex -0.126316 3.97563 0
      vertex -0.0152047 3.86461 1
      vertex -0.0152047 3.86461 0
    endloop
  endfacet
  facet normal 0.706811 0.707402 -0
    outer loop
      vertex -0.126316 3.97563 0
      vertex -0.126316 3.97563 1
      vertex -0.0152047 3.86461 1
    endloop
  endfacet
  facet normal 0.648226 0.761448 0
    outer loop
      vertex -1.43041 5.08581 0
      vertex -0.126316 3.97563 1
      vertex -0.126316 3.97563 0
    endloop
  endfacet
  facet normal 0.648226 0.761448 -0
    outer loop
      vertex -1.43041 5.08581 0
      vertex -1.43041 5.08581 1
      vertex -0.126316 3.97563 1
    endloop
  endfacet
  facet normal 0.634612 0.772831 0
    outer loop
      vertex -2.44795 5.92137 0
      vertex -1.43041 5.08581 1
      vertex -1.43041 5.08581 0
    endloop
  endfacet
  facet normal 0.634612 0.772831 -0
    outer loop
      vertex -2.44795 5.92137 0
      vertex -2.44795 5.92137 1
      vertex -1.43041 5.08581 1
    endloop
  endfacet
  facet normal 0.616245 0.787555 0
    outer loop
      vertex -2.93333 6.30117 0
      vertex -2.44795 5.92137 1
      vertex -2.44795 5.92137 0
    endloop
  endfacet
  facet normal 0.616245 0.787555 -0
    outer loop
      vertex -2.93333 6.30117 0
      vertex -2.93333 6.30117 1
      vertex -2.44795 5.92137 1
    endloop
  endfacet
  facet normal 0.371123 0.928584 0
    outer loop
      vertex -2.96257 6.31285 0
      vertex -2.93333 6.30117 1
      vertex -2.93333 6.30117 0
    endloop
  endfacet
  facet normal 0.371123 0.928584 -0
    outer loop
      vertex -2.96257 6.31285 0
      vertex -2.96257 6.31285 1
      vertex -2.93333 6.30117 1
    endloop
  endfacet
  facet normal -0.195959 0.980612 0
    outer loop
      vertex -3.02105 6.30117 0
      vertex -2.96257 6.31285 1
      vertex -2.96257 6.31285 0
    endloop
  endfacet
  facet normal -0.195959 0.980612 0
    outer loop
      vertex -3.02105 6.30117 0
      vertex -3.02105 6.30117 1
      vertex -2.96257 6.31285 1
    endloop
  endfacet
  facet normal -0.42365 0.905826 0
    outer loop
      vertex -3.29591 6.17262 0
      vertex -3.02105 6.30117 1
      vertex -3.02105 6.30117 0
    endloop
  endfacet
  facet normal -0.42365 0.905826 0
    outer loop
      vertex -3.29591 6.17262 0
      vertex -3.29591 6.17262 1
      vertex -3.02105 6.30117 1
    endloop
  endfacet
  facet normal -0.487842 0.872932 0
    outer loop
      vertex -3.64094 5.9798 0
      vertex -3.29591 6.17262 1
      vertex -3.29591 6.17262 0
    endloop
  endfacet
  facet normal -0.487842 0.872932 0
    outer loop
      vertex -3.64094 5.9798 0
      vertex -3.64094 5.9798 1
      vertex -3.29591 6.17262 1
    endloop
  endfacet
  facet normal -0.577531 0.816369 0
    outer loop
      vertex -4.44211 5.41302 0
      vertex -3.64094 5.9798 1
      vertex -3.64094 5.9798 0
    endloop
  endfacet
  facet normal -0.577531 0.816369 0
    outer loop
      vertex -4.44211 5.41302 0
      vertex -4.44211 5.41302 1
      vertex -3.64094 5.9798 1
    endloop
  endfacet
  facet normal -0.664833 0.746992 0
    outer loop
      vertex -5.13801 4.79366 0
      vertex -4.44211 5.41302 1
      vertex -4.44211 5.41302 0
    endloop
  endfacet
  facet normal -0.664833 0.746992 0
    outer loop
      vertex -5.13801 4.79366 0
      vertex -5.13801 4.79366 1
      vertex -4.44211 5.41302 1
    endloop
  endfacet
  facet normal -0.743965 0.668219 0
    outer loop
      vertex -5.34269 4.56578 0
      vertex -5.13801 4.79366 1
      vertex -5.13801 4.79366 0
    endloop
  endfacet
  facet normal -0.743965 0.668219 0
    outer loop
      vertex -5.34269 4.56578 0
      vertex -5.34269 4.56578 1
      vertex -5.13801 4.79366 1
    endloop
  endfacet
  facet normal -0.784631 0.619963 0
    outer loop
      vertex -5.60585 4.23272 0
      vertex -5.34269 4.56578 1
      vertex -5.34269 4.56578 0
    endloop
  endfacet
  facet normal -0.784631 0.619963 0
    outer loop
      vertex -5.60585 4.23272 0
      vertex -5.60585 4.23272 1
      vertex -5.34269 4.56578 1
    endloop
  endfacet
  facet normal -0.812824 0.582509 0
    outer loop
      vertex -5.94503 3.75943 0
      vertex -5.60585 4.23272 1
      vertex -5.60585 4.23272 0
    endloop
  endfacet
  facet normal -0.812824 0.582509 0
    outer loop
      vertex -5.94503 3.75943 0
      vertex -5.94503 3.75943 1
      vertex -5.60585 4.23272 1
    endloop
  endfacet
  facet normal -0.852773 0.522282 0
    outer loop
      vertex -6.1848 3.36795 0
      vertex -5.94503 3.75943 1
      vertex -5.94503 3.75943 0
    endloop
  endfacet
  facet normal -0.852773 0.522282 0
    outer loop
      vertex -6.1848 3.36795 0
      vertex -6.1848 3.36795 1
      vertex -5.94503 3.75943 1
    endloop
  endfacet
  facet normal -0.954994 0.296625 0
    outer loop
      vertex -6.23743 3.1985 0
      vertex -6.1848 3.36795 1
      vertex -6.1848 3.36795 0
    endloop
  endfacet
  facet normal -0.954994 0.296625 0
    outer loop
      vertex -6.23743 3.1985 0
      vertex -6.23743 3.1985 1
      vertex -6.1848 3.36795 1
    endloop
  endfacet
  facet normal -0.242345 -0.97019 0
    outer loop
      vertex -6.21404 3.19265 0
      vertex -6.23743 3.1985 1
      vertex -6.23743 3.1985 0
    endloop
  endfacet
  facet normal -0.242345 -0.97019 0
    outer loop
      vertex -6.21404 3.19265 0
      vertex -6.21404 3.19265 1
      vertex -6.23743 3.1985 1
    endloop
  endfacet
  facet normal 0.736873 -0.676031 0
    outer loop
      vertex 4.2538 0.218531 0
      vertex 3.86784 -0.20217 1
      vertex 3.86784 -0.20217 0
    endloop
  endfacet
  facet normal 0.736873 -0.676031 0
    outer loop
      vertex 4.2538 0.218531 0
      vertex 4.2538 0.218531 1
      vertex 3.86784 -0.20217 1
    endloop
  endfacet
  facet normal 0.753838 -0.65706 0
    outer loop
      vertex 6.42339 2.70768 0
      vertex 4.2538 0.218531 1
      vertex 4.2538 0.218531 0
    endloop
  endfacet
  facet normal 0.753838 -0.65706 0
    outer loop
      vertex 6.42339 2.70768 0
      vertex 6.42339 2.70768 1
      vertex 4.2538 0.218531 1
    endloop
  endfacet
  facet normal 0.874991 0.484139 0
    outer loop
      vertex 6.02573 3.42638 0
      vertex 6.42339 2.70768 1
      vertex 6.42339 2.70768 0
    endloop
  endfacet
  facet normal 0.874991 0.484139 -0
    outer loop
      vertex 6.02573 3.42638 0
      vertex 6.02573 3.42638 1
      vertex 6.42339 2.70768 1
    endloop
  endfacet
  facet normal 0.823821 0.56685 0
    outer loop
      vertex 5.44678 4.26778 0
      vertex 6.02573 3.42638 1
      vertex 6.02573 3.42638 0
    endloop
  endfacet
  facet normal 0.823821 0.56685 -0
    outer loop
      vertex 5.44678 4.26778 0
      vertex 5.44678 4.26778 1
      vertex 6.02573 3.42638 1
    endloop
  endfacet
  facet normal 0.747799 0.663925 0
    outer loop
      vertex 4.80351 4.99232 0
      vertex 5.44678 4.26778 1
      vertex 5.44678 4.26778 0
    endloop
  endfacet
  facet normal 0.747799 0.663925 -0
    outer loop
      vertex 4.80351 4.99232 0
      vertex 4.80351 4.99232 1
      vertex 5.44678 4.26778 1
    endloop
  endfacet
  facet normal 0.662263 0.749271 0
    outer loop
      vertex 4.49942 5.2611 0
      vertex 4.80351 4.99232 1
      vertex 4.80351 4.99232 0
    endloop
  endfacet
  facet normal 0.662263 0.749271 -0
    outer loop
      vertex 4.49942 5.2611 0
      vertex 4.49942 5.2611 1
      vertex 4.80351 4.99232 1
    endloop
  endfacet
  facet normal 0.618553 0.785743 0
    outer loop
      vertex 4.11345 5.56494 0
      vertex 4.49942 5.2611 1
      vertex 4.49942 5.2611 0
    endloop
  endfacet
  facet normal 0.618553 0.785743 -0
    outer loop
      vertex 4.11345 5.56494 0
      vertex 4.11345 5.56494 1
      vertex 4.49942 5.2611 1
    endloop
  endfacet
  facet normal 0.578426 0.815735 0
    outer loop
      vertex 3.75088 5.82204 0
      vertex 4.11345 5.56494 1
      vertex 4.11345 5.56494 0
    endloop
  endfacet
  facet normal 0.578426 0.815735 -0
    outer loop
      vertex 3.75088 5.82204 0
      vertex 3.75088 5.82204 1
      vertex 4.11345 5.56494 1
    endloop
  endfacet
  facet normal 0.505886 0.8626 0
    outer loop
      vertex 3.48187 5.9798 0
      vertex 3.75088 5.82204 1
      vertex 3.75088 5.82204 0
    endloop
  endfacet
  facet normal 0.505886 0.8626 -0
    outer loop
      vertex 3.48187 5.9798 0
      vertex 3.48187 5.9798 1
      vertex 3.75088 5.82204 1
    endloop
  endfacet
  facet normal 0.31599 0.948762 0
    outer loop
      vertex 3.42924 5.99733 0
      vertex 3.48187 5.9798 1
      vertex 3.48187 5.9798 0
    endloop
  endfacet
  facet normal 0.31599 0.948762 -0
    outer loop
      vertex 3.42924 5.99733 0
      vertex 3.42924 5.99733 1
      vertex 3.48187 5.9798 1
    endloop
  endfacet
  facet normal 0 1 0
    outer loop
      vertex 3.4 5.99733 0
      vertex 3.42924 5.99733 1
      vertex 3.42924 5.99733 0
    endloop
  endfacet
  facet normal 0 1 0
    outer loop
      vertex 3.4 5.99733 0
      vertex 3.4 5.99733 1
      vertex 3.42924 5.99733 1
    endloop
  endfacet
  facet normal -0.976149 0.217103 0
    outer loop
      vertex 3.37661 5.89215 0
      vertex 3.4 5.99733 1
      vertex 3.4 5.99733 0
    endloop
  endfacet
  facet normal -0.976149 0.217103 0
    outer loop
      vertex 3.37661 5.89215 0
      vertex 3.37661 5.89215 1
      vertex 3.4 5.99733 1
    endloop
  endfacet
  facet normal -1 0 0
    outer loop
      vertex 3.37661 5.69349 0
      vertex 3.37661 5.89215 1
      vertex 3.37661 5.89215 0
    endloop
  endfacet
  facet normal -1 0 0
    outer loop
      vertex 3.37661 5.69349 0
      vertex 3.37661 5.69349 1
      vertex 3.37661 5.89215 1
    endloop
  endfacet
  facet normal -0.996547 -0.0830326 0
    outer loop
      vertex 3.86784 -0.20217 0
      vertex 3.37661 5.69349 1
      vertex 3.37661 5.69349 0
    endloop
  endfacet
  facet normal -0.996547 -0.0830326 0
    outer loop
      vertex 3.86784 -0.20217 0
      vertex 3.86784 -0.20217 1
      vertex 3.37661 5.69349 1
    endloop
  endfacet
  facet normal 0.75314 -0.65786 0
    outer loop
      vertex -3.93918 1.30534 0
      vertex -6.78713 -1.95509 1
      vertex -6.78713 -1.95509 0
    endloop
  endfacet
  facet normal 0.75314 -0.65786 0
    outer loop
      vertex -3.93918 1.30534 0
      vertex -3.93918 1.30534 1
      vertex -6.78713 -1.95509 1
    endloop
  endfacet
  facet normal 0.761135 -0.648593 0
    outer loop
      vertex -3.06784 2.32788 0
      vertex -3.93918 1.30534 1
      vertex -3.93918 1.30534 0
    endloop
  endfacet
  facet normal 0.761135 -0.648593 0
    outer loop
      vertex -3.06784 2.32788 0
      vertex -3.06784 2.32788 1
      vertex -3.93918 1.30534 1
    endloop
  endfacet
  facet normal 0.771368 -0.636389 0
    outer loop
      vertex -2.71111 2.76027 0
      vertex -3.06784 2.32788 1
      vertex -3.06784 2.32788 0
    endloop
  endfacet
  facet normal 0.771368 -0.636389 0
    outer loop
      vertex -2.71111 2.76027 0
      vertex -2.71111 2.76027 1
      vertex -3.06784 2.32788 1
    endloop
  endfacet
  facet normal -0.0604447 0.998172 0
    outer loop
      vertex -3.29006 2.72521 0
      vertex -2.71111 2.76027 1
      vertex -2.71111 2.76027 0
    endloop
  endfacet
  facet normal -0.0604447 0.998172 0
    outer loop
      vertex -3.29006 2.72521 0
      vertex -3.29006 2.72521 1
      vertex -2.71111 2.76027 1
    endloop
  endfacet
  facet normal -0.109402 0.993998 0
    outer loop
      vertex -6.68772 2.35125 0
      vertex -3.29006 2.72521 1
      vertex -3.29006 2.72521 0
    endloop
  endfacet
  facet normal -0.109402 0.993998 0
    outer loop
      vertex -6.68772 2.35125 0
      vertex -6.68772 2.35125 1
      vertex -3.29006 2.72521 1
    endloop
  endfacet
  facet normal -0.970095 0.242726 0
    outer loop
      vertex -6.90994 1.46311 0
      vertex -6.68772 2.35125 1
      vertex -6.68772 2.35125 0
    endloop
  endfacet
  facet normal -0.970095 0.242726 0
    outer loop
      vertex -6.90994 1.46311 0
      vertex -6.90994 1.46311 1
      vertex -6.68772 2.35125 1
    endloop
  endfacet
  facet normal -0.993494 0.113887 0
    outer loop
      vertex -7.06199 0.136728 0
      vertex -6.90994 1.46311 1
      vertex -6.90994 1.46311 0
    endloop
  endfacet
  facet normal -0.993494 0.113887 0
    outer loop
      vertex -7.06199 0.136728 0
      vertex -7.06199 0.136728 1
      vertex -6.90994 1.46311 1
    endloop
  endfacet
  facet normal -1 0 0
    outer loop
      vertex -7.06199 -0.167112 0
      vertex -7.06199 0.136728 1
      vertex -7.06199 0.136728 0
    endloop
  endfacet
  facet normal -1 0 0
    outer loop
      vertex -7.06199 -0.167112 0
      vertex -7.06199 -0.167112 1
      vertex -7.06199 0.136728 1
    endloop
  endfacet
  facet normal -0.998866 -0.0476048 0
    outer loop
      vertex -7.0386 -0.65793 0
      vertex -7.06199 -0.167112 1
      vertex -7.06199 -0.167112 0
    endloop
  endfacet
  facet normal -0.998866 -0.0476048 0
    outer loop
      vertex -7.0386 -0.65793 0
      vertex -7.0386 -0.65793 1
      vertex -7.06199 -0.167112 1
    endloop
  endfacet
  facet normal -0.995117 -0.0986976 0
    outer loop
      vertex -6.97427 -1.30651 0
      vertex -7.0386 -0.65793 1
      vertex -7.0386 -0.65793 0
    endloop
  endfacet
  facet normal -0.995117 -0.0986976 0
    outer loop
      vertex -6.97427 -1.30651 0
      vertex -6.97427 -1.30651 1
      vertex -7.0386 -0.65793 1
    endloop
  endfacet
  facet normal -0.983651 -0.180086 0
    outer loop
      vertex -6.88655 -1.78564 0
      vertex -6.97427 -1.30651 1
      vertex -6.97427 -1.30651 0
    endloop
  endfacet
  facet normal -0.983651 -0.180086 0
    outer loop
      vertex -6.88655 -1.78564 0
      vertex -6.88655 -1.78564 1
      vertex -6.97427 -1.30651 1
    endloop
  endfacet
  facet normal -0.906048 -0.423176 0
    outer loop
      vertex -6.80468 -1.96093 0
      vertex -6.88655 -1.78564 1
      vertex -6.88655 -1.78564 0
    endloop
  endfacet
  facet normal -0.906048 -0.423176 0
    outer loop
      vertex -6.80468 -1.96093 0
      vertex -6.80468 -1.96093 1
      vertex -6.88655 -1.78564 1
    endloop
  endfacet
  facet normal 0.31599 -0.948762 0
    outer loop
      vertex -6.78713 -1.95509 0
      vertex -6.80468 -1.96093 1
      vertex -6.80468 -1.96093 0
    endloop
  endfacet
  facet normal 0.31599 -0.948762 0
    outer loop
      vertex -6.78713 -1.95509 0
      vertex -6.78713 -1.95509 1
      vertex -6.80468 -1.96093 1
    endloop
  endfacet
  facet normal 0.101189 -0.994867 0
    outer loop
      vertex 4.51696 -2.76728 0
      vertex 2.56374 -2.96594 1
      vertex 2.56374 -2.96594 0
    endloop
  endfacet
  facet normal 0.101189 -0.994867 0
    outer loop
      vertex 4.51696 -2.76728 0
      vertex 4.51696 -2.76728 1
      vertex 2.56374 -2.96594 1
    endloop
  endfacet
  facet normal 0.12032 -0.992735 0
    outer loop
      vertex 6.49357 -2.52771 0
      vertex 4.51696 -2.76728 1
      vertex 4.51696 -2.76728 0
    endloop
  endfacet
  facet normal 0.12032 -0.992735 0
    outer loop
      vertex 6.49357 -2.52771 0
      vertex 6.49357 -2.52771 1
      vertex 4.51696 -2.76728 1
    endloop
  endfacet
  facet normal 0.573141 -0.819457 0
    outer loop
      vertex 6.55205 -2.48681 0
      vertex 6.49357 -2.52771 1
      vertex 6.49357 -2.52771 0
    endloop
  endfacet
  facet normal 0.573141 -0.819457 0
    outer loop
      vertex 6.55205 -2.48681 0
      vertex 6.55205 -2.48681 1
      vertex 6.49357 -2.52771 1
    endloop
  endfacet
  facet normal 0.948604 -0.316466 0
    outer loop
      vertex 6.64561 -2.20634 0
      vertex 6.55205 -2.48681 1
      vertex 6.55205 -2.48681 0
    endloop
  endfacet
  facet normal 0.948604 -0.316466 0
    outer loop
      vertex 6.64561 -2.20634 0
      vertex 6.64561 -2.20634 1
      vertex 6.55205 -2.48681 1
    endloop
  endfacet
  facet normal 0.976149 -0.217103 0
    outer loop
      vertex 6.78596 -1.57529 0
      vertex 6.64561 -2.20634 1
      vertex 6.64561 -2.20634 0
    endloop
  endfacet
  facet normal 0.976149 -0.217103 0
    outer loop
      vertex 6.78596 -1.57529 0
      vertex 6.78596 -1.57529 1
      vertex 6.64561 -2.20634 1
    endloop
  endfacet
  facet normal 0.990815 -0.135224 0
    outer loop
      vertex 6.89123 -0.804007 0
      vertex 6.78596 -1.57529 1
      vertex 6.78596 -1.57529 0
    endloop
  endfacet
  facet normal 0.990815 -0.135224 0
    outer loop
      vertex 6.89123 -0.804007 0
      vertex 6.89123 -0.804007 1
      vertex 6.78596 -1.57529 1
    endloop
  endfacet
  facet normal 0.995978 -0.0896009 0
    outer loop
      vertex 6.93801 -0.283973 0
      vertex 6.89123 -0.804007 1
      vertex 6.89123 -0.804007 0
    endloop
  endfacet
  facet normal 0.995978 -0.0896009 0
    outer loop
      vertex 6.93801 -0.283973 0
      vertex 6.93801 -0.283973 1
      vertex 6.89123 -0.804007 1
    endloop
  endfacet
  facet normal 1 0 0
    outer loop
      vertex 6.93801 0.0490818 0
      vertex 6.93801 -0.283973 1
      vertex 6.93801 -0.283973 0
    endloop
  endfacet
  facet normal 1 0 -0
    outer loop
      vertex 6.93801 0.0490818 0
      vertex 6.93801 0.0490818 1
      vertex 6.93801 -0.283973 1
    endloop
  endfacet
  facet normal 0.998718 0.0506103 0
    outer loop
      vertex 6.91462 0.510684 0
      vertex 6.93801 0.0490818 1
      vertex 6.93801 0.0490818 0
    endloop
  endfacet
  facet normal 0.998718 0.0506103 -0
    outer loop
      vertex 6.91462 0.510684 0
      vertex 6.91462 0.510684 1
      vertex 6.93801 0.0490818 1
    endloop
  endfacet
  facet normal 0.994336 0.10628 0
    outer loop
      vertex 6.85029 1.11252 0
      vertex 6.91462 0.510684 1
      vertex 6.91462 0.510684 0
    endloop
  endfacet
  facet normal 0.994336 0.10628 -0
    outer loop
      vertex 6.85029 1.11252 0
      vertex 6.85029 1.11252 1
      vertex 6.91462 0.510684 1
    endloop
  endfacet
  facet normal 0.985006 0.17252 0
    outer loop
      vertex 6.76842 1.57997 0
      vertex 6.85029 1.11252 1
      vertex 6.85029 1.11252 0
    endloop
  endfacet
  facet normal 0.985006 0.17252 -0
    outer loop
      vertex 6.76842 1.57997 0
      vertex 6.76842 1.57997 1
      vertex 6.85029 1.11252 1
    endloop
  endfacet
  facet normal 0.951369 0.308053 0
    outer loop
      vertex 6.70409 1.77863 0
      vertex 6.76842 1.57997 1
      vertex 6.76842 1.57997 0
    endloop
  endfacet
  facet normal 0.951369 0.308053 -0
    outer loop
      vertex 6.70409 1.77863 0
      vertex 6.70409 1.77863 1
      vertex 6.76842 1.57997 1
    endloop
  endfacet
  facet normal 0.446915 0.894576 0
    outer loop
      vertex 6.6807 1.79032 0
      vertex 6.70409 1.77863 1
      vertex 6.70409 1.77863 0
    endloop
  endfacet
  facet normal 0.446915 0.894576 -0
    outer loop
      vertex 6.6807 1.79032 0
      vertex 6.6807 1.79032 1
      vertex 6.70409 1.77863 1
    endloop
  endfacet
  facet normal -0.613621 0.789601 0
    outer loop
      vertex 6.62807 1.74942 0
      vertex 6.6807 1.79032 1
      vertex 6.6807 1.79032 0
    endloop
  endfacet
  facet normal -0.613621 0.789601 0
    outer loop
      vertex 6.62807 1.74942 0
      vertex 6.62807 1.74942 1
      vertex 6.6807 1.79032 1
    endloop
  endfacet
  facet normal -0.733229 0.679982 0
    outer loop
      vertex 6.03743 1.11252 0
      vertex 6.62807 1.74942 1
      vertex 6.62807 1.74942 0
    endloop
  endfacet
  facet normal -0.733229 0.679982 0
    outer loop
      vertex 6.03743 1.11252 0
      vertex 6.03743 1.11252 1
      vertex 6.62807 1.74942 1
    endloop
  endfacet
  facet normal -0.753449 0.657507 0
    outer loop
      vertex 4.16608 -1.03189 0
      vertex 6.03743 1.11252 1
      vertex 6.03743 1.11252 0
    endloop
  endfacet
  facet normal -0.753449 0.657507 0
    outer loop
      vertex 4.16608 -1.03189 0
      vertex 4.16608 -1.03189 1
      vertex 6.03743 1.11252 1
    endloop
  endfacet
  facet normal -0.764026 0.645185 0
    outer loop
      vertex 2.58713 -2.90167 0
      vertex 4.16608 -1.03189 1
      vertex 4.16608 -1.03189 0
    endloop
  endfacet
  facet normal -0.764026 0.645185 0
    outer loop
      vertex 2.58713 -2.90167 0
      vertex 2.58713 -2.90167 1
      vertex 4.16608 -1.03189 1
    endloop
  endfacet
  facet normal -0.831836 0.555021 0
    outer loop
      vertex 2.55205 -2.95426 0
      vertex 2.58713 -2.90167 1
      vertex 2.58713 -2.90167 0
    endloop
  endfacet
  facet normal -0.831836 0.555021 0
    outer loop
      vertex 2.55205 -2.95426 0
      vertex 2.55205 -2.95426 1
      vertex 2.58713 -2.90167 1
    endloop
  endfacet
  facet normal -0.706811 -0.707402 0
    outer loop
      vertex 2.56374 -2.96594 0
      vertex 2.55205 -2.95426 1
      vertex 2.55205 -2.95426 0
    endloop
  endfacet
  facet normal -0.706811 -0.707402 0
    outer loop
      vertex 2.56374 -2.96594 0
      vertex 2.56374 -2.96594 1
      vertex 2.55205 -2.95426 1
    endloop
  endfacet
  facet normal 0.998026 0.0628026 0
    outer loop
      vertex -3.60585 -4.21052 0
      vertex -3.48304 -6.1621 1
      vertex -3.48304 -6.1621 0
    endloop
  endfacet
  facet normal 0.998026 0.0628026 -0
    outer loop
      vertex -3.60585 -4.21052 0
      vertex -3.60585 -4.21052 1
      vertex -3.48304 -6.1621 1
    endloop
  endfacet
  facet normal 0.996878 0.0789555 0
    outer loop
      vertex -3.86316 -0.96177 0
      vertex -3.60585 -4.21052 1
      vertex -3.60585 -4.21052 0
    endloop
  endfacet
  facet normal 0.996878 0.0789555 -0
    outer loop
      vertex -3.86316 -0.96177 0
      vertex -3.86316 -0.96177 1
      vertex -3.60585 -4.21052 1
    endloop
  endfacet
  facet normal 0.995379 0.0960203 0
    outer loop
      vertex -3.95673 0.0081803 0
      vertex -3.86316 -0.96177 1
      vertex -3.86316 -0.96177 0
    endloop
  endfacet
  facet normal 0.995379 0.0960203 -0
    outer loop
      vertex -3.95673 0.0081803 0
      vertex -3.95673 0.0081803 1
      vertex -3.86316 -0.96177 1
    endloop
  endfacet
  facet normal 0.831836 0.555021 0
    outer loop
      vertex -3.96842 0.0257095 0
      vertex -3.95673 0.0081803 1
      vertex -3.95673 0.0081803 0
    endloop
  endfacet
  facet normal 0.831836 0.555021 -0
    outer loop
      vertex -3.96842 0.0257095 0
      vertex -3.96842 0.0257095 1
      vertex -3.95673 0.0081803 1
    endloop
  endfacet
  facet normal -0.647334 0.762206 0
    outer loop
      vertex -4.08538 -0.0736227 0
      vertex -3.96842 0.0257095 1
      vertex -3.96842 0.0257095 0
    endloop
  endfacet
  facet normal -0.647334 0.762206 0
    outer loop
      vertex -4.08538 -0.0736227 0
      vertex -4.08538 -0.0736227 1
      vertex -3.96842 0.0257095 1
    endloop
  endfacet
  facet normal -0.713921 0.700227 0
    outer loop
      vertex -4.37193 -0.365776 0
      vertex -4.08538 -0.0736227 1
      vertex -4.08538 -0.0736227 0
    endloop
  endfacet
  facet normal -0.713921 0.700227 0
    outer loop
      vertex -4.37193 -0.365776 0
      vertex -4.37193 -0.365776 1
      vertex -4.08538 -0.0736227 1
    endloop
  endfacet
  facet normal -0.748313 0.663345 0
    outer loop
      vertex -5.27836 -1.38831 0
      vertex -4.37193 -0.365776 1
      vertex -4.37193 -0.365776 0
    endloop
  endfacet
  facet normal -0.748313 0.663345 0
    outer loop
      vertex -5.27836 -1.38831 0
      vertex -5.27836 -1.38831 1
      vertex -4.37193 -0.365776 1
    endloop
  endfacet
  facet normal -0.757916 0.652352 0
    outer loop
      vertex -6.53567 -2.84908 0
      vertex -5.27836 -1.38831 1
      vertex -5.27836 -1.38831 0
    endloop
  endfacet
  facet normal -0.757916 0.652352 0
    outer loop
      vertex -6.53567 -2.84908 0
      vertex -6.53567 -2.84908 1
      vertex -5.27836 -1.38831 1
    endloop
  endfacet
  facet normal -0.88093 -0.473247 0
    outer loop
      vertex -6.10877 -3.64374 0
      vertex -6.53567 -2.84908 1
      vertex -6.53567 -2.84908 0
    endloop
  endfacet
  facet normal -0.88093 -0.473247 0
    outer loop
      vertex -6.10877 -3.64374 0
      vertex -6.10877 -3.64374 1
      vertex -6.53567 -2.84908 1
    endloop
  endfacet
  facet normal -0.801223 -0.598366 0
    outer loop
      vertex -5.24912 -4.79482 0
      vertex -6.10877 -3.64374 1
      vertex -6.10877 -3.64374 0
    endloop
  endfacet
  facet normal -0.801223 -0.598366 0
    outer loop
      vertex -5.24912 -4.79482 0
      vertex -5.24912 -4.79482 1
      vertex -6.10877 -3.64374 1
    endloop
  endfacet
  facet normal -0.670929 -0.741522 0
    outer loop
      vertex -4.19649 -5.74725 0
      vertex -5.24912 -4.79482 1
      vertex -5.24912 -4.79482 0
    endloop
  endfacet
  facet normal -0.670929 -0.741522 0
    outer loop
      vertex -4.19649 -5.74725 0
      vertex -4.19649 -5.74725 1
      vertex -5.24912 -4.79482 1
    endloop
  endfacet
  facet normal -0.53999 -0.841671 0
    outer loop
      vertex -3.64094 -6.10367 0
      vertex -4.19649 -5.74725 1
      vertex -4.19649 -5.74725 0
    endloop
  endfacet
  facet normal -0.53999 -0.841671 0
    outer loop
      vertex -3.64094 -6.10367 0
      vertex -3.64094 -6.10367 1
      vertex -4.19649 -5.74725 1
    endloop
  endfacet
  facet normal -0.46105 -0.887374 0
    outer loop
      vertex -3.49474 -6.17963 0
      vertex -3.64094 -6.10367 1
      vertex -3.64094 -6.10367 0
    endloop
  endfacet
  facet normal -0.46105 -0.887374 0
    outer loop
      vertex -3.49474 -6.17963 0
      vertex -3.49474 -6.17963 1
      vertex -3.64094 -6.10367 1
    endloop
  endfacet
  facet normal 0.831836 -0.555021 0
    outer loop
      vertex -3.48304 -6.1621 0
      vertex -3.49474 -6.17963 1
      vertex -3.49474 -6.17963 0
    endloop
  endfacet
  facet normal 0.831836 -0.555021 0
    outer loop
      vertex -3.48304 -6.1621 0
      vertex -3.48304 -6.1621 1
      vertex -3.49474 -6.17963 1
    endloop
  endfacet
  facet normal 0.11128 -0.993789 0
    outer loop
      vertex 1.24795 -6.94508 0
      vertex 0.569591 -7.02104 1
      vertex 0.569591 -7.02104 0
    endloop
  endfacet
  facet normal 0.11128 -0.993789 0
    outer loop
      vertex 1.24795 -6.94508 0
      vertex 1.24795 -6.94508 1
      vertex 0.569591 -7.02104 1
    endloop
  endfacet
  facet normal 0.179671 -0.983727 0
    outer loop
      vertex 1.79181 -6.84574 0
      vertex 1.24795 -6.94508 1
      vertex 1.24795 -6.94508 0
    endloop
  endfacet
  facet normal 0.179671 -0.983727 0
    outer loop
      vertex 1.79181 -6.84574 0
      vertex 1.79181 -6.84574 1
      vertex 1.24795 -6.94508 1
    endloop
  endfacet
  facet normal 0.277844 -0.960626 0
    outer loop
      vertex 2.01404 -6.78147 0
      vertex 1.79181 -6.84574 1
      vertex 1.79181 -6.84574 0
    endloop
  endfacet
  facet normal 0.277844 -0.960626 0
    outer loop
      vertex 2.01404 -6.78147 0
      vertex 2.01404 -6.78147 1
      vertex 1.79181 -6.84574 1
    endloop
  endfacet
  facet normal 1 0 0
    outer loop
      vertex 2.01404 -6.7172 0
      vertex 2.01404 -6.78147 1
      vertex 2.01404 -6.78147 0
    endloop
  endfacet
  facet normal 1 0 -0
    outer loop
      vertex 2.01404 -6.7172 0
      vertex 2.01404 -6.7172 1
      vertex 2.01404 -6.78147 1
    endloop
  endfacet
  facet normal 0.540438 0.841384 0
    outer loop
      vertex 1.85029 -6.61202 0
      vertex 2.01404 -6.7172 1
      vertex 2.01404 -6.7172 0
    endloop
  endfacet
  facet normal 0.540438 0.841384 -0
    outer loop
      vertex 1.85029 -6.61202 0
      vertex 1.85029 -6.61202 1
      vertex 2.01404 -6.7172 1
    endloop
  endfacet
  facet normal 0.638559 0.769573 0
    outer loop
      vertex -1.52982 -3.80735 0
      vertex 1.85029 -6.61202 1
      vertex 1.85029 -6.61202 0
    endloop
  endfacet
  facet normal 0.638559 0.769573 -0
    outer loop
      vertex -1.52982 -3.80735 0
      vertex -1.52982 -3.80735 1
      vertex 1.85029 -6.61202 1
    endloop
  endfacet
  facet normal 0.624839 0.780754 0
    outer loop
      vertex -2.7345 -2.84324 0
      vertex -1.52982 -3.80735 1
      vertex -1.52982 -3.80735 0
    endloop
  endfacet
  facet normal 0.624839 0.780754 -0
    outer loop
      vertex -2.7345 -2.84324 0
      vertex -2.7345 -2.84324 1
      vertex -1.52982 -3.80735 1
    endloop
  endfacet
  facet normal 0.526037 0.850462 0
    outer loop
      vertex -2.85731 -2.76728 0
      vertex -2.7345 -2.84324 1
      vertex -2.7345 -2.84324 0
    endloop
  endfacet
  facet normal 0.526037 0.850462 -0
    outer loop
      vertex -2.85731 -2.76728 0
      vertex -2.85731 -2.76728 1
      vertex -2.7345 -2.84324 1
    endloop
  endfacet
  facet normal 0.371123 0.928584 0
    outer loop
      vertex -2.94503 -2.73222 0
      vertex -2.85731 -2.76728 1
      vertex -2.85731 -2.76728 0
    endloop
  endfacet
  facet normal 0.371123 0.928584 -0
    outer loop
      vertex -2.94503 -2.73222 0
      vertex -2.94503 -2.73222 1
      vertex -2.85731 -2.76728 1
    endloop
  endfacet
  facet normal -0.371123 0.928584 0
    outer loop
      vertex -2.97427 -2.74391 0
      vertex -2.94503 -2.73222 1
      vertex -2.94503 -2.73222 0
    endloop
  endfacet
  facet normal -0.371123 0.928584 0
    outer loop
      vertex -2.97427 -2.74391 0
      vertex -2.97427 -2.74391 1
      vertex -2.94503 -2.73222 1
    endloop
  endfacet
  facet normal -0.996803 -0.0798928 0
    outer loop
      vertex -2.7462 -5.58948 0
      vertex -2.97427 -2.74391 1
      vertex -2.97427 -2.74391 0
    endloop
  endfacet
  facet normal -0.996803 -0.0798928 0
    outer loop
      vertex -2.7462 -5.58948 0
      vertex -2.7462 -5.58948 1
      vertex -2.97427 -2.74391 1
    endloop
  endfacet
  facet normal -0.992865 -0.119243 0
    outer loop
      vertex -2.67602 -6.17379 0
      vertex -2.7462 -5.58948 1
      vertex -2.7462 -5.58948 0
    endloop
  endfacet
  facet normal -0.992865 -0.119243 0
    outer loop
      vertex -2.67602 -6.17379 0
      vertex -2.67602 -6.17379 1
      vertex -2.7462 -5.58948 1
    endloop
  endfacet
  facet normal -0.984932 -0.17294 0
    outer loop
      vertex -2.61754 -6.50684 0
      vertex -2.67602 -6.17379 1
      vertex -2.67602 -6.17379 0
    endloop
  endfacet
  facet normal -0.984932 -0.17294 0
    outer loop
      vertex -2.61754 -6.50684 0
      vertex -2.61754 -6.50684 1
      vertex -2.67602 -6.17379 1
    endloop
  endfacet
  facet normal -0.943772 -0.330596 0
    outer loop
      vertex -2.57661 -6.62371 0
      vertex -2.61754 -6.50684 1
      vertex -2.61754 -6.50684 0
    endloop
  endfacet
  facet normal -0.943772 -0.330596 0
    outer loop
      vertex -2.57661 -6.62371 0
      vertex -2.57661 -6.62371 1
      vertex -2.61754 -6.50684 1
    endloop
  endfacet
  facet normal -0.521133 -0.853475 0
    outer loop
      vertex -2.47135 -6.68798 0
      vertex -2.57661 -6.62371 1
      vertex -2.57661 -6.62371 0
    endloop
  endfacet
  facet normal -0.521133 -0.853475 0
    outer loop
      vertex -2.47135 -6.68798 0
      vertex -2.47135 -6.68798 1
      vertex -2.57661 -6.62371 1
    endloop
  endfacet
  facet normal -0.295081 -0.955472 0
    outer loop
      vertex -2.14971 -6.78731 0
      vertex -2.47135 -6.68798 1
      vertex -2.47135 -6.68798 0
    endloop
  endfacet
  facet normal -0.295081 -0.955472 0
    outer loop
      vertex -2.14971 -6.78731 0
      vertex -2.14971 -6.78731 1
      vertex -2.47135 -6.68798 1
    endloop
  endfacet
  facet normal -0.206298 -0.978489 0
    outer loop
      vertex -1.51228 -6.9217 0
      vertex -2.14971 -6.78731 1
      vertex -2.14971 -6.78731 0
    endloop
  endfacet
  facet normal -0.206298 -0.978489 0
    outer loop
      vertex -1.51228 -6.9217 0
      vertex -1.51228 -6.9217 1
      vertex -2.14971 -6.78731 1
    endloop
  endfacet
  facet normal -0.125869 -0.992047 0
    outer loop
      vertex -0.775439 -7.01519 0
      vertex -1.51228 -6.9217 1
      vertex -1.51228 -6.9217 0
    endloop
  endfacet
  facet normal -0.125869 -0.992047 0
    outer loop
      vertex -0.775439 -7.01519 0
      vertex -0.775439 -7.01519 1
      vertex -1.51228 -6.9217 1
    endloop
  endfacet
  facet normal -0.0774792 -0.996994 0
    outer loop
      vertex -0.249123 -7.05609 0
      vertex -0.775439 -7.01519 1
      vertex -0.775439 -7.01519 0
    endloop
  endfacet
  facet normal -0.0774792 -0.996994 0
    outer loop
      vertex -0.249123 -7.05609 0
      vertex -0.249123 -7.05609 1
      vertex -0.775439 -7.01519 1
    endloop
  endfacet
  facet normal 0 -1 0
    outer loop
      vertex 0.0842105 -7.05609 0
      vertex -0.249123 -7.05609 1
      vertex -0.249123 -7.05609 0
    endloop
  endfacet
  facet normal 0 -1 0
    outer loop
      vertex 0.0842105 -7.05609 0
      vertex 0.0842105 -7.05609 1
      vertex -0.249123 -7.05609 1
    endloop
  endfacet
  facet normal 0.0720411 -0.997402 0
    outer loop
      vertex 0.569591 -7.02104 0
      vertex 0.0842105 -7.05609 1
      vertex 0.0842105 -7.05609 0
    endloop
  endfacet
  facet normal 0.0720411 -0.997402 0
    outer loop
      vertex 0.569591 -7.02104 0
      vertex 0.569591 -7.02104 1
      vertex 0.0842105 -7.05609 1
    endloop
  endfacet
  facet normal 0.484105 -0.87501 0
    outer loop
      vertex 3.58713 -6.06277 0
      vertex 2.87953 -6.45426 1
      vertex 2.87953 -6.45426 0
    endloop
  endfacet
  facet normal 0.484105 -0.87501 0
    outer loop
      vertex 3.58713 -6.06277 0
      vertex 3.58713 -6.06277 1
      vertex 2.87953 -6.45426 1
    endloop
  endfacet
  facet normal 0.606976 -0.79472 0
    outer loop
      vertex 4.70409 -5.20968 0
      vertex 3.58713 -6.06277 1
      vertex 3.58713 -6.06277 0
    endloop
  endfacet
  facet normal 0.606976 -0.79472 0
    outer loop
      vertex 4.70409 -5.20968 0
      vertex 4.70409 -5.20968 1
      vertex 3.58713 -6.06277 1
    endloop
  endfacet
  facet normal 0.745512 -0.666492 0
    outer loop
      vertex 5.63392 -4.16962 0
      vertex 4.70409 -5.20968 1
      vertex 4.70409 -5.20968 0
    endloop
  endfacet
  facet normal 0.745512 -0.666492 0
    outer loop
      vertex 5.63392 -4.16962 0
      vertex 5.63392 -4.16962 1
      vertex 4.70409 -5.20968 1
    endloop
  endfacet
  facet normal 0.835838 -0.548977 0
    outer loop
      vertex 6.00234 -3.60868 0
      vertex 5.63392 -4.16962 1
      vertex 5.63392 -4.16962 0
    endloop
  endfacet
  facet normal 0.835838 -0.548977 0
    outer loop
      vertex 6.00234 -3.60868 0
      vertex 6.00234 -3.60868 1
      vertex 5.63392 -4.16962 1
    endloop
  endfacet
  facet normal 0.888061 -0.459726 0
    outer loop
      vertex 6.09006 -3.43923 0
      vertex 6.00234 -3.60868 1
      vertex 6.00234 -3.60868 0
    endloop
  endfacet
  facet normal 0.888061 -0.459726 0
    outer loop
      vertex 6.09006 -3.43923 0
      vertex 6.09006 -3.43923 1
      vertex 6.00234 -3.60868 1
    endloop
  endfacet
  facet normal 0.300903 0.953655 0
    outer loop
      vertex 5.97895 -3.40417 0
      vertex 6.09006 -3.43923 1
      vertex 6.09006 -3.43923 0
    endloop
  endfacet
  facet normal 0.300903 0.953655 -0
    outer loop
      vertex 5.97895 -3.40417 0
      vertex 5.97895 -3.40417 1
      vertex 6.09006 -3.43923 1
    endloop
  endfacet
  facet normal 0 1 0
    outer loop
      vertex 5.66901 -3.40417 0
      vertex 5.97895 -3.40417 1
      vertex 5.97895 -3.40417 0
    endloop
  endfacet
  facet normal 0 1 0
    outer loop
      vertex 5.66901 -3.40417 0
      vertex 5.66901 -3.40417 1
      vertex 5.97895 -3.40417 1
    endloop
  endfacet
  facet normal -0.105577 0.994411 0
    outer loop
      vertex 1.65146 -3.83072 0
      vertex 5.66901 -3.40417 1
      vertex 5.66901 -3.40417 0
    endloop
  endfacet
  facet normal -0.105577 0.994411 0
    outer loop
      vertex 1.65146 -3.83072 0
      vertex 1.65146 -3.83072 1
      vertex 5.66901 -3.40417 1
    endloop
  endfacet
  facet normal -0.121335 0.992612 0
    outer loop
      vertex 0.552047 -3.96511 0
      vertex 1.65146 -3.83072 1
      vertex 1.65146 -3.83072 0
    endloop
  endfacet
  facet normal -0.121335 0.992612 0
    outer loop
      vertex 0.552047 -3.96511 0
      vertex 0.552047 -3.96511 1
      vertex 1.65146 -3.83072 1
    endloop
  endfacet
  facet normal -0.166723 0.986004 0
    outer loop
      vertex 0.17193 -4.02938 0
      vertex 0.552047 -3.96511 1
      vertex 0.552047 -3.96511 0
    endloop
  endfacet
  facet normal -0.166723 0.986004 0
    outer loop
      vertex 0.17193 -4.02938 0
      vertex 0.17193 -4.02938 1
      vertex 0.552047 -3.96511 1
    endloop
  endfacet
  facet normal -0.290939 0.956742 0
    outer loop
      vertex 0.0374269 -4.07028 0
      vertex 0.17193 -4.02938 1
      vertex 0.17193 -4.02938 0
    endloop
  endfacet
  facet normal -0.290939 0.956742 0
    outer loop
      vertex 0.0374269 -4.07028 0
      vertex 0.0374269 -4.07028 1
      vertex 0.17193 -4.02938 1
    endloop
  endfacet
  facet normal -0.670339 -0.742055 0
    outer loop
      vertex 0.464327 -4.45593 0
      vertex 0.0374269 -4.07028 1
      vertex 0.0374269 -4.07028 0
    endloop
  endfacet
  facet normal -0.670339 -0.742055 0
    outer loop
      vertex 0.464327 -4.45593 0
      vertex 0.464327 -4.45593 1
      vertex 0.0374269 -4.07028 1
    endloop
  endfacet
  facet normal -0.637481 -0.770466 0
    outer loop
      vertex 2.87953 -6.45426 0
      vertex 0.464327 -4.45593 1
      vertex 0.464327 -4.45593 0
    endloop
  endfacet
  facet normal -0.637481 -0.770466 0
    outer loop
      vertex 2.87953 -6.45426 0
      vertex 2.87953 -6.45426 1
      vertex 0.464327 -4.45593 1
    endloop
  endfacet
endsolid OpenSCAD_Model
