solid OpenSCAD_Model
  facet normal 0 0 -1
    outer loop
      vertex 5.38552 -4.365 0
      vertex 2.38064 -5.20731 0
      vertex 1.75285 -4.83231 0
    endloop
  endfacet
  facet normal 0 0 -1
    outer loop
      vertex -2.5198 -4.82654 0
      vertex -6.10371 -4.67654 0
      vertex -6.63399 -3.99577 0
    endloop
  endfacet
  facet normal 0 0 -1
    outer loop
      vertex 2.75854 -5.36308 0
      vertex 2.63054 -5.32846 0
      vertex 2.38064 -5.20731 0
    endloop
  endfacet
  facet normal 0 0 -1
    outer loop
      vertex 4.76382 2.03308 0
      vertex 4.83696 2.25231 0
      vertex 6.96414 1.57731 0
    endloop
  endfacet
  facet normal 0 0 -1
    outer loop
      vertex 1.41152 -5.23615 0
      vertex -2.21505 -7.37077 0
      vertex -2.23334 -5.24192 0
    endloop
  endfacet
  facet normal -0 0 -1
    outer loop
      vertex 2.3075 -5.80731 0
      vertex 1.47857 -7.37077 0
      vertex 1.41152 -5.23615 0
    endloop
  endfacet
  facet normal 0 -0 -1
    outer loop
      vertex -6.42066 6.07731 0
      vertex -5.61611 5.24077 0
      vertex -6.59742 5.97346 0
    endloop
  endfacet
  facet normal -0 0 -1
    outer loop
      vertex 2.31969 -6.79385 0
      vertex 1.47857 -7.37077 0
      vertex 2.3075 -5.80731 0
    endloop
  endfacet
  facet normal 0 0 -1
    outer loop
      vertex 3.07548 -5.39192 0
      vertex 2.75854 -5.36308 0
      vertex 2.38064 -5.20731 0
    endloop
  endfacet
  facet normal -0 0 -1
    outer loop
      vertex 5.02591 -4.79769 0
      vertex 3.07548 -5.39192 0
      vertex 5.38552 -4.365 0
    endloop
  endfacet
  facet normal 0 0 -1
    outer loop
      vertex 5.02591 -4.79769 0
      vertex 4.47735 -5.39769 0
      vertex 3.07548 -5.39192 0
    endloop
  endfacet
  facet normal 0 0 -1
    outer loop
      vertex 5.38552 -4.365 0
      vertex 3.07548 -5.39192 0
      vertex 2.38064 -5.20731 0
    endloop
  endfacet
  facet normal 0 0 -1
    outer loop
      vertex 5.86703 -3.74192 0
      vertex 5.38552 -4.365 0
      vertex 1.75285 -4.83231 0
    endloop
  endfacet
  facet normal 0 -0 -1
    outer loop
      vertex 3.69108 0.948462 0
      vertex 6.66549 -2.42654 0
      vertex 3.08767 0.688846 0
    endloop
  endfacet
  facet normal 0 0 -1
    outer loop
      vertex 7.09214 -0.0323077 0
      vertex 3.69108 0.948462 0
      vertex 4.22745 1.32923 0
    endloop
  endfacet
  facet normal 0 -0 -1
    outer loop
      vertex 4.55049 1.66962 0
      vertex 7.09214 -0.0323077 0
      vertex 4.22745 1.32923 0
    endloop
  endfacet
  facet normal 0 -0 -1
    outer loop
      vertex 4.76382 2.03308 0
      vertex 6.96414 1.57731 0
      vertex 4.55049 1.66962 0
    endloop
  endfacet
  facet normal 0 -0 -1
    outer loop
      vertex 4.86744 2.52923 0
      vertex 6.68987 2.93308 0
      vertex 4.83696 2.25231 0
    endloop
  endfacet
  facet normal 0 0 -1
    outer loop
      vertex 4.86744 2.52923 0
      vertex 6.47044 3.70615 0
      vertex 6.68987 2.93308 0
    endloop
  endfacet
  facet normal 0 0 -1
    outer loop
      vertex 4.86744 2.52923 0
      vertex 4.87353 3.70615 0
      vertex 6.47044 3.70615 0
    endloop
  endfacet
  facet normal -0 0 -1
    outer loop
      vertex 6.94586 -1.46308 0
      vertex 6.66549 -2.42654 0
      vertex 3.69108 0.948462 0
    endloop
  endfacet
  facet normal -0 0 -1
    outer loop
      vertex 6.66549 -2.42654 0
      vertex 6.47044 -2.84192 0
      vertex 3.08767 0.688846 0
    endloop
  endfacet
  facet normal -0 0 -1
    outer loop
      vertex 5.86703 -3.74192 0
      vertex 1.75285 -4.83231 0
      vertex 2.64273 0.590769 0
    endloop
  endfacet
  facet normal -0 -0 -1
    outer loop
      vertex 0.314409 7.60615 0
      vertex 0.74716 4.76769 0
      vertex -0.898513 7.62923 0
    endloop
  endfacet
  facet normal 0 0 -1
    outer loop
      vertex 4.83696 2.25231 0
      vertex 6.68987 2.93308 0
      vertex 6.96414 1.57731 0
    endloop
  endfacet
  facet normal 0 0 -1
    outer loop
      vertex 2.64273 0.590769 0
      vertex 3.08767 0.688846 0
      vertex 5.86703 -3.74192 0
    endloop
  endfacet
  facet normal -0 -0 -1
    outer loop
      vertex 6.96414 1.57731 0
      vertex 7.09214 -0.0323077 0
      vertex 4.55049 1.66962 0
    endloop
  endfacet
  facet normal 0 0 -1
    outer loop
      vertex 6.94586 -1.46308 0
      vertex 3.69108 0.948462 0
      vertex 7.09214 -0.0323077 0
    endloop
  endfacet
  facet normal 0 0 -1
    outer loop
      vertex 3.08767 0.688846 0
      vertex 6.47044 -2.84192 0
      vertex 6.26931 -3.17077 0
    endloop
  endfacet
  facet normal 0 0 -1
    outer loop
      vertex 5.86703 -3.74192 0
      vertex 3.08767 0.688846 0
      vertex 6.26931 -3.17077 0
    endloop
  endfacet
  facet normal 0 -0 -1
    outer loop
      vertex 2.37455 0.590769 0
      vertex 2.64273 0.590769 0
      vertex 1.75285 -4.83231 0
    endloop
  endfacet
  facet normal 0 -0 -1
    outer loop
      vertex 2.02103 0.636923 0
      vertex 2.37455 0.590769 0
      vertex 1.75285 -4.83231 0
    endloop
  endfacet
  facet normal 0 0 -1
    outer loop
      vertex 1.58219 0.763846 0
      vertex 2.02103 0.636923 0
      vertex 1.75285 -4.83231 0
    endloop
  endfacet
  facet normal 0 0 -1
    outer loop
      vertex 1.17991 0.965769 0
      vertex 1.58219 0.763846 0
      vertex 1.75285 -4.83231 0
    endloop
  endfacet
  facet normal 0 -0 -1
    outer loop
      vertex 1.17991 0.965769 0
      vertex 1.75285 -4.83231 0
      vertex -2.5198 -4.82654 0
    endloop
  endfacet
  facet normal 0 -0 -1
    outer loop
      vertex -4.83594 6.71192 0
      vertex -4.73842 5.33885 0
      vertex -5.95743 6.285 0
    endloop
  endfacet
  facet normal 0 0 -1
    outer loop
      vertex 0.820301 1.23692 0
      vertex -1.48364 1.40423 0
      vertex 0.515547 1.57154 0
    endloop
  endfacet
  facet normal 0 0 -1
    outer loop
      vertex -1.17889 1.785 0
      vertex -0.965559 2.17154 0
      vertex 0.277838 1.95808 0
    endloop
  endfacet
  facet normal 0 0 -1
    outer loop
      vertex -0.886323 2.39654 0
      vertex 0.0218448 2.74269 0
      vertex 0.101081 2.39077 0
    endloop
  endfacet
  facet normal 0 0 -1
    outer loop
      vertex -0.843657 2.95615 0
      vertex -0.00253555 2.96769 0
      vertex 0.0218448 2.74269 0
    endloop
  endfacet
  facet normal 0 0 -1
    outer loop
      vertex 0.0645104 3.68308 0
      vertex -0.00253555 3.29077 0
      vertex -0.855847 3.42923 0
    endloop
  endfacet
  facet normal 0 -0 -1
    outer loop
      vertex -3.7693 7.07538 0
      vertex -3.05617 5.41385 0
      vertex -3.78758 5.40808 0
    endloop
  endfacet
  facet normal 0 -0 -1
    outer loop
      vertex -2.80627 7.35231 0
      vertex -2.69047 5.37923 0
      vertex -3.05617 5.41385 0
    endloop
  endfacet
  facet normal 0 0 -1
    outer loop
      vertex -2.25162 7.49077 0
      vertex -2.45885 5.32154 0
      vertex -2.80627 7.35231 0
    endloop
  endfacet
  facet normal 0 0 -1
    outer loop
      vertex -2.14191 5.17731 0
      vertex -1.7762 7.56577 0
      vertex -0.898513 7.62923 0
    endloop
  endfacet
  facet normal -0 0 -1
    outer loop
      vertex 1.38714 5.20615 0
      vertex 1.04582 5.02154 0
      vertex 0.314409 7.60615 0
    endloop
  endfacet
  facet normal -0 0 -1
    outer loop
      vertex 1.52124 7.44462 0
      vertex 1.38714 5.20615 0
      vertex 0.314409 7.60615 0
    endloop
  endfacet
  facet normal -0 0 -1
    outer loop
      vertex 2.39283 7.24269 0
      vertex 1.78942 5.32731 0
      vertex 1.52124 7.44462 0
    endloop
  endfacet
  facet normal 0 0 -1
    outer loop
      vertex 2.39283 7.24269 0
      vertex 2.27093 5.39077 0
      vertex 1.78942 5.32731 0
    endloop
  endfacet
  facet normal 0 0 -1
    outer loop
      vertex 3.53871 5.36192 0
      vertex 2.84996 5.40231 0
      vertex 3.67889 6.82731 0
    endloop
  endfacet
  facet normal 0 0 -1
    outer loop
      vertex 5.42209 5.15423 0
      vertex 6.13521 5.95038 0
      vertex 6.20226 5.78308 0
    endloop
  endfacet
  facet normal 0 0 -1
    outer loop
      vertex 6.20226 5.78308 0
      vertex 6.13521 5.95038 0
      vertex 6.15959 5.92731 0
    endloop
  endfacet
  facet normal 0 0 -1
    outer loop
      vertex 6.31807 5.10231 0
      vertex 5.97674 5.10231 0
      vertex 6.25102 5.54654 0
    endloop
  endfacet
  facet normal 0 0 -1
    outer loop
      vertex 6.25102 5.54654 0
      vertex 5.97674 5.10231 0
      vertex 5.42209 5.15423 0
    endloop
  endfacet
  facet normal 0 -0 -1
    outer loop
      vertex 6.20226 5.78308 0
      vertex 6.25102 5.54654 0
      vertex 5.42209 5.15423 0
    endloop
  endfacet
  facet normal 0 0 -1
    outer loop
      vertex 5.42209 5.15423 0
      vertex 3.67889 6.82731 0
      vertex 6.13521 5.95038 0
    endloop
  endfacet
  facet normal 0 0 -1
    outer loop
      vertex 5.42209 5.15423 0
      vertex 3.53871 5.36192 0
      vertex 3.67889 6.82731 0
    endloop
  endfacet
  facet normal -0 0 -1
    outer loop
      vertex 3.67889 6.82731 0
      vertex 2.84996 5.40231 0
      vertex 2.39283 7.24269 0
    endloop
  endfacet
  facet normal 0 -0 -1
    outer loop
      vertex 2.39283 7.24269 0
      vertex 2.84996 5.40231 0
      vertex 2.27093 5.39077 0
    endloop
  endfacet
  facet normal 0 -0 -1
    outer loop
      vertex 1.52124 7.44462 0
      vertex 1.78942 5.32731 0
      vertex 1.38714 5.20615 0
    endloop
  endfacet
  facet normal 0 0 -1
    outer loop
      vertex 0.314409 7.60615 0
      vertex 1.04582 5.02154 0
      vertex 0.74716 4.76769 0
    endloop
  endfacet
  facet normal 0 0 -1
    outer loop
      vertex -3.7693 7.07538 0
      vertex -2.80627 7.35231 0
      vertex -3.05617 5.41385 0
    endloop
  endfacet
  facet normal 0 0 -1
    outer loop
      vertex -4.83594 6.71192 0
      vertex -3.7693 7.07538 0
      vertex -3.78758 5.40808 0
    endloop
  endfacet
  facet normal 0 0 -1
    outer loop
      vertex -4.83594 6.71192 0
      vertex -3.78758 5.40808 0
      vertex -4.73842 5.33885 0
    endloop
  endfacet
  facet normal 0 0 -1
    outer loop
      vertex -6.42066 6.07731 0
      vertex -5.95743 6.285 0
      vertex -5.61611 5.24077 0
    endloop
  endfacet
  facet normal 0 0 -1
    outer loop
      vertex -6.59742 5.97346 0
      vertex -6.83512 5.76 0
      vertex -6.7376 5.87538 0
    endloop
  endfacet
  facet normal 0 0 -1
    outer loop
      vertex -5.61611 5.24077 0
      vertex -6.90826 5.63308 0
      vertex -6.83512 5.76 0
    endloop
  endfacet
  facet normal 0 0 -1
    outer loop
      vertex -5.61611 5.24077 0
      vertex -6.99969 5.33885 0
      vertex -6.90826 5.63308 0
    endloop
  endfacet
  facet normal 0 -0 -1
    outer loop
      vertex -6.59742 5.97346 0
      vertex -5.61611 5.24077 0
      vertex -6.83512 5.76 0
    endloop
  endfacet
  facet normal 0 -0 -1
    outer loop
      vertex -6.99969 5.33885 0
      vertex -5.61611 5.24077 0
      vertex -7.06064 5.04462 0
    endloop
  endfacet
  facet normal 0 0 -1
    outer loop
      vertex -5.95743 6.285 0
      vertex -4.73842 5.33885 0
      vertex -5.61611 5.24077 0
    endloop
  endfacet
  facet normal 0 0 -1
    outer loop
      vertex 0.216887 4.05231 0
      vertex 0.0645104 3.68308 0
      vertex -0.959464 3.93115 0
    endloop
  endfacet
  facet normal 0 0 -1
    outer loop
      vertex -0.886323 3.70038 0
      vertex 0.0645104 3.68308 0
      vertex -0.855847 3.42923 0
    endloop
  endfacet
  facet normal 0 0 -1
    outer loop
      vertex -0.886323 2.39654 0
      vertex -0.855847 2.66769 0
      vertex 0.0218448 2.74269 0
    endloop
  endfacet
  facet normal 0 0 -1
    outer loop
      vertex 0.216887 4.05231 0
      vertex -1.14232 4.27731 0
      vertex 0.533832 4.53115 0
    endloop
  endfacet
  facet normal 0 0 -1
    outer loop
      vertex 0.533832 4.53115 0
      vertex -1.35564 4.55423 0
      vertex 0.74716 4.76769 0
    endloop
  endfacet
  facet normal 0 0 -1
    outer loop
      vertex 0.74716 4.76769 0
      vertex -1.72744 4.90038 0
      vertex -0.898513 7.62923 0
    endloop
  endfacet
  facet normal 0 0 -1
    outer loop
      vertex -2.80627 7.35231 0
      vertex -2.45885 5.32154 0
      vertex -2.69047 5.37923 0
    endloop
  endfacet
  facet normal 0 -0 -1
    outer loop
      vertex -2.25162 7.49077 0
      vertex -1.7762 7.56577 0
      vertex -2.45885 5.32154 0
    endloop
  endfacet
  facet normal 0 0 -1
    outer loop
      vertex -2.14191 5.17731 0
      vertex -0.898513 7.62923 0
      vertex -1.72744 4.90038 0
    endloop
  endfacet
  facet normal 0 0 -1
    outer loop
      vertex -2.45885 5.32154 0
      vertex -1.7762 7.56577 0
      vertex -2.14191 5.17731 0
    endloop
  endfacet
  facet normal -0 0 -1
    outer loop
      vertex 0.74716 4.76769 0
      vertex -1.35564 4.55423 0
      vertex -1.72744 4.90038 0
    endloop
  endfacet
  facet normal -0 0 -1
    outer loop
      vertex 0.533832 4.53115 0
      vertex -1.14232 4.27731 0
      vertex -1.35564 4.55423 0
    endloop
  endfacet
  facet normal -0 0 -1
    outer loop
      vertex 0.216887 4.05231 0
      vertex -0.959464 3.93115 0
      vertex -1.14232 4.27731 0
    endloop
  endfacet
  facet normal 0 0 -1
    outer loop
      vertex -0.959464 3.93115 0
      vertex 0.0645104 3.68308 0
      vertex -0.886323 3.70038 0
    endloop
  endfacet
  facet normal 0 0 -1
    outer loop
      vertex -0.843657 2.95615 0
      vertex -0.855847 3.42923 0
      vertex -0.00253555 3.29077 0
    endloop
  endfacet
  facet normal -0 0 -1
    outer loop
      vertex -0.00253555 2.96769 0
      vertex -0.843657 2.95615 0
      vertex -0.00253555 3.29077 0
    endloop
  endfacet
  facet normal -0 0 -1
    outer loop
      vertex 0.0218448 2.74269 0
      vertex -0.855847 2.66769 0
      vertex -0.843657 2.95615 0
    endloop
  endfacet
  facet normal 0 0 -1
    outer loop
      vertex -0.965559 2.17154 0
      vertex -0.886323 2.39654 0
      vertex 0.101081 2.39077 0
    endloop
  endfacet
  facet normal 0 0 -1
    outer loop
      vertex 0.277838 1.95808 0
      vertex -0.965559 2.17154 0
      vertex 0.101081 2.39077 0
    endloop
  endfacet
  facet normal 0 0 -1
    outer loop
      vertex 0.515547 1.57154 0
      vertex -1.17889 1.785 0
      vertex 0.277838 1.95808 0
    endloop
  endfacet
  facet normal -0 0 -1
    outer loop
      vertex 0.515547 1.57154 0
      vertex -1.48364 1.40423 0
      vertex -1.17889 1.785 0
    endloop
  endfacet
  facet normal 0 -0 -1
    outer loop
      vertex 0.820301 1.23692 0
      vertex 1.17991 0.965769 0
      vertex -1.94077 1.01769 0
    endloop
  endfacet
  facet normal -0 0 -1
    outer loop
      vertex 0.820301 1.23692 0
      vertex -1.94077 1.01769 0
      vertex -1.48364 1.40423 0
    endloop
  endfacet
  facet normal -0 0 -1
    outer loop
      vertex 1.17991 0.965769 0
      vertex -2.5198 -4.82654 0
      vertex -1.94077 1.01769 0
    endloop
  endfacet
  facet normal 0 0 -1
    outer loop
      vertex -1.94077 1.01769 0
      vertex -2.5198 -4.82654 0
      vertex -2.45276 0.758077 0
    endloop
  endfacet
  facet normal 0 0 -1
    outer loop
      vertex -2.45276 0.758077 0
      vertex -2.5198 -4.82654 0
      vertex -3.00132 0.631154 0
    endloop
  endfacet
  facet normal -0 -0 -1
    outer loop
      vertex -3.00132 0.631154 0
      vertex -2.5198 -4.82654 0
      vertex -3.56206 0.631154 0
    endloop
  endfacet
  facet normal 0 0 -1
    outer loop
      vertex -7.18254 -3.10154 0
      vertex -7.57263 -2.16692 0
      vertex -4.11672 0.769615 0
    endloop
  endfacet
  facet normal 0 0 -1
    outer loop
      vertex -4.11672 0.769615 0
      vertex -7.57263 -2.16692 0
      vertex -7.77986 -1.41692 0
    endloop
  endfacet
  facet normal 0 0 -1
    outer loop
      vertex -4.64089 1.04654 0
      vertex -7.87129 -0.932308 0
      vertex -7.90176 -0.216923 0
    endloop
  endfacet
  facet normal 0 0 -1
    outer loop
      vertex -5.01879 1.34654 0
      vertex -7.90176 -0.216923 0
      vertex -7.84691 0.983077 0
    endloop
  endfacet
  facet normal -0 0 -1
    outer loop
      vertex -5.23821 1.58308 0
      vertex -7.84691 0.983077 0
      vertex -5.61611 2.25231 0
    endloop
  endfacet
  facet normal 0 0 -1
    outer loop
      vertex -5.73801 3.01385 0
      vertex -7.51777 3.07154 0
      vertex -7.31054 3.75231 0
    endloop
  endfacet
  facet normal 0 0 -1
    outer loop
      vertex -5.61611 2.25231 0
      vertex -7.51777 3.07154 0
      vertex -5.73801 3.01385 0
    endloop
  endfacet
  facet normal 0 0 -1
    outer loop
      vertex -5.73801 3.01385 0
      vertex -7.31054 3.75231 0
      vertex -5.68925 3.70038 0
    endloop
  endfacet
  facet normal 0 -0 -1
    outer loop
      vertex -7.51777 3.07154 0
      vertex -5.61611 2.25231 0
      vertex -7.68844 2.235 0
    endloop
  endfacet
  facet normal 0 -0 -1
    outer loop
      vertex -7.68844 2.235 0
      vertex -5.61611 2.25231 0
      vertex -7.84691 0.983077 0
    endloop
  endfacet
  facet normal 0 0 -1
    outer loop
      vertex -7.84691 0.983077 0
      vertex -5.23821 1.58308 0
      vertex -5.01879 1.34654 0
    endloop
  endfacet
  facet normal 0 0 -1
    outer loop
      vertex -7.90176 -0.216923 0
      vertex -5.01879 1.34654 0
      vertex -4.64089 1.04654 0
    endloop
  endfacet
  facet normal 0 0 -1
    outer loop
      vertex -7.87129 -0.932308 0
      vertex -4.64089 1.04654 0
      vertex -7.77986 -1.41692 0
    endloop
  endfacet
  facet normal 0 0 -1
    outer loop
      vertex -7.77986 -1.41692 0
      vertex -4.64089 1.04654 0
      vertex -4.11672 0.769615 0
    endloop
  endfacet
  facet normal 0 -0 -1
    outer loop
      vertex -4.11672 0.769615 0
      vertex -3.56206 0.631154 0
      vertex -7.18254 -3.10154 0
    endloop
  endfacet
  facet normal 0 0 -1
    outer loop
      vertex -7.18254 -3.10154 0
      vertex -3.56206 0.631154 0
      vertex -6.63399 -3.99577 0
    endloop
  endfacet
  facet normal 0 0 -1
    outer loop
      vertex -6.63399 -3.99577 0
      vertex -3.56206 0.631154 0
      vertex -2.5198 -4.82654 0
    endloop
  endfacet
  facet normal 0 0 -1
    outer loop
      vertex -6.10371 -4.67654 0
      vertex -2.5198 -4.82654 0
      vertex -3.3914 -5.47846 0
    endloop
  endfacet
  facet normal 0 0 -1
    outer loop
      vertex -5.3784 -5.47846 0
      vertex -6.10371 -4.67654 0
      vertex -3.3914 -5.47846 0
    endloop
  endfacet
  facet normal 0 0 -1
    outer loop
      vertex 7.08605 -6.79385 0
      vertex 2.31969 -6.79385 0
      vertex 7.08605 -5.80731 0
    endloop
  endfacet
  facet normal 0 0 -1
    outer loop
      vertex 2.31969 -6.79385 0
      vertex 2.3075 -5.80731 0
      vertex 7.08605 -5.80731 0
    endloop
  endfacet
  facet normal 0 0 -1
    outer loop
      vertex -3.05617 -6.79385 0
      vertex -3.06227 -5.82462 0
      vertex -2.23334 -5.24192 0
    endloop
  endfacet
  facet normal 0 0 -1
    outer loop
      vertex -7.90786 -5.91692 0
      vertex -3.05617 -6.79385 0
      vertex -7.90786 -6.79385 0
    endloop
  endfacet
  facet normal 0 0 -1
    outer loop
      vertex -7.90786 -5.91692 0
      vertex -3.06227 -5.82462 0
      vertex -3.05617 -6.79385 0
    endloop
  endfacet
  facet normal 0 0 -1
    outer loop
      vertex -3.05617 -6.79385 0
      vertex -2.23334 -5.24192 0
      vertex -2.21505 -7.37077 0
    endloop
  endfacet
  facet normal 0 0 -1
    outer loop
      vertex -2.21505 -7.37077 0
      vertex 1.41152 -5.23615 0
      vertex 1.47857 -7.37077 0
    endloop
  endfacet
  facet normal -0 0 1
    outer loop
      vertex 1.75285 -4.83231 1
      vertex 2.38064 -5.20731 1
      vertex 5.38552 -4.365 1
    endloop
  endfacet
  facet normal 0 0 1
    outer loop
      vertex -6.63399 -3.99577 1
      vertex -6.10371 -4.67654 1
      vertex -2.5198 -4.82654 1
    endloop
  endfacet
  facet normal 0 0 1
    outer loop
      vertex 2.38064 -5.20731 1
      vertex 2.63054 -5.32846 1
      vertex 2.75854 -5.36308 1
    endloop
  endfacet
  facet normal 0 0 1
    outer loop
      vertex 6.96414 1.57731 1
      vertex 4.83696 2.25231 1
      vertex 4.76382 2.03308 1
    endloop
  endfacet
  facet normal -0 0 1
    outer loop
      vertex -2.23334 -5.24192 1
      vertex -2.21505 -7.37077 1
      vertex 1.41152 -5.23615 1
    endloop
  endfacet
  facet normal 0 0 1
    outer loop
      vertex 1.41152 -5.23615 1
      vertex 1.47857 -7.37077 1
      vertex 2.3075 -5.80731 1
    endloop
  endfacet
  facet normal -0 0 1
    outer loop
      vertex -6.59742 5.97346 1
      vertex -5.61611 5.24077 1
      vertex -6.42066 6.07731 1
    endloop
  endfacet
  facet normal 0 0 1
    outer loop
      vertex 2.3075 -5.80731 1
      vertex 1.47857 -7.37077 1
      vertex 2.31969 -6.79385 1
    endloop
  endfacet
  facet normal 0 0 1
    outer loop
      vertex 2.38064 -5.20731 1
      vertex 2.75854 -5.36308 1
      vertex 3.07548 -5.39192 1
    endloop
  endfacet
  facet normal 0 0 1
    outer loop
      vertex 5.38552 -4.365 1
      vertex 3.07548 -5.39192 1
      vertex 5.02591 -4.79769 1
    endloop
  endfacet
  facet normal -0 0 1
    outer loop
      vertex 3.07548 -5.39192 1
      vertex 4.47735 -5.39769 1
      vertex 5.02591 -4.79769 1
    endloop
  endfacet
  facet normal -0 0 1
    outer loop
      vertex 2.38064 -5.20731 1
      vertex 3.07548 -5.39192 1
      vertex 5.38552 -4.365 1
    endloop
  endfacet
  facet normal 0 0 1
    outer loop
      vertex 1.75285 -4.83231 1
      vertex 5.38552 -4.365 1
      vertex 5.86703 -3.74192 1
    endloop
  endfacet
  facet normal -0 0 1
    outer loop
      vertex 3.08767 0.688846 1
      vertex 6.66549 -2.42654 1
      vertex 3.69108 0.948462 1
    endloop
  endfacet
  facet normal 0 0 1
    outer loop
      vertex 4.22745 1.32923 1
      vertex 3.69108 0.948462 1
      vertex 7.09214 -0.0323077 1
    endloop
  endfacet
  facet normal -0 0 1
    outer loop
      vertex 4.22745 1.32923 1
      vertex 7.09214 -0.0323077 1
      vertex 4.55049 1.66962 1
    endloop
  endfacet
  facet normal -0 0 1
    outer loop
      vertex 4.55049 1.66962 1
      vertex 6.96414 1.57731 1
      vertex 4.76382 2.03308 1
    endloop
  endfacet
  facet normal 0 0 1
    outer loop
      vertex 4.83696 2.25231 1
      vertex 6.68987 2.93308 1
      vertex 4.86744 2.52923 1
    endloop
  endfacet
  facet normal 0 0 1
    outer loop
      vertex 6.68987 2.93308 1
      vertex 6.47044 3.70615 1
      vertex 4.86744 2.52923 1
    endloop
  endfacet
  facet normal 0 0 1
    outer loop
      vertex 6.47044 3.70615 1
      vertex 4.87353 3.70615 1
      vertex 4.86744 2.52923 1
    endloop
  endfacet
  facet normal 0 0 1
    outer loop
      vertex 3.69108 0.948462 1
      vertex 6.66549 -2.42654 1
      vertex 6.94586 -1.46308 1
    endloop
  endfacet
  facet normal 0 0 1
    outer loop
      vertex 3.08767 0.688846 1
      vertex 6.47044 -2.84192 1
      vertex 6.66549 -2.42654 1
    endloop
  endfacet
  facet normal 0 0 1
    outer loop
      vertex 2.64273 0.590769 1
      vertex 1.75285 -4.83231 1
      vertex 5.86703 -3.74192 1
    endloop
  endfacet
  facet normal 0 0 1
    outer loop
      vertex -0.898513 7.62923 1
      vertex 0.74716 4.76769 1
      vertex 0.314409 7.60615 1
    endloop
  endfacet
  facet normal 0 0 1
    outer loop
      vertex 6.96414 1.57731 1
      vertex 6.68987 2.93308 1
      vertex 4.83696 2.25231 1
    endloop
  endfacet
  facet normal 0 0 1
    outer loop
      vertex 5.86703 -3.74192 1
      vertex 3.08767 0.688846 1
      vertex 2.64273 0.590769 1
    endloop
  endfacet
  facet normal 0 0 1
    outer loop
      vertex 4.55049 1.66962 1
      vertex 7.09214 -0.0323077 1
      vertex 6.96414 1.57731 1
    endloop
  endfacet
  facet normal 0 0 1
    outer loop
      vertex 7.09214 -0.0323077 1
      vertex 3.69108 0.948462 1
      vertex 6.94586 -1.46308 1
    endloop
  endfacet
  facet normal 0 -0 1
    outer loop
      vertex 6.26931 -3.17077 1
      vertex 6.47044 -2.84192 1
      vertex 3.08767 0.688846 1
    endloop
  endfacet
  facet normal 0 0 1
    outer loop
      vertex 6.26931 -3.17077 1
      vertex 3.08767 0.688846 1
      vertex 5.86703 -3.74192 1
    endloop
  endfacet
  facet normal 0 0 1
    outer loop
      vertex 1.75285 -4.83231 1
      vertex 2.64273 0.590769 1
      vertex 2.37455 0.590769 1
    endloop
  endfacet
  facet normal 0 0 1
    outer loop
      vertex 1.75285 -4.83231 1
      vertex 2.37455 0.590769 1
      vertex 2.02103 0.636923 1
    endloop
  endfacet
  facet normal 0 -0 1
    outer loop
      vertex 1.75285 -4.83231 1
      vertex 2.02103 0.636923 1
      vertex 1.58219 0.763846 1
    endloop
  endfacet
  facet normal 0 0 1
    outer loop
      vertex 1.75285 -4.83231 1
      vertex 1.58219 0.763846 1
      vertex 1.17991 0.965769 1
    endloop
  endfacet
  facet normal -0 0 1
    outer loop
      vertex -2.5198 -4.82654 1
      vertex 1.75285 -4.83231 1
      vertex 1.17991 0.965769 1
    endloop
  endfacet
  facet normal -0 0 1
    outer loop
      vertex -5.95743 6.285 1
      vertex -4.73842 5.33885 1
      vertex -4.83594 6.71192 1
    endloop
  endfacet
  facet normal 0 0 1
    outer loop
      vertex 0.515547 1.57154 1
      vertex -1.48364 1.40423 1
      vertex 0.820301 1.23692 1
    endloop
  endfacet
  facet normal 0 0 1
    outer loop
      vertex 0.277838 1.95808 1
      vertex -0.965559 2.17154 1
      vertex -1.17889 1.785 1
    endloop
  endfacet
  facet normal 0 0 1
    outer loop
      vertex 0.101081 2.39077 1
      vertex 0.0218448 2.74269 1
      vertex -0.886323 2.39654 1
    endloop
  endfacet
  facet normal 0 0 1
    outer loop
      vertex 0.0218448 2.74269 1
      vertex -0.00253555 2.96769 1
      vertex -0.843657 2.95615 1
    endloop
  endfacet
  facet normal -0 0 1
    outer loop
      vertex -0.855847 3.42923 1
      vertex -0.00253555 3.29077 1
      vertex 0.0645104 3.68308 1
    endloop
  endfacet
  facet normal 0 0 1
    outer loop
      vertex -3.78758 5.40808 1
      vertex -3.05617 5.41385 1
      vertex -3.7693 7.07538 1
    endloop
  endfacet
  facet normal -0 0 1
    outer loop
      vertex -3.05617 5.41385 1
      vertex -2.69047 5.37923 1
      vertex -2.80627 7.35231 1
    endloop
  endfacet
  facet normal -0 0 1
    outer loop
      vertex -2.80627 7.35231 1
      vertex -2.45885 5.32154 1
      vertex -2.25162 7.49077 1
    endloop
  endfacet
  facet normal 0 0 1
    outer loop
      vertex -0.898513 7.62923 1
      vertex -1.7762 7.56577 1
      vertex -2.14191 5.17731 1
    endloop
  endfacet
  facet normal 0 0 1
    outer loop
      vertex 0.314409 7.60615 1
      vertex 1.04582 5.02154 1
      vertex 1.38714 5.20615 1
    endloop
  endfacet
  facet normal 0 0 1
    outer loop
      vertex 0.314409 7.60615 1
      vertex 1.38714 5.20615 1
      vertex 1.52124 7.44462 1
    endloop
  endfacet
  facet normal 0 0 1
    outer loop
      vertex 1.52124 7.44462 1
      vertex 1.78942 5.32731 1
      vertex 2.39283 7.24269 1
    endloop
  endfacet
  facet normal 0 0 1
    outer loop
      vertex 1.78942 5.32731 1
      vertex 2.27093 5.39077 1
      vertex 2.39283 7.24269 1
    endloop
  endfacet
  facet normal 0 0 1
    outer loop
      vertex 3.67889 6.82731 1
      vertex 2.84996 5.40231 1
      vertex 3.53871 5.36192 1
    endloop
  endfacet
  facet normal 0 0 1
    outer loop
      vertex 6.20226 5.78308 1
      vertex 6.13521 5.95038 1
      vertex 5.42209 5.15423 1
    endloop
  endfacet
  facet normal 0 0 1
    outer loop
      vertex 6.15959 5.92731 1
      vertex 6.13521 5.95038 1
      vertex 6.20226 5.78308 1
    endloop
  endfacet
  facet normal 0 0 1
    outer loop
      vertex 6.25102 5.54654 1
      vertex 5.97674 5.10231 1
      vertex 6.31807 5.10231 1
    endloop
  endfacet
  facet normal -0 0 1
    outer loop
      vertex 5.42209 5.15423 1
      vertex 5.97674 5.10231 1
      vertex 6.25102 5.54654 1
    endloop
  endfacet
  facet normal 0 0 1
    outer loop
      vertex 5.42209 5.15423 1
      vertex 6.25102 5.54654 1
      vertex 6.20226 5.78308 1
    endloop
  endfacet
  facet normal 0 0 1
    outer loop
      vertex 6.13521 5.95038 1
      vertex 3.67889 6.82731 1
      vertex 5.42209 5.15423 1
    endloop
  endfacet
  facet normal 0 0 1
    outer loop
      vertex 3.67889 6.82731 1
      vertex 3.53871 5.36192 1
      vertex 5.42209 5.15423 1
    endloop
  endfacet
  facet normal 0 0 1
    outer loop
      vertex 2.39283 7.24269 1
      vertex 2.84996 5.40231 1
      vertex 3.67889 6.82731 1
    endloop
  endfacet
  facet normal 0 0 1
    outer loop
      vertex 2.27093 5.39077 1
      vertex 2.84996 5.40231 1
      vertex 2.39283 7.24269 1
    endloop
  endfacet
  facet normal 0 0 1
    outer loop
      vertex 1.38714 5.20615 1
      vertex 1.78942 5.32731 1
      vertex 1.52124 7.44462 1
    endloop
  endfacet
  facet normal 0 -0 1
    outer loop
      vertex 0.74716 4.76769 1
      vertex 1.04582 5.02154 1
      vertex 0.314409 7.60615 1
    endloop
  endfacet
  facet normal 0 -0 1
    outer loop
      vertex -3.05617 5.41385 1
      vertex -2.80627 7.35231 1
      vertex -3.7693 7.07538 1
    endloop
  endfacet
  facet normal 0 -0 1
    outer loop
      vertex -3.78758 5.40808 1
      vertex -3.7693 7.07538 1
      vertex -4.83594 6.71192 1
    endloop
  endfacet
  facet normal 0 -0 1
    outer loop
      vertex -4.73842 5.33885 1
      vertex -3.78758 5.40808 1
      vertex -4.83594 6.71192 1
    endloop
  endfacet
  facet normal 0 0 1
    outer loop
      vertex -5.61611 5.24077 1
      vertex -5.95743 6.285 1
      vertex -6.42066 6.07731 1
    endloop
  endfacet
  facet normal -0 0 1
    outer loop
      vertex -6.7376 5.87538 1
      vertex -6.83512 5.76 1
      vertex -6.59742 5.97346 1
    endloop
  endfacet
  facet normal 0 0 1
    outer loop
      vertex -6.83512 5.76 1
      vertex -6.90826 5.63308 1
      vertex -5.61611 5.24077 1
    endloop
  endfacet
  facet normal 0 0 1
    outer loop
      vertex -6.90826 5.63308 1
      vertex -6.99969 5.33885 1
      vertex -5.61611 5.24077 1
    endloop
  endfacet
  facet normal -0 0 1
    outer loop
      vertex -6.83512 5.76 1
      vertex -5.61611 5.24077 1
      vertex -6.59742 5.97346 1
    endloop
  endfacet
  facet normal 0 0 1
    outer loop
      vertex -7.06064 5.04462 1
      vertex -5.61611 5.24077 1
      vertex -6.99969 5.33885 1
    endloop
  endfacet
  facet normal 0 -0 1
    outer loop
      vertex -5.61611 5.24077 1
      vertex -4.73842 5.33885 1
      vertex -5.95743 6.285 1
    endloop
  endfacet
  facet normal -0 0 1
    outer loop
      vertex -0.959464 3.93115 1
      vertex 0.0645104 3.68308 1
      vertex 0.216887 4.05231 1
    endloop
  endfacet
  facet normal 0 -0 1
    outer loop
      vertex -0.855847 3.42923 1
      vertex 0.0645104 3.68308 1
      vertex -0.886323 3.70038 1
    endloop
  endfacet
  facet normal 0 0 1
    outer loop
      vertex 0.0218448 2.74269 1
      vertex -0.855847 2.66769 1
      vertex -0.886323 2.39654 1
    endloop
  endfacet
  facet normal 0 0 1
    outer loop
      vertex 0.533832 4.53115 1
      vertex -1.14232 4.27731 1
      vertex 0.216887 4.05231 1
    endloop
  endfacet
  facet normal 0 0 1
    outer loop
      vertex 0.74716 4.76769 1
      vertex -1.35564 4.55423 1
      vertex 0.533832 4.53115 1
    endloop
  endfacet
  facet normal 0 0 1
    outer loop
      vertex -0.898513 7.62923 1
      vertex -1.72744 4.90038 1
      vertex 0.74716 4.76769 1
    endloop
  endfacet
  facet normal -0 -0 1
    outer loop
      vertex -2.69047 5.37923 1
      vertex -2.45885 5.32154 1
      vertex -2.80627 7.35231 1
    endloop
  endfacet
  facet normal 0 0 1
    outer loop
      vertex -2.45885 5.32154 1
      vertex -1.7762 7.56577 1
      vertex -2.25162 7.49077 1
    endloop
  endfacet
  facet normal 0 -0 1
    outer loop
      vertex -1.72744 4.90038 1
      vertex -0.898513 7.62923 1
      vertex -2.14191 5.17731 1
    endloop
  endfacet
  facet normal 0 -0 1
    outer loop
      vertex -2.14191 5.17731 1
      vertex -1.7762 7.56577 1
      vertex -2.45885 5.32154 1
    endloop
  endfacet
  facet normal 0 0 1
    outer loop
      vertex -1.72744 4.90038 1
      vertex -1.35564 4.55423 1
      vertex 0.74716 4.76769 1
    endloop
  endfacet
  facet normal 0 0 1
    outer loop
      vertex -1.35564 4.55423 1
      vertex -1.14232 4.27731 1
      vertex 0.533832 4.53115 1
    endloop
  endfacet
  facet normal 0 0 1
    outer loop
      vertex -1.14232 4.27731 1
      vertex -0.959464 3.93115 1
      vertex 0.216887 4.05231 1
    endloop
  endfacet
  facet normal -0 -0 1
    outer loop
      vertex -0.886323 3.70038 1
      vertex 0.0645104 3.68308 1
      vertex -0.959464 3.93115 1
    endloop
  endfacet
  facet normal 0 0 1
    outer loop
      vertex -0.00253555 3.29077 1
      vertex -0.855847 3.42923 1
      vertex -0.843657 2.95615 1
    endloop
  endfacet
  facet normal 0 0 1
    outer loop
      vertex -0.00253555 3.29077 1
      vertex -0.843657 2.95615 1
      vertex -0.00253555 2.96769 1
    endloop
  endfacet
  facet normal 0 0 1
    outer loop
      vertex -0.843657 2.95615 1
      vertex -0.855847 2.66769 1
      vertex 0.0218448 2.74269 1
    endloop
  endfacet
  facet normal 0 0 1
    outer loop
      vertex 0.101081 2.39077 1
      vertex -0.886323 2.39654 1
      vertex -0.965559 2.17154 1
    endloop
  endfacet
  facet normal 0 0 1
    outer loop
      vertex 0.101081 2.39077 1
      vertex -0.965559 2.17154 1
      vertex 0.277838 1.95808 1
    endloop
  endfacet
  facet normal 0 0 1
    outer loop
      vertex 0.277838 1.95808 1
      vertex -1.17889 1.785 1
      vertex 0.515547 1.57154 1
    endloop
  endfacet
  facet normal 0 0 1
    outer loop
      vertex -1.17889 1.785 1
      vertex -1.48364 1.40423 1
      vertex 0.515547 1.57154 1
    endloop
  endfacet
  facet normal -0 0 1
    outer loop
      vertex -1.94077 1.01769 1
      vertex 1.17991 0.965769 1
      vertex 0.820301 1.23692 1
    endloop
  endfacet
  facet normal 0 0 1
    outer loop
      vertex -1.48364 1.40423 1
      vertex -1.94077 1.01769 1
      vertex 0.820301 1.23692 1
    endloop
  endfacet
  facet normal 0 0 1
    outer loop
      vertex -1.94077 1.01769 1
      vertex -2.5198 -4.82654 1
      vertex 1.17991 0.965769 1
    endloop
  endfacet
  facet normal -0 0 1
    outer loop
      vertex -2.45276 0.758077 1
      vertex -2.5198 -4.82654 1
      vertex -1.94077 1.01769 1
    endloop
  endfacet
  facet normal -0 0 1
    outer loop
      vertex -3.00132 0.631154 1
      vertex -2.5198 -4.82654 1
      vertex -2.45276 0.758077 1
    endloop
  endfacet
  facet normal -0 0 1
    outer loop
      vertex -3.56206 0.631154 1
      vertex -2.5198 -4.82654 1
      vertex -3.00132 0.631154 1
    endloop
  endfacet
  facet normal 0 0 1
    outer loop
      vertex -4.11672 0.769615 1
      vertex -7.57263 -2.16692 1
      vertex -7.18254 -3.10154 1
    endloop
  endfacet
  facet normal -0 0 1
    outer loop
      vertex -7.77986 -1.41692 1
      vertex -7.57263 -2.16692 1
      vertex -4.11672 0.769615 1
    endloop
  endfacet
  facet normal -0 0 1
    outer loop
      vertex -7.90176 -0.216923 1
      vertex -7.87129 -0.932308 1
      vertex -4.64089 1.04654 1
    endloop
  endfacet
  facet normal -0 0 1
    outer loop
      vertex -7.84691 0.983077 1
      vertex -7.90176 -0.216923 1
      vertex -5.01879 1.34654 1
    endloop
  endfacet
  facet normal 0 0 1
    outer loop
      vertex -5.61611 2.25231 1
      vertex -7.84691 0.983077 1
      vertex -5.23821 1.58308 1
    endloop
  endfacet
  facet normal 0 0 1
    outer loop
      vertex -7.31054 3.75231 1
      vertex -7.51777 3.07154 1
      vertex -5.73801 3.01385 1
    endloop
  endfacet
  facet normal 0 0 1
    outer loop
      vertex -5.73801 3.01385 1
      vertex -7.51777 3.07154 1
      vertex -5.61611 2.25231 1
    endloop
  endfacet
  facet normal 0 0 1
    outer loop
      vertex -5.68925 3.70038 1
      vertex -7.31054 3.75231 1
      vertex -5.73801 3.01385 1
    endloop
  endfacet
  facet normal 0 0 1
    outer loop
      vertex -7.68844 2.235 1
      vertex -5.61611 2.25231 1
      vertex -7.51777 3.07154 1
    endloop
  endfacet
  facet normal 0 0 1
    outer loop
      vertex -7.84691 0.983077 1
      vertex -5.61611 2.25231 1
      vertex -7.68844 2.235 1
    endloop
  endfacet
  facet normal 0 0 1
    outer loop
      vertex -5.01879 1.34654 1
      vertex -5.23821 1.58308 1
      vertex -7.84691 0.983077 1
    endloop
  endfacet
  facet normal 0 0 1
    outer loop
      vertex -4.64089 1.04654 1
      vertex -5.01879 1.34654 1
      vertex -7.90176 -0.216923 1
    endloop
  endfacet
  facet normal 0 -0 1
    outer loop
      vertex -7.77986 -1.41692 1
      vertex -4.64089 1.04654 1
      vertex -7.87129 -0.932308 1
    endloop
  endfacet
  facet normal 0 0 1
    outer loop
      vertex -4.11672 0.769615 1
      vertex -4.64089 1.04654 1
      vertex -7.77986 -1.41692 1
    endloop
  endfacet
  facet normal 0 0 1
    outer loop
      vertex -7.18254 -3.10154 1
      vertex -3.56206 0.631154 1
      vertex -4.11672 0.769615 1
    endloop
  endfacet
  facet normal 0 -0 1
    outer loop
      vertex -6.63399 -3.99577 1
      vertex -3.56206 0.631154 1
      vertex -7.18254 -3.10154 1
    endloop
  endfacet
  facet normal 0 0 1
    outer loop
      vertex -2.5198 -4.82654 1
      vertex -3.56206 0.631154 1
      vertex -6.63399 -3.99577 1
    endloop
  endfacet
  facet normal 0 -0 1
    outer loop
      vertex -3.3914 -5.47846 1
      vertex -2.5198 -4.82654 1
      vertex -6.10371 -4.67654 1
    endloop
  endfacet
  facet normal 0 0 1
    outer loop
      vertex -3.3914 -5.47846 1
      vertex -6.10371 -4.67654 1
      vertex -5.3784 -5.47846 1
    endloop
  endfacet
  facet normal 0 0 1
    outer loop
      vertex 7.08605 -5.80731 1
      vertex 2.31969 -6.79385 1
      vertex 7.08605 -6.79385 1
    endloop
  endfacet
  facet normal 0 0 1
    outer loop
      vertex 7.08605 -5.80731 1
      vertex 2.3075 -5.80731 1
      vertex 2.31969 -6.79385 1
    endloop
  endfacet
  facet normal 0 0 1
    outer loop
      vertex -2.23334 -5.24192 1
      vertex -3.06227 -5.82462 1
      vertex -3.05617 -6.79385 1
    endloop
  endfacet
  facet normal 0 0 1
    outer loop
      vertex -7.90786 -6.79385 1
      vertex -3.05617 -6.79385 1
      vertex -7.90786 -5.91692 1
    endloop
  endfacet
  facet normal 0 0 1
    outer loop
      vertex -3.05617 -6.79385 1
      vertex -3.06227 -5.82462 1
      vertex -7.90786 -5.91692 1
    endloop
  endfacet
  facet normal 0 0 1
    outer loop
      vertex -2.21505 -7.37077 1
      vertex -2.23334 -5.24192 1
      vertex -3.05617 -6.79385 1
    endloop
  endfacet
  facet normal 0 0 1
    outer loop
      vertex 1.47857 -7.37077 1
      vertex 1.41152 -5.23615 1
      vertex -2.21505 -7.37077 1
    endloop
  endfacet
  facet normal 0.598956 -0.800782 0
    outer loop
      vertex -2.5198 -4.82654 0
      vertex -3.3914 -5.47846 1
      vertex -3.3914 -5.47846 0
    endloop
  endfacet
  facet normal 0.598956 -0.800782 0
    outer loop
      vertex -2.5198 -4.82654 0
      vertex -2.5198 -4.82654 1
      vertex -3.3914 -5.47846 1
    endloop
  endfacet
  facet normal -0.00135027 -0.999999 0
    outer loop
      vertex 1.75285 -4.83231 0
      vertex -2.5198 -4.82654 1
      vertex -2.5198 -4.82654 0
    endloop
  endfacet
  facet normal -0.00135027 -0.999999 0
    outer loop
      vertex 1.75285 -4.83231 0
      vertex 1.75285 -4.83231 1
      vertex -2.5198 -4.82654 1
    endloop
  endfacet
  facet normal -0.512809 -0.858502 0
    outer loop
      vertex 2.38064 -5.20731 0
      vertex 1.75285 -4.83231 1
      vertex 1.75285 -4.83231 0
    endloop
  endfacet
  facet normal -0.512809 -0.858502 0
    outer loop
      vertex 2.38064 -5.20731 0
      vertex 2.38064 -5.20731 1
      vertex 1.75285 -4.83231 1
    endloop
  endfacet
  facet normal -0.436247 -0.899827 0
    outer loop
      vertex 2.63054 -5.32846 0
      vertex 2.38064 -5.20731 1
      vertex 2.38064 -5.20731 0
    endloop
  endfacet
  facet normal -0.436247 -0.899827 0
    outer loop
      vertex 2.63054 -5.32846 0
      vertex 2.63054 -5.32846 1
      vertex 2.38064 -5.20731 1
    endloop
  endfacet
  facet normal -0.261061 -0.965322 0
    outer loop
      vertex 2.75854 -5.36308 0
      vertex 2.63054 -5.32846 1
      vertex 2.63054 -5.32846 0
    endloop
  endfacet
  facet normal -0.261061 -0.965322 0
    outer loop
      vertex 2.75854 -5.36308 0
      vertex 2.75854 -5.36308 1
      vertex 2.63054 -5.32846 1
    endloop
  endfacet
  facet normal -0.0906387 -0.995884 0
    outer loop
      vertex 3.07548 -5.39192 0
      vertex 2.75854 -5.36308 1
      vertex 2.75854 -5.36308 0
    endloop
  endfacet
  facet normal -0.0906387 -0.995884 0
    outer loop
      vertex 3.07548 -5.39192 0
      vertex 3.07548 -5.39192 1
      vertex 2.75854 -5.36308 1
    endloop
  endfacet
  facet normal -0.00411535 -0.999992 0
    outer loop
      vertex 4.47735 -5.39769 0
      vertex 3.07548 -5.39192 1
      vertex 3.07548 -5.39192 0
    endloop
  endfacet
  facet normal -0.00411535 -0.999992 0
    outer loop
      vertex 4.47735 -5.39769 0
      vertex 4.47735 -5.39769 1
      vertex 3.07548 -5.39192 1
    endloop
  endfacet
  facet normal 0.738037 -0.67476 0
    outer loop
      vertex 5.02591 -4.79769 0
      vertex 4.47735 -5.39769 1
      vertex 4.47735 -5.39769 0
    endloop
  endfacet
  facet normal 0.738037 -0.67476 0
    outer loop
      vertex 5.02591 -4.79769 0
      vertex 5.02591 -4.79769 1
      vertex 4.47735 -5.39769 1
    endloop
  endfacet
  facet normal 0.769066 -0.639169 0
    outer loop
      vertex 5.38552 -4.365 0
      vertex 5.02591 -4.79769 1
      vertex 5.02591 -4.79769 0
    endloop
  endfacet
  facet normal 0.769066 -0.639169 0
    outer loop
      vertex 5.38552 -4.365 0
      vertex 5.38552 -4.365 1
      vertex 5.02591 -4.79769 1
    endloop
  endfacet
  facet normal 0.791259 -0.611482 0
    outer loop
      vertex 5.86703 -3.74192 0
      vertex 5.38552 -4.365 1
      vertex 5.38552 -4.365 0
    endloop
  endfacet
  facet normal 0.791259 -0.611482 0
    outer loop
      vertex 5.86703 -3.74192 0
      vertex 5.86703 -3.74192 1
      vertex 5.38552 -4.365 1
    endloop
  endfacet
  facet normal 0.817569 -0.575831 0
    outer loop
      vertex 6.26931 -3.17077 0
      vertex 5.86703 -3.74192 1
      vertex 5.86703 -3.74192 0
    endloop
  endfacet
  facet normal 0.817569 -0.575831 0
    outer loop
      vertex 6.26931 -3.17077 0
      vertex 6.26931 -3.17077 1
      vertex 5.86703 -3.74192 1
    endloop
  endfacet
  facet normal 0.853078 -0.521783 0
    outer loop
      vertex 6.47044 -2.84192 0
      vertex 6.26931 -3.17077 1
      vertex 6.26931 -3.17077 0
    endloop
  endfacet
  facet normal 0.853078 -0.521783 0
    outer loop
      vertex 6.47044 -2.84192 0
      vertex 6.47044 -2.84192 1
      vertex 6.26931 -3.17077 1
    endloop
  endfacet
  facet normal 0.905181 -0.425025 0
    outer loop
      vertex 6.66549 -2.42654 0
      vertex 6.47044 -2.84192 1
      vertex 6.47044 -2.84192 0
    endloop
  endfacet
  facet normal 0.905181 -0.425025 0
    outer loop
      vertex 6.66549 -2.42654 0
      vertex 6.66549 -2.42654 1
      vertex 6.47044 -2.84192 1
    endloop
  endfacet
  facet normal 0.96017 -0.279416 0
    outer loop
      vertex 6.94586 -1.46308 0
      vertex 6.66549 -2.42654 1
      vertex 6.66549 -2.42654 0
    endloop
  endfacet
  facet normal 0.96017 -0.279416 0
    outer loop
      vertex 6.94586 -1.46308 0
      vertex 6.94586 -1.46308 1
      vertex 6.66549 -2.42654 1
    endloop
  endfacet
  facet normal 0.994814 -0.10171 0
    outer loop
      vertex 7.09214 -0.0323077 0
      vertex 6.94586 -1.46308 1
      vertex 6.94586 -1.46308 0
    endloop
  endfacet
  facet normal 0.994814 -0.10171 0
    outer loop
      vertex 7.09214 -0.0323077 0
      vertex 7.09214 -0.0323077 1
      vertex 6.94586 -1.46308 1
    endloop
  endfacet
  facet normal 0.996853 0.0792698 0
    outer loop
      vertex 6.96414 1.57731 0
      vertex 7.09214 -0.0323077 1
      vertex 7.09214 -0.0323077 0
    endloop
  endfacet
  facet normal 0.996853 0.0792698 -0
    outer loop
      vertex 6.96414 1.57731 0
      vertex 6.96414 1.57731 1
      vertex 7.09214 -0.0323077 1
    endloop
  endfacet
  facet normal 0.980144 0.198288 0
    outer loop
      vertex 6.68987 2.93308 0
      vertex 6.96414 1.57731 1
      vertex 6.96414 1.57731 0
    endloop
  endfacet
  facet normal 0.980144 0.198288 -0
    outer loop
      vertex 6.68987 2.93308 0
      vertex 6.68987 2.93308 1
      vertex 6.96414 1.57731 1
    endloop
  endfacet
  facet normal 0.962001 0.273045 0
    outer loop
      vertex 6.47044 3.70615 0
      vertex 6.68987 2.93308 1
      vertex 6.68987 2.93308 0
    endloop
  endfacet
  facet normal 0.962001 0.273045 -0
    outer loop
      vertex 6.47044 3.70615 0
      vertex 6.47044 3.70615 1
      vertex 6.68987 2.93308 1
    endloop
  endfacet
  facet normal 0 1 0
    outer loop
      vertex 4.87353 3.70615 0
      vertex 6.47044 3.70615 1
      vertex 6.47044 3.70615 0
    endloop
  endfacet
  facet normal 0 1 0
    outer loop
      vertex 4.87353 3.70615 0
      vertex 4.87353 3.70615 1
      vertex 6.47044 3.70615 1
    endloop
  endfacet
  facet normal -0.999987 0.00517876 0
    outer loop
      vertex 4.86744 2.52923 0
      vertex 4.87353 3.70615 1
      vertex 4.87353 3.70615 0
    endloop
  endfacet
  facet normal -0.999987 0.00517876 0
    outer loop
      vertex 4.86744 2.52923 0
      vertex 4.86744 2.52923 1
      vertex 4.87353 3.70615 1
    endloop
  endfacet
  facet normal -0.993999 0.10939 0
    outer loop
      vertex 4.83696 2.25231 0
      vertex 4.86744 2.52923 1
      vertex 4.86744 2.52923 0
    endloop
  endfacet
  facet normal -0.993999 0.10939 0
    outer loop
      vertex 4.83696 2.25231 0
      vertex 4.83696 2.25231 1
      vertex 4.86744 2.52923 1
    endloop
  endfacet
  facet normal -0.9486 0.316477 0
    outer loop
      vertex 4.76382 2.03308 0
      vertex 4.83696 2.25231 1
      vertex 4.83696 2.25231 0
    endloop
  endfacet
  facet normal -0.9486 0.316477 0
    outer loop
      vertex 4.76382 2.03308 0
      vertex 4.76382 2.03308 1
      vertex 4.83696 2.25231 1
    endloop
  endfacet
  facet normal -0.862424 0.506186 0
    outer loop
      vertex 4.55049 1.66962 0
      vertex 4.76382 2.03308 1
      vertex 4.76382 2.03308 0
    endloop
  endfacet
  facet normal -0.862424 0.506186 0
    outer loop
      vertex 4.55049 1.66962 0
      vertex 4.55049 1.66962 1
      vertex 4.76382 2.03308 1
    endloop
  endfacet
  facet normal -0.725346 0.688384 0
    outer loop
      vertex 4.22745 1.32923 0
      vertex 4.55049 1.66962 1
      vertex 4.55049 1.66962 0
    endloop
  endfacet
  facet normal -0.725346 0.688384 0
    outer loop
      vertex 4.22745 1.32923 0
      vertex 4.22745 1.32923 1
      vertex 4.55049 1.66962 1
    endloop
  endfacet
  facet normal -0.57887 0.81542 0
    outer loop
      vertex 3.69108 0.948462 0
      vertex 4.22745 1.32923 1
      vertex 4.22745 1.32923 0
    endloop
  endfacet
  facet normal -0.57887 0.81542 0
    outer loop
      vertex 3.69108 0.948462 0
      vertex 3.69108 0.948462 1
      vertex 4.22745 1.32923 1
    endloop
  endfacet
  facet normal -0.395217 0.918588 0
    outer loop
      vertex 3.08767 0.688846 0
      vertex 3.69108 0.948462 1
      vertex 3.69108 0.948462 0
    endloop
  endfacet
  facet normal -0.395217 0.918588 0
    outer loop
      vertex 3.08767 0.688846 0
      vertex 3.08767 0.688846 1
      vertex 3.69108 0.948462 1
    endloop
  endfacet
  facet normal -0.215259 0.976557 0
    outer loop
      vertex 2.64273 0.590769 0
      vertex 3.08767 0.688846 1
      vertex 3.08767 0.688846 0
    endloop
  endfacet
  facet normal -0.215259 0.976557 0
    outer loop
      vertex 2.64273 0.590769 0
      vertex 2.64273 0.590769 1
      vertex 3.08767 0.688846 1
    endloop
  endfacet
  facet normal 0 1 0
    outer loop
      vertex 2.37455 0.590769 0
      vertex 2.64273 0.590769 1
      vertex 2.64273 0.590769 0
    endloop
  endfacet
  facet normal 0 1 0
    outer loop
      vertex 2.37455 0.590769 0
      vertex 2.37455 0.590769 1
      vertex 2.64273 0.590769 1
    endloop
  endfacet
  facet normal 0.129458 0.991585 0
    outer loop
      vertex 2.02103 0.636923 0
      vertex 2.37455 0.590769 1
      vertex 2.37455 0.590769 0
    endloop
  endfacet
  facet normal 0.129458 0.991585 -0
    outer loop
      vertex 2.02103 0.636923 0
      vertex 2.02103 0.636923 1
      vertex 2.37455 0.590769 1
    endloop
  endfacet
  facet normal 0.277833 0.960629 0
    outer loop
      vertex 1.58219 0.763846 0
      vertex 2.02103 0.636923 1
      vertex 2.02103 0.636923 0
    endloop
  endfacet
  facet normal 0.277833 0.960629 -0
    outer loop
      vertex 1.58219 0.763846 0
      vertex 1.58219 0.763846 1
      vertex 2.02103 0.636923 1
    endloop
  endfacet
  facet normal 0.448609 0.893728 0
    outer loop
      vertex 1.17991 0.965769 0
      vertex 1.58219 0.763846 1
      vertex 1.58219 0.763846 0
    endloop
  endfacet
  facet normal 0.448609 0.893728 -0
    outer loop
      vertex 1.17991 0.965769 0
      vertex 1.17991 0.965769 1
      vertex 1.58219 0.763846 1
    endloop
  endfacet
  facet normal 0.602053 0.798456 0
    outer loop
      vertex 0.820301 1.23692 0
      vertex 1.17991 0.965769 1
      vertex 1.17991 0.965769 0
    endloop
  endfacet
  facet normal 0.602053 0.798456 -0
    outer loop
      vertex 0.820301 1.23692 0
      vertex 0.820301 1.23692 1
      vertex 1.17991 0.965769 1
    endloop
  endfacet
  facet normal 0.739326 0.673348 0
    outer loop
      vertex 0.515547 1.57154 0
      vertex 0.820301 1.23692 1
      vertex 0.820301 1.23692 0
    endloop
  endfacet
  facet normal 0.739326 0.673348 -0
    outer loop
      vertex 0.515547 1.57154 0
      vertex 0.515547 1.57154 1
      vertex 0.820301 1.23692 1
    endloop
  endfacet
  facet normal 0.851817 0.523839 0
    outer loop
      vertex 0.277838 1.95808 0
      vertex 0.515547 1.57154 1
      vertex 0.515547 1.57154 0
    endloop
  endfacet
  facet normal 0.851817 0.523839 -0
    outer loop
      vertex 0.277838 1.95808 0
      vertex 0.277838 1.95808 1
      vertex 0.515547 1.57154 1
    endloop
  endfacet
  facet normal 0.925737 0.378169 0
    outer loop
      vertex 0.101081 2.39077 0
      vertex 0.277838 1.95808 1
      vertex 0.277838 1.95808 0
    endloop
  endfacet
  facet normal 0.925737 0.378169 -0
    outer loop
      vertex 0.101081 2.39077 0
      vertex 0.101081 2.39077 1
      vertex 0.277838 1.95808 1
    endloop
  endfacet
  facet normal 0.975578 0.219653 0
    outer loop
      vertex 0.0218448 2.74269 0
      vertex 0.101081 2.39077 1
      vertex 0.101081 2.39077 0
    endloop
  endfacet
  facet normal 0.975578 0.219653 -0
    outer loop
      vertex 0.0218448 2.74269 0
      vertex 0.0218448 2.74269 1
      vertex 0.101081 2.39077 1
    endloop
  endfacet
  facet normal 0.994181 0.107726 0
    outer loop
      vertex -0.00253555 2.96769 0
      vertex 0.0218448 2.74269 1
      vertex 0.0218448 2.74269 0
    endloop
  endfacet
  facet normal 0.994181 0.107726 -0
    outer loop
      vertex -0.00253555 2.96769 0
      vertex -0.00253555 2.96769 1
      vertex 0.0218448 2.74269 1
    endloop
  endfacet
  facet normal 1 0 0
    outer loop
      vertex -0.00253555 3.29077 0
      vertex -0.00253555 2.96769 1
      vertex -0.00253555 2.96769 0
    endloop
  endfacet
  facet normal 1 0 -0
    outer loop
      vertex -0.00253555 3.29077 0
      vertex -0.00253555 3.29077 1
      vertex -0.00253555 2.96769 1
    endloop
  endfacet
  facet normal 0.985709 -0.168459 0
    outer loop
      vertex 0.0645104 3.68308 0
      vertex -0.00253555 3.29077 1
      vertex -0.00253555 3.29077 0
    endloop
  endfacet
  facet normal 0.985709 -0.168459 0
    outer loop
      vertex 0.0645104 3.68308 0
      vertex 0.0645104 3.68308 1
      vertex -0.00253555 3.29077 1
    endloop
  endfacet
  facet normal 0.924377 -0.381479 0
    outer loop
      vertex 0.216887 4.05231 0
      vertex 0.0645104 3.68308 1
      vertex 0.0645104 3.68308 0
    endloop
  endfacet
  facet normal 0.924377 -0.381479 0
    outer loop
      vertex 0.216887 4.05231 0
      vertex 0.216887 4.05231 1
      vertex 0.0645104 3.68308 1
    endloop
  endfacet
  facet normal 0.833883 -0.551941 0
    outer loop
      vertex 0.533832 4.53115 0
      vertex 0.216887 4.05231 1
      vertex 0.216887 4.05231 0
    endloop
  endfacet
  facet normal 0.833883 -0.551941 0
    outer loop
      vertex 0.533832 4.53115 0
      vertex 0.533832 4.53115 1
      vertex 0.216887 4.05231 1
    endloop
  endfacet
  facet normal 0.742602 -0.669733 0
    outer loop
      vertex 0.74716 4.76769 0
      vertex 0.533832 4.53115 1
      vertex 0.533832 4.53115 0
    endloop
  endfacet
  facet normal 0.742602 -0.669733 0
    outer loop
      vertex 0.74716 4.76769 0
      vertex 0.74716 4.76769 1
      vertex 0.533832 4.53115 1
    endloop
  endfacet
  facet normal 0.647628 -0.761957 0
    outer loop
      vertex 1.04582 5.02154 0
      vertex 0.74716 4.76769 1
      vertex 0.74716 4.76769 0
    endloop
  endfacet
  facet normal 0.647628 -0.761957 0
    outer loop
      vertex 1.04582 5.02154 0
      vertex 1.04582 5.02154 1
      vertex 0.74716 4.76769 1
    endloop
  endfacet
  facet normal 0.475747 -0.879582 0
    outer loop
      vertex 1.38714 5.20615 0
      vertex 1.04582 5.02154 1
      vertex 1.04582 5.02154 0
    endloop
  endfacet
  facet normal 0.475747 -0.879582 0
    outer loop
      vertex 1.38714 5.20615 0
      vertex 1.38714 5.20615 1
      vertex 1.04582 5.02154 1
    endloop
  endfacet
  facet normal 0.288377 -0.957517 0
    outer loop
      vertex 1.78942 5.32731 0
      vertex 1.38714 5.20615 1
      vertex 1.38714 5.20615 0
    endloop
  endfacet
  facet normal 0.288377 -0.957517 0
    outer loop
      vertex 1.78942 5.32731 0
      vertex 1.78942 5.32731 1
      vertex 1.38714 5.20615 1
    endloop
  endfacet
  facet normal 0.130667 -0.991426 0
    outer loop
      vertex 2.27093 5.39077 0
      vertex 1.78942 5.32731 1
      vertex 1.78942 5.32731 0
    endloop
  endfacet
  facet normal 0.130667 -0.991426 0
    outer loop
      vertex 2.27093 5.39077 0
      vertex 2.27093 5.39077 1
      vertex 1.78942 5.32731 1
    endloop
  endfacet
  facet normal 0.0199232 -0.999802 0
    outer loop
      vertex 2.84996 5.40231 0
      vertex 2.27093 5.39077 1
      vertex 2.27093 5.39077 0
    endloop
  endfacet
  facet normal 0.0199232 -0.999802 0
    outer loop
      vertex 2.84996 5.40231 0
      vertex 2.84996 5.40231 1
      vertex 2.27093 5.39077 1
    endloop
  endfacet
  facet normal -0.0585346 -0.998285 0
    outer loop
      vertex 3.53871 5.36192 0
      vertex 2.84996 5.40231 1
      vertex 2.84996 5.40231 0
    endloop
  endfacet
  facet normal -0.0585346 -0.998285 0
    outer loop
      vertex 3.53871 5.36192 0
      vertex 3.53871 5.36192 1
      vertex 2.84996 5.40231 1
    endloop
  endfacet
  facet normal -0.109612 -0.993974 0
    outer loop
      vertex 5.42209 5.15423 0
      vertex 3.53871 5.36192 1
      vertex 3.53871 5.36192 0
    endloop
  endfacet
  facet normal -0.109612 -0.993974 0
    outer loop
      vertex 5.42209 5.15423 0
      vertex 5.42209 5.15423 1
      vertex 3.53871 5.36192 1
    endloop
  endfacet
  facet normal -0.0932062 -0.995647 0
    outer loop
      vertex 5.97674 5.10231 0
      vertex 5.42209 5.15423 1
      vertex 5.42209 5.15423 0
    endloop
  endfacet
  facet normal -0.0932062 -0.995647 0
    outer loop
      vertex 5.97674 5.10231 0
      vertex 5.97674 5.10231 1
      vertex 5.42209 5.15423 1
    endloop
  endfacet
  facet normal 0 -1 0
    outer loop
      vertex 6.31807 5.10231 0
      vertex 5.97674 5.10231 1
      vertex 5.97674 5.10231 0
    endloop
  endfacet
  facet normal 0 -1 0
    outer loop
      vertex 6.31807 5.10231 0
      vertex 6.31807 5.10231 1
      vertex 5.97674 5.10231 1
    endloop
  endfacet
  facet normal 0.988802 0.149236 0
    outer loop
      vertex 6.25102 5.54654 0
      vertex 6.31807 5.10231 1
      vertex 6.31807 5.10231 0
    endloop
  endfacet
  facet normal 0.988802 0.149236 -0
    outer loop
      vertex 6.25102 5.54654 0
      vertex 6.25102 5.54654 1
      vertex 6.31807 5.10231 1
    endloop
  endfacet
  facet normal 0.979407 0.201897 0
    outer loop
      vertex 6.20226 5.78308 0
      vertex 6.25102 5.54654 1
      vertex 6.25102 5.54654 0
    endloop
  endfacet
  facet normal 0.979407 0.201897 -0
    outer loop
      vertex 6.20226 5.78308 0
      vertex 6.20226 5.78308 1
      vertex 6.25102 5.54654 1
    endloop
  endfacet
  facet normal 0.958924 0.283664 0
    outer loop
      vertex 6.15959 5.92731 0
      vertex 6.20226 5.78308 1
      vertex 6.20226 5.78308 0
    endloop
  endfacet
  facet normal 0.958924 0.283664 -0
    outer loop
      vertex 6.15959 5.92731 0
      vertex 6.15959 5.92731 1
      vertex 6.20226 5.78308 1
    endloop
  endfacet
  facet normal 0.687427 0.726254 0
    outer loop
      vertex 6.13521 5.95038 0
      vertex 6.15959 5.92731 1
      vertex 6.15959 5.92731 0
    endloop
  endfacet
  facet normal 0.687427 0.726254 -0
    outer loop
      vertex 6.13521 5.95038 0
      vertex 6.13521 5.95038 1
      vertex 6.15959 5.92731 1
    endloop
  endfacet
  facet normal 0.336223 0.941782 0
    outer loop
      vertex 3.67889 6.82731 0
      vertex 6.13521 5.95038 1
      vertex 6.13521 5.95038 0
    endloop
  endfacet
  facet normal 0.336223 0.941782 -0
    outer loop
      vertex 3.67889 6.82731 0
      vertex 3.67889 6.82731 1
      vertex 6.13521 5.95038 1
    endloop
  endfacet
  facet normal 0.307355 0.951595 0
    outer loop
      vertex 2.39283 7.24269 0
      vertex 3.67889 6.82731 1
      vertex 3.67889 6.82731 0
    endloop
  endfacet
  facet normal 0.307355 0.951595 -0
    outer loop
      vertex 2.39283 7.24269 0
      vertex 2.39283 7.24269 1
      vertex 3.67889 6.82731 1
    endloop
  endfacet
  facet normal 0.225693 0.974199 0
    outer loop
      vertex 1.52124 7.44462 0
      vertex 2.39283 7.24269 1
      vertex 2.39283 7.24269 0
    endloop
  endfacet
  facet normal 0.225693 0.974199 -0
    outer loop
      vertex 1.52124 7.44462 0
      vertex 1.52124 7.44462 1
      vertex 2.39283 7.24269 1
    endloop
  endfacet
  facet normal 0.132671 0.99116 0
    outer loop
      vertex 0.314409 7.60615 0
      vertex 1.52124 7.44462 1
      vertex 1.52124 7.44462 0
    endloop
  endfacet
  facet normal 0.132671 0.99116 -0
    outer loop
      vertex 0.314409 7.60615 0
      vertex 0.314409 7.60615 1
      vertex 1.52124 7.44462 1
    endloop
  endfacet
  facet normal 0.0190225 0.999819 0
    outer loop
      vertex -0.898513 7.62923 0
      vertex 0.314409 7.60615 1
      vertex 0.314409 7.60615 0
    endloop
  endfacet
  facet normal 0.0190225 0.999819 -0
    outer loop
      vertex -0.898513 7.62923 0
      vertex -0.898513 7.62923 1
      vertex 0.314409 7.60615 1
    endloop
  endfacet
  facet normal -0.0721168 0.997396 0
    outer loop
      vertex -1.7762 7.56577 0
      vertex -0.898513 7.62923 1
      vertex -0.898513 7.62923 0
    endloop
  endfacet
  facet normal -0.0721168 0.997396 0
    outer loop
      vertex -1.7762 7.56577 0
      vertex -1.7762 7.56577 1
      vertex -0.898513 7.62923 1
    endloop
  endfacet
  facet normal -0.155829 0.987784 0
    outer loop
      vertex -2.25162 7.49077 0
      vertex -1.7762 7.56577 1
      vertex -1.7762 7.56577 0
    endloop
  endfacet
  facet normal -0.155829 0.987784 0
    outer loop
      vertex -2.25162 7.49077 0
      vertex -2.25162 7.49077 1
      vertex -1.7762 7.56577 1
    endloop
  endfacet
  facet normal -0.242204 0.970225 0
    outer loop
      vertex -2.80627 7.35231 0
      vertex -2.25162 7.49077 1
      vertex -2.25162 7.49077 0
    endloop
  endfacet
  facet normal -0.242204 0.970225 0
    outer loop
      vertex -2.80627 7.35231 0
      vertex -2.80627 7.35231 1
      vertex -2.25162 7.49077 1
    endloop
  endfacet
  facet normal -0.276357 0.961055 0
    outer loop
      vertex -3.7693 7.07538 0
      vertex -2.80627 7.35231 1
      vertex -2.80627 7.35231 0
    endloop
  endfacet
  facet normal -0.276357 0.961055 0
    outer loop
      vertex -3.7693 7.07538 0
      vertex -3.7693 7.07538 1
      vertex -2.80627 7.35231 1
    endloop
  endfacet
  facet normal -0.322542 0.946555 0
    outer loop
      vertex -4.83594 6.71192 0
      vertex -3.7693 7.07538 1
      vertex -3.7693 7.07538 0
    endloop
  endfacet
  facet normal -0.322542 0.946555 0
    outer loop
      vertex -4.83594 6.71192 0
      vertex -4.83594 6.71192 1
      vertex -3.7693 7.07538 1
    endloop
  endfacet
  facet normal -0.355767 0.934575 0
    outer loop
      vertex -5.95743 6.285 0
      vertex -4.83594 6.71192 1
      vertex -4.83594 6.71192 0
    endloop
  endfacet
  facet normal -0.355767 0.934575 0
    outer loop
      vertex -5.95743 6.285 0
      vertex -5.95743 6.285 1
      vertex -4.83594 6.71192 1
    endloop
  endfacet
  facet normal -0.40912 0.912481 0
    outer loop
      vertex -6.42066 6.07731 0
      vertex -5.95743 6.285 1
      vertex -5.95743 6.285 0
    endloop
  endfacet
  facet normal -0.40912 0.912481 0
    outer loop
      vertex -6.42066 6.07731 0
      vertex -6.42066 6.07731 1
      vertex -5.95743 6.285 1
    endloop
  endfacet
  facet normal -0.506553 0.862209 0
    outer loop
      vertex -6.59742 5.97346 0
      vertex -6.42066 6.07731 1
      vertex -6.42066 6.07731 0
    endloop
  endfacet
  facet normal -0.506553 0.862209 0
    outer loop
      vertex -6.59742 5.97346 0
      vertex -6.59742 5.97346 1
      vertex -6.42066 6.07731 1
    endloop
  endfacet
  facet normal -0.573251 0.81938 0
    outer loop
      vertex -6.7376 5.87538 0
      vertex -6.59742 5.97346 1
      vertex -6.59742 5.97346 0
    endloop
  endfacet
  facet normal -0.573251 0.81938 0
    outer loop
      vertex -6.7376 5.87538 0
      vertex -6.7376 5.87538 1
      vertex -6.59742 5.97346 1
    endloop
  endfacet
  facet normal -0.763751 0.645511 0
    outer loop
      vertex -6.83512 5.76 0
      vertex -6.7376 5.87538 1
      vertex -6.7376 5.87538 0
    endloop
  endfacet
  facet normal -0.763751 0.645511 0
    outer loop
      vertex -6.83512 5.76 0
      vertex -6.83512 5.76 1
      vertex -6.7376 5.87538 1
    endloop
  endfacet
  facet normal -0.866433 0.499293 0
    outer loop
      vertex -6.90826 5.63308 0
      vertex -6.83512 5.76 1
      vertex -6.83512 5.76 0
    endloop
  endfacet
  facet normal -0.866433 0.499293 0
    outer loop
      vertex -6.90826 5.63308 0
      vertex -6.90826 5.63308 1
      vertex -6.83512 5.76 1
    endloop
  endfacet
  facet normal -0.95496 0.296734 0
    outer loop
      vertex -6.99969 5.33885 0
      vertex -6.90826 5.63308 1
      vertex -6.90826 5.63308 0
    endloop
  endfacet
  facet normal -0.95496 0.296734 0
    outer loop
      vertex -6.99969 5.33885 0
      vertex -6.99969 5.33885 1
      vertex -6.90826 5.63308 1
    endloop
  endfacet
  facet normal -0.979211 0.202847 0
    outer loop
      vertex -7.06064 5.04462 0
      vertex -6.99969 5.33885 1
      vertex -6.99969 5.33885 0
    endloop
  endfacet
  facet normal -0.979211 0.202847 0
    outer loop
      vertex -7.06064 5.04462 0
      vertex -7.06064 5.04462 1
      vertex -6.99969 5.33885 1
    endloop
  endfacet
  facet normal 0.134555 -0.990906 0
    outer loop
      vertex -5.61611 5.24077 0
      vertex -7.06064 5.04462 1
      vertex -7.06064 5.04462 0
    endloop
  endfacet
  facet normal 0.134555 -0.990906 0
    outer loop
      vertex -5.61611 5.24077 0
      vertex -5.61611 5.24077 1
      vertex -7.06064 5.04462 1
    endloop
  endfacet
  facet normal 0.111053 -0.993814 0
    outer loop
      vertex -4.73842 5.33885 0
      vertex -5.61611 5.24077 1
      vertex -5.61611 5.24077 0
    endloop
  endfacet
  facet normal 0.111053 -0.993814 0
    outer loop
      vertex -4.73842 5.33885 0
      vertex -4.73842 5.33885 1
      vertex -5.61611 5.24077 1
    endloop
  endfacet
  facet normal 0.0726184 -0.99736 0
    outer loop
      vertex -3.78758 5.40808 0
      vertex -4.73842 5.33885 1
      vertex -4.73842 5.33885 0
    endloop
  endfacet
  facet normal 0.0726184 -0.99736 0
    outer loop
      vertex -3.78758 5.40808 0
      vertex -3.78758 5.40808 1
      vertex -4.73842 5.33885 1
    endloop
  endfacet
  facet normal 0.00788758 -0.999969 0
    outer loop
      vertex -3.05617 5.41385 0
      vertex -3.78758 5.40808 1
      vertex -3.78758 5.40808 0
    endloop
  endfacet
  facet normal 0.00788758 -0.999969 0
    outer loop
      vertex -3.05617 5.41385 0
      vertex -3.05617 5.41385 1
      vertex -3.78758 5.40808 1
    endloop
  endfacet
  facet normal -0.0942327 -0.99555 0
    outer loop
      vertex -2.69047 5.37923 0
      vertex -3.05617 5.41385 1
      vertex -3.05617 5.41385 0
    endloop
  endfacet
  facet normal -0.0942327 -0.99555 0
    outer loop
      vertex -2.69047 5.37923 0
      vertex -2.69047 5.37923 1
      vertex -3.05617 5.41385 1
    endloop
  endfacet
  facet normal -0.241704 -0.97035 0
    outer loop
      vertex -2.45885 5.32154 0
      vertex -2.69047 5.37923 1
      vertex -2.69047 5.37923 0
    endloop
  endfacet
  facet normal -0.241704 -0.97035 0
    outer loop
      vertex -2.45885 5.32154 0
      vertex -2.45885 5.32154 1
      vertex -2.69047 5.37923 1
    endloop
  endfacet
  facet normal -0.414196 -0.910188 0
    outer loop
      vertex -2.14191 5.17731 0
      vertex -2.45885 5.32154 1
      vertex -2.45885 5.32154 0
    endloop
  endfacet
  facet normal -0.414196 -0.910188 0
    outer loop
      vertex -2.14191 5.17731 0
      vertex -2.14191 5.17731 1
      vertex -2.45885 5.32154 1
    endloop
  endfacet
  facet normal -0.555551 -0.831483 0
    outer loop
      vertex -1.72744 4.90038 0
      vertex -2.14191 5.17731 1
      vertex -2.14191 5.17731 0
    endloop
  endfacet
  facet normal -0.555551 -0.831483 0
    outer loop
      vertex -1.72744 4.90038 0
      vertex -1.72744 4.90038 1
      vertex -2.14191 5.17731 1
    endloop
  endfacet
  facet normal -0.681413 -0.731899 0
    outer loop
      vertex -1.35564 4.55423 0
      vertex -1.72744 4.90038 1
      vertex -1.72744 4.90038 0
    endloop
  endfacet
  facet normal -0.681413 -0.731899 0
    outer loop
      vertex -1.35564 4.55423 0
      vertex -1.35564 4.55423 1
      vertex -1.72744 4.90038 1
    endloop
  endfacet
  facet normal -0.792195 -0.610268 0
    outer loop
      vertex -1.14232 4.27731 0
      vertex -1.35564 4.55423 1
      vertex -1.35564 4.55423 0
    endloop
  endfacet
  facet normal -0.792195 -0.610268 0
    outer loop
      vertex -1.14232 4.27731 0
      vertex -1.14232 4.27731 1
      vertex -1.35564 4.55423 1
    endloop
  endfacet
  facet normal -0.884216 -0.467079 0
    outer loop
      vertex -0.959464 3.93115 0
      vertex -1.14232 4.27731 1
      vertex -1.14232 4.27731 0
    endloop
  endfacet
  facet normal -0.884216 -0.467079 0
    outer loop
      vertex -0.959464 3.93115 0
      vertex -0.959464 3.93115 1
      vertex -1.14232 4.27731 1
    endloop
  endfacet
  facet normal -0.953266 -0.302132 0
    outer loop
      vertex -0.886323 3.70038 0
      vertex -0.959464 3.93115 1
      vertex -0.959464 3.93115 0
    endloop
  endfacet
  facet normal -0.953266 -0.302132 0
    outer loop
      vertex -0.886323 3.70038 0
      vertex -0.886323 3.70038 1
      vertex -0.959464 3.93115 1
    endloop
  endfacet
  facet normal -0.993743 -0.111688 0
    outer loop
      vertex -0.855847 3.42923 0
      vertex -0.886323 3.70038 1
      vertex -0.886323 3.70038 0
    endloop
  endfacet
  facet normal -0.993743 -0.111688 0
    outer loop
      vertex -0.855847 3.42923 0
      vertex -0.855847 3.42923 1
      vertex -0.886323 3.70038 1
    endloop
  endfacet
  facet normal -0.999668 -0.0257593 0
    outer loop
      vertex -0.843657 2.95615 0
      vertex -0.855847 3.42923 1
      vertex -0.855847 3.42923 0
    endloop
  endfacet
  facet normal -0.999668 -0.0257593 0
    outer loop
      vertex -0.843657 2.95615 0
      vertex -0.843657 2.95615 1
      vertex -0.855847 3.42923 1
    endloop
  endfacet
  facet normal -0.999108 0.0422216 0
    outer loop
      vertex -0.855847 2.66769 0
      vertex -0.843657 2.95615 1
      vertex -0.843657 2.95615 0
    endloop
  endfacet
  facet normal -0.999108 0.0422216 0
    outer loop
      vertex -0.855847 2.66769 0
      vertex -0.855847 2.66769 1
      vertex -0.843657 2.95615 1
    endloop
  endfacet
  facet normal -0.993743 0.111688 0
    outer loop
      vertex -0.886323 2.39654 0
      vertex -0.855847 2.66769 1
      vertex -0.855847 2.66769 0
    endloop
  endfacet
  facet normal -0.993743 0.111688 0
    outer loop
      vertex -0.886323 2.39654 0
      vertex -0.886323 2.39654 1
      vertex -0.855847 2.66769 1
    endloop
  endfacet
  facet normal -0.943221 0.332165 0
    outer loop
      vertex -0.965559 2.17154 0
      vertex -0.886323 2.39654 1
      vertex -0.886323 2.39654 0
    endloop
  endfacet
  facet normal -0.943221 0.332165 0
    outer loop
      vertex -0.965559 2.17154 0
      vertex -0.965559 2.17154 1
      vertex -0.886323 2.39654 1
    endloop
  endfacet
  facet normal -0.875515 0.483191 0
    outer loop
      vertex -1.17889 1.785 0
      vertex -0.965559 2.17154 1
      vertex -0.965559 2.17154 0
    endloop
  endfacet
  facet normal -0.875515 0.483191 0
    outer loop
      vertex -1.17889 1.785 0
      vertex -1.17889 1.785 1
      vertex -0.965559 2.17154 1
    endloop
  endfacet
  facet normal -0.78073 0.624869 0
    outer loop
      vertex -1.48364 1.40423 0
      vertex -1.17889 1.785 1
      vertex -1.17889 1.785 0
    endloop
  endfacet
  facet normal -0.78073 0.624869 0
    outer loop
      vertex -1.48364 1.40423 0
      vertex -1.48364 1.40423 1
      vertex -1.17889 1.785 1
    endloop
  endfacet
  facet normal -0.645684 0.763604 0
    outer loop
      vertex -1.94077 1.01769 0
      vertex -1.48364 1.40423 1
      vertex -1.48364 1.40423 0
    endloop
  endfacet
  facet normal -0.645684 0.763604 0
    outer loop
      vertex -1.94077 1.01769 0
      vertex -1.94077 1.01769 1
      vertex -1.48364 1.40423 1
    endloop
  endfacet
  facet normal -0.452254 0.891889 0
    outer loop
      vertex -2.45276 0.758077 0
      vertex -1.94077 1.01769 1
      vertex -1.94077 1.01769 0
    endloop
  endfacet
  facet normal -0.452254 0.891889 0
    outer loop
      vertex -2.45276 0.758077 0
      vertex -2.45276 0.758077 1
      vertex -1.94077 1.01769 1
    endloop
  endfacet
  facet normal -0.225421 0.974261 0
    outer loop
      vertex -3.00132 0.631154 0
      vertex -2.45276 0.758077 1
      vertex -2.45276 0.758077 0
    endloop
  endfacet
  facet normal -0.225421 0.974261 0
    outer loop
      vertex -3.00132 0.631154 0
      vertex -3.00132 0.631154 1
      vertex -2.45276 0.758077 1
    endloop
  endfacet
  facet normal 0 1 0
    outer loop
      vertex -3.56206 0.631154 0
      vertex -3.00132 0.631154 1
      vertex -3.00132 0.631154 0
    endloop
  endfacet
  facet normal 0 1 0
    outer loop
      vertex -3.56206 0.631154 0
      vertex -3.56206 0.631154 1
      vertex -3.00132 0.631154 1
    endloop
  endfacet
  facet normal 0.242204 0.970225 0
    outer loop
      vertex -4.11672 0.769615 0
      vertex -3.56206 0.631154 1
      vertex -3.56206 0.631154 0
    endloop
  endfacet
  facet normal 0.242204 0.970225 -0
    outer loop
      vertex -4.11672 0.769615 0
      vertex -4.11672 0.769615 1
      vertex -3.56206 0.631154 1
    endloop
  endfacet
  facet normal 0.46712 0.884194 0
    outer loop
      vertex -4.64089 1.04654 0
      vertex -4.11672 0.769615 1
      vertex -4.11672 0.769615 0
    endloop
  endfacet
  facet normal 0.46712 0.884194 -0
    outer loop
      vertex -4.64089 1.04654 0
      vertex -4.64089 1.04654 1
      vertex -4.11672 0.769615 1
    endloop
  endfacet
  facet normal 0.621764 0.783205 0
    outer loop
      vertex -5.01879 1.34654 0
      vertex -4.64089 1.04654 1
      vertex -4.64089 1.04654 0
    endloop
  endfacet
  facet normal 0.621764 0.783205 -0
    outer loop
      vertex -5.01879 1.34654 0
      vertex -5.01879 1.34654 1
      vertex -4.64089 1.04654 1
    endloop
  endfacet
  facet normal 0.733133 0.680085 0
    outer loop
      vertex -5.23821 1.58308 0
      vertex -5.01879 1.34654 1
      vertex -5.01879 1.34654 0
    endloop
  endfacet
  facet normal 0.733133 0.680085 -0
    outer loop
      vertex -5.23821 1.58308 0
      vertex -5.23821 1.58308 1
      vertex -5.01879 1.34654 1
    endloop
  endfacet
  facet normal 0.870767 0.491697 0
    outer loop
      vertex -5.61611 2.25231 0
      vertex -5.23821 1.58308 1
      vertex -5.23821 1.58308 0
    endloop
  endfacet
  facet normal 0.870767 0.491697 -0
    outer loop
      vertex -5.61611 2.25231 0
      vertex -5.61611 2.25231 1
      vertex -5.23821 1.58308 1
    endloop
  endfacet
  facet normal 0.987429 0.158061 0
    outer loop
      vertex -5.73801 3.01385 0
      vertex -5.61611 2.25231 1
      vertex -5.61611 2.25231 0
    endloop
  endfacet
  facet normal 0.987429 0.158061 -0
    outer loop
      vertex -5.73801 3.01385 0
      vertex -5.73801 3.01385 1
      vertex -5.61611 2.25231 1
    endloop
  endfacet
  facet normal 0.997487 -0.0708455 0
    outer loop
      vertex -5.68925 3.70038 0
      vertex -5.73801 3.01385 1
      vertex -5.73801 3.01385 0
    endloop
  endfacet
  facet normal 0.997487 -0.0708455 0
    outer loop
      vertex -5.68925 3.70038 0
      vertex -5.68925 3.70038 1
      vertex -5.73801 3.01385 1
    endloop
  endfacet
  facet normal 0.0320093 0.999488 0
    outer loop
      vertex -7.31054 3.75231 0
      vertex -5.68925 3.70038 1
      vertex -5.68925 3.70038 0
    endloop
  endfacet
  facet normal 0.0320093 0.999488 -0
    outer loop
      vertex -7.31054 3.75231 0
      vertex -7.31054 3.75231 1
      vertex -5.68925 3.70038 1
    endloop
  endfacet
  facet normal -0.956657 0.291216 0
    outer loop
      vertex -7.51777 3.07154 0
      vertex -7.31054 3.75231 1
      vertex -7.31054 3.75231 0
    endloop
  endfacet
  facet normal -0.956657 0.291216 0
    outer loop
      vertex -7.51777 3.07154 0
      vertex -7.51777 3.07154 1
      vertex -7.31054 3.75231 1
    endloop
  endfacet
  facet normal -0.979818 0.199893 0
    outer loop
      vertex -7.68844 2.235 0
      vertex -7.51777 3.07154 1
      vertex -7.51777 3.07154 0
    endloop
  endfacet
  facet normal -0.979818 0.199893 0
    outer loop
      vertex -7.68844 2.235 0
      vertex -7.68844 2.235 1
      vertex -7.51777 3.07154 1
    endloop
  endfacet
  facet normal -0.992083 0.125581 0
    outer loop
      vertex -7.84691 0.983077 0
      vertex -7.68844 2.235 1
      vertex -7.68844 2.235 0
    endloop
  endfacet
  facet normal -0.992083 0.125581 0
    outer loop
      vertex -7.84691 0.983077 0
      vertex -7.84691 0.983077 1
      vertex -7.68844 2.235 1
    endloop
  endfacet
  facet normal -0.998957 0.0456654 0
    outer loop
      vertex -7.90176 -0.216923 0
      vertex -7.84691 0.983077 1
      vertex -7.84691 0.983077 0
    endloop
  endfacet
  facet normal -0.998957 0.0456654 0
    outer loop
      vertex -7.90176 -0.216923 0
      vertex -7.90176 -0.216923 1
      vertex -7.84691 0.983077 1
    endloop
  endfacet
  facet normal -0.999094 -0.0425614 0
    outer loop
      vertex -7.87129 -0.932308 0
      vertex -7.90176 -0.216923 1
      vertex -7.90176 -0.216923 0
    endloop
  endfacet
  facet normal -0.999094 -0.0425614 0
    outer loop
      vertex -7.87129 -0.932308 0
      vertex -7.87129 -0.932308 1
      vertex -7.90176 -0.216923 1
    endloop
  endfacet
  facet normal -0.982666 -0.185387 0
    outer loop
      vertex -7.77986 -1.41692 0
      vertex -7.87129 -0.932308 1
      vertex -7.87129 -0.932308 0
    endloop
  endfacet
  facet normal -0.982666 -0.185387 0
    outer loop
      vertex -7.77986 -1.41692 0
      vertex -7.77986 -1.41692 1
      vertex -7.87129 -0.932308 1
    endloop
  endfacet
  facet normal -0.963882 -0.266331 0
    outer loop
      vertex -7.57263 -2.16692 0
      vertex -7.77986 -1.41692 1
      vertex -7.77986 -1.41692 0
    endloop
  endfacet
  facet normal -0.963882 -0.266331 0
    outer loop
      vertex -7.57263 -2.16692 0
      vertex -7.57263 -2.16692 1
      vertex -7.77986 -1.41692 1
    endloop
  endfacet
  facet normal -0.922845 -0.385172 0
    outer loop
      vertex -7.18254 -3.10154 0
      vertex -7.57263 -2.16692 1
      vertex -7.57263 -2.16692 0
    endloop
  endfacet
  facet normal -0.922845 -0.385172 0
    outer loop
      vertex -7.18254 -3.10154 0
      vertex -7.18254 -3.10154 1
      vertex -7.57263 -2.16692 1
    endloop
  endfacet
  facet normal -0.852397 -0.522895 0
    outer loop
      vertex -6.63399 -3.99577 0
      vertex -7.18254 -3.10154 1
      vertex -7.18254 -3.10154 0
    endloop
  endfacet
  facet normal -0.852397 -0.522895 0
    outer loop
      vertex -6.63399 -3.99577 0
      vertex -6.63399 -3.99577 1
      vertex -7.18254 -3.10154 1
    endloop
  endfacet
  facet normal -0.788911 -0.614507 0
    outer loop
      vertex -6.10371 -4.67654 0
      vertex -6.63399 -3.99577 1
      vertex -6.63399 -3.99577 0
    endloop
  endfacet
  facet normal -0.788911 -0.614507 0
    outer loop
      vertex -6.10371 -4.67654 0
      vertex -6.10371 -4.67654 1
      vertex -6.63399 -3.99577 1
    endloop
  endfacet
  facet normal -0.741644 -0.670794 0
    outer loop
      vertex -5.3784 -5.47846 0
      vertex -6.10371 -4.67654 1
      vertex -6.10371 -4.67654 0
    endloop
  endfacet
  facet normal -0.741644 -0.670794 0
    outer loop
      vertex -5.3784 -5.47846 0
      vertex -5.3784 -5.47846 1
      vertex -6.10371 -4.67654 1
    endloop
  endfacet
  facet normal 0 -1 0
    outer loop
      vertex -3.3914 -5.47846 0
      vertex -5.3784 -5.47846 1
      vertex -5.3784 -5.47846 0
    endloop
  endfacet
  facet normal 0 -1 0
    outer loop
      vertex -3.3914 -5.47846 0
      vertex -3.3914 -5.47846 1
      vertex -5.3784 -5.47846 1
    endloop
  endfacet
  facet normal 0 -1 0
    outer loop
      vertex 7.08605 -6.79385 0
      vertex 2.31969 -6.79385 1
      vertex 2.31969 -6.79385 0
    endloop
  endfacet
  facet normal 0 -1 0
    outer loop
      vertex 7.08605 -6.79385 0
      vertex 7.08605 -6.79385 1
      vertex 2.31969 -6.79385 1
    endloop
  endfacet
  facet normal 1 0 0
    outer loop
      vertex 7.08605 -5.80731 0
      vertex 7.08605 -6.79385 1
      vertex 7.08605 -6.79385 0
    endloop
  endfacet
  facet normal 1 0 -0
    outer loop
      vertex 7.08605 -5.80731 0
      vertex 7.08605 -5.80731 1
      vertex 7.08605 -6.79385 1
    endloop
  endfacet
  facet normal 0 1 0
    outer loop
      vertex 2.3075 -5.80731 0
      vertex 7.08605 -5.80731 1
      vertex 7.08605 -5.80731 0
    endloop
  endfacet
  facet normal 0 1 0
    outer loop
      vertex 2.3075 -5.80731 0
      vertex 2.3075 -5.80731 1
      vertex 7.08605 -5.80731 1
    endloop
  endfacet
  facet normal 0.537536 0.843241 0
    outer loop
      vertex 1.41152 -5.23615 0
      vertex 2.3075 -5.80731 1
      vertex 2.3075 -5.80731 0
    endloop
  endfacet
  facet normal 0.537536 0.843241 -0
    outer loop
      vertex 1.41152 -5.23615 0
      vertex 1.41152 -5.23615 1
      vertex 2.3075 -5.80731 1
    endloop
  endfacet
  facet normal -0.00158284 0.999999 0
    outer loop
      vertex -2.23334 -5.24192 0
      vertex 1.41152 -5.23615 1
      vertex 1.41152 -5.23615 0
    endloop
  endfacet
  facet normal -0.00158284 0.999999 0
    outer loop
      vertex -2.23334 -5.24192 0
      vertex -2.23334 -5.24192 1
      vertex 1.41152 -5.23615 1
    endloop
  endfacet
  facet normal -0.575078 0.818099 0
    outer loop
      vertex -3.06227 -5.82462 0
      vertex -2.23334 -5.24192 1
      vertex -2.23334 -5.24192 0
    endloop
  endfacet
  facet normal -0.575078 0.818099 0
    outer loop
      vertex -3.06227 -5.82462 0
      vertex -3.06227 -5.82462 1
      vertex -2.23334 -5.24192 1
    endloop
  endfacet
  facet normal -0.0190464 0.999819 0
    outer loop
      vertex -7.90786 -5.91692 0
      vertex -3.06227 -5.82462 1
      vertex -3.06227 -5.82462 0
    endloop
  endfacet
  facet normal -0.0190464 0.999819 0
    outer loop
      vertex -7.90786 -5.91692 0
      vertex -7.90786 -5.91692 1
      vertex -3.06227 -5.82462 1
    endloop
  endfacet
  facet normal -1 0 0
    outer loop
      vertex -7.90786 -6.79385 0
      vertex -7.90786 -5.91692 1
      vertex -7.90786 -5.91692 0
    endloop
  endfacet
  facet normal -1 0 0
    outer loop
      vertex -7.90786 -6.79385 0
      vertex -7.90786 -6.79385 1
      vertex -7.90786 -5.91692 1
    endloop
  endfacet
  facet normal 0 -1 0
    outer loop
      vertex -3.05617 -6.79385 0
      vertex -7.90786 -6.79385 1
      vertex -7.90786 -6.79385 0
    endloop
  endfacet
  facet normal 0 -1 0
    outer loop
      vertex -3.05617 -6.79385 0
      vertex -3.05617 -6.79385 1
      vertex -7.90786 -6.79385 1
    endloop
  endfacet
  facet normal -0.565631 -0.824658 0
    outer loop
      vertex -2.21505 -7.37077 0
      vertex -3.05617 -6.79385 1
      vertex -3.05617 -6.79385 0
    endloop
  endfacet
  facet normal -0.565631 -0.824658 0
    outer loop
      vertex -2.21505 -7.37077 0
      vertex -2.21505 -7.37077 1
      vertex -3.05617 -6.79385 1
    endloop
  endfacet
  facet normal 0 -1 0
    outer loop
      vertex 1.47857 -7.37077 0
      vertex -2.21505 -7.37077 1
      vertex -2.21505 -7.37077 0
    endloop
  endfacet
  facet normal 0 -1 0
    outer loop
      vertex 1.47857 -7.37077 0
      vertex 1.47857 -7.37077 1
      vertex -2.21505 -7.37077 1
    endloop
  endfacet
  facet normal 0.565631 -0.824658 0
    outer loop
      vertex 2.31969 -6.79385 0
      vertex 1.47857 -7.37077 1
      vertex 1.47857 -7.37077 0
    endloop
  endfacet
  facet normal 0.565631 -0.824658 0
    outer loop
      vertex 2.31969 -6.79385 0
      vertex 2.31969 -6.79385 1
      vertex 1.47857 -7.37077 1
    endloop
  endfacet
endsolid OpenSCAD_Model
